//Maya ASCII 2022 scene
//Name: Hole.ma
//Last modified: Mon, Aug 30, 2021 12:39:17 AM
//Codeset: 1252
requires maya "2022";
requires "mtoa" "4.2.1";
currentUnit -l centimeter -a degree -t film;
fileInfo "application" "maya";
fileInfo "product" "Maya 2022";
fileInfo "version" "2022";
fileInfo "cutIdentifier" "202102181415-29bfc1879c";
fileInfo "osv" "Windows 10 Home v2009 (Build: 19043)";
fileInfo "UUID" "3D39F636-444B-F4BE-147F-89BC5F8F003C";
createNode transform -s -n "persp";
	rename -uid "4DDE47B3-4937-A5D5-252C-D3BAF70913BE";
	setAttr ".v" no;
	setAttr ".t" -type "double3" 50.431810185916071 -5.1476203758313526 57.203659975976876 ;
	setAttr ".r" -type "double3" 363.86164727022702 401.39999999992676 2.6500697781886709e-16 ;
createNode camera -s -n "perspShape" -p "persp";
	rename -uid "93797B0A-4388-6275-35F4-39965866295B";
	setAttr -k off ".v" no;
	setAttr ".fl" 34.999999999999993;
	setAttr ".coi" 76.433789575081647;
	setAttr ".imn" -type "string" "persp";
	setAttr ".den" -type "string" "persp_depth";
	setAttr ".man" -type "string" "persp_mask";
	setAttr ".hc" -type "string" "viewSet -p %camera";
	setAttr ".ai_translator" -type "string" "perspective";
createNode transform -s -n "top";
	rename -uid "FE00C579-4494-08D1-6A1D-7EA5C64DD753";
	setAttr ".v" no;
	setAttr ".t" -type "double3" 0 1000.1 0 ;
	setAttr ".r" -type "double3" -90 0 0 ;
createNode camera -s -n "topShape" -p "top";
	rename -uid "AD47801C-4C32-DCFA-2386-388B29619E63";
	setAttr -k off ".v" no;
	setAttr ".rnd" no;
	setAttr ".coi" 1000.1;
	setAttr ".ow" 30;
	setAttr ".imn" -type "string" "top";
	setAttr ".den" -type "string" "top_depth";
	setAttr ".man" -type "string" "top_mask";
	setAttr ".hc" -type "string" "viewSet -t %camera";
	setAttr ".o" yes;
	setAttr ".ai_translator" -type "string" "orthographic";
createNode transform -s -n "front";
	rename -uid "6411E562-4F2A-2D67-F848-6C96CE3D6DDA";
	setAttr ".v" no;
	setAttr ".t" -type "double3" 0 0 1000.1 ;
createNode camera -s -n "frontShape" -p "front";
	rename -uid "AD01E48B-4BF2-F729-4A27-428DDB7601DC";
	setAttr -k off ".v" no;
	setAttr ".rnd" no;
	setAttr ".coi" 1000.1;
	setAttr ".ow" 30;
	setAttr ".imn" -type "string" "front";
	setAttr ".den" -type "string" "front_depth";
	setAttr ".man" -type "string" "front_mask";
	setAttr ".hc" -type "string" "viewSet -f %camera";
	setAttr ".o" yes;
	setAttr ".ai_translator" -type "string" "orthographic";
createNode transform -s -n "side";
	rename -uid "87DD1CCF-40E3-0137-376D-DD9C6FF77DC8";
	setAttr ".v" no;
	setAttr ".t" -type "double3" 1000.1 0 0 ;
	setAttr ".r" -type "double3" 0 90 0 ;
createNode camera -s -n "sideShape" -p "side";
	rename -uid "D7F4982D-46C9-29CF-DE62-1AA188F86D49";
	setAttr -k off ".v" no;
	setAttr ".rnd" no;
	setAttr ".coi" 1000.1;
	setAttr ".ow" 30;
	setAttr ".imn" -type "string" "side";
	setAttr ".den" -type "string" "side_depth";
	setAttr ".man" -type "string" "side_mask";
	setAttr ".hc" -type "string" "viewSet -s %camera";
	setAttr ".o" yes;
	setAttr ".ai_translator" -type "string" "orthographic";
createNode transform -n "pTorus1";
	rename -uid "D334F2FE-4AD2-3252-8CDA-A8906D0597B8";
	setAttr ".t" -type "double3" 0 1.6876417715811991 0 ;
	setAttr ".s" -type "double3" 1.4821883182893512 5.1104185943117022 1.4821883182893512 ;
createNode mesh -n "pTorusShape1" -p "pTorus1";
	rename -uid "CA91E9A0-4A03-FAED-43FB-96BD24ED1240";
	setAttr -k off ".v";
	setAttr ".vir" yes;
	setAttr ".vif" yes;
	setAttr ".pv" -type "double2" 0.50000005960464478 0.074999844655394554 ;
	setAttr ".uvst[0].uvsn" -type "string" "map1";
	setAttr ".cuvs" -type "string" "map1";
	setAttr ".dcc" -type "string" "Ambient+Diffuse";
	setAttr ".covm[0]"  0 1 1;
	setAttr ".cdvm[0]"  0 1 1;
	setAttr ".ai_translator" -type "string" "polymesh";
createNode transform -n "pTorus2";
	rename -uid "773EBAF4-4D89-A493-7FF9-01A8FEA2E4DE";
	setAttr ".t" -type "double3" 0 -0.29541569936007761 0 ;
	setAttr ".s" -type "double3" 5.8914087278090665 0.84049641599438363 5.8914087278090665 ;
createNode mesh -n "pTorusShape2" -p "pTorus2";
	rename -uid "DB35A236-43A7-D4BF-31C4-A1929B9D977C";
	setAttr -k off ".v";
	setAttr ".vir" yes;
	setAttr ".vif" yes;
	setAttr ".pv" -type "double2" 0.50000005960464478 0.49999988079071045 ;
	setAttr ".uvst[0].uvsn" -type "string" "map1";
	setAttr ".cuvs" -type "string" "map1";
	setAttr ".dcc" -type "string" "Ambient+Diffuse";
	setAttr ".covm[0]"  0 1 1;
	setAttr ".cdvm[0]"  0 1 1;
	setAttr -s 160 ".pt";
	setAttr ".pt[0]" -type "float3" -0.045268569 -7.0926767e-09 0.014708635 ;
	setAttr ".pt[1]" -type "float3" -0.038507745 -7.0926767e-09 0.027977496 ;
	setAttr ".pt[2]" -type "float3" -0.027977511 -7.0926767e-09 0.038507722 ;
	setAttr ".pt[3]" -type "float3" -0.014708651 -7.0926767e-09 0.045268547 ;
	setAttr ".pt[4]" -type "float3" -5.6741416e-09 -7.0926767e-09 0.047598161 ;
	setAttr ".pt[5]" -type "float3" 0.01470864 -7.0926767e-09 0.045268543 ;
	setAttr ".pt[6]" -type "float3" 0.027977496 -7.0926767e-09 0.038507715 ;
	setAttr ".pt[7]" -type "float3" 0.038507719 -7.0926767e-09 0.027977487 ;
	setAttr ".pt[8]" -type "float3" 0.045268536 -7.0926767e-09 0.014708629 ;
	setAttr ".pt[9]" -type "float3" 0.047598157 -7.0926767e-09 -1.1348283e-08 ;
	setAttr ".pt[10]" -type "float3" 0.045268536 -7.0926767e-09 -0.014708651 ;
	setAttr ".pt[11]" -type "float3" 0.038507715 -7.0926767e-09 -0.027977509 ;
	setAttr ".pt[12]" -type "float3" 0.027977489 -7.0926767e-09 -0.038507733 ;
	setAttr ".pt[13]" -type "float3" 0.014708635 -7.0926767e-09 -0.045268551 ;
	setAttr ".pt[14]" -type "float3" -4.2556065e-09 -7.0926767e-09 -0.047598168 ;
	setAttr ".pt[15]" -type "float3" -0.014708642 -7.0926767e-09 -0.045268547 ;
	setAttr ".pt[16]" -type "float3" -0.027977496 -7.0926767e-09 -0.038507726 ;
	setAttr ".pt[17]" -type "float3" -0.038507719 -7.0926767e-09 -0.027977504 ;
	setAttr ".pt[18]" -type "float3" -0.045268536 -7.0926767e-09 -0.014708649 ;
	setAttr ".pt[19]" -type "float3" -0.047598157 -7.0926767e-09 -1.1348283e-08 ;
	setAttr ".pt[20]" -type "float3" -0.053914092 -0.0279775 0.017517736 ;
	setAttr ".pt[21]" -type "float3" -0.045862071 -0.0279775 0.033320725 ;
	setAttr ".pt[22]" -type "float3" -0.03332074 -0.0279775 0.045862049 ;
	setAttr ".pt[23]" -type "float3" -0.017517753 -0.0279775 0.053914078 ;
	setAttr ".pt[24]" -type "float3" -5.6741416e-09 -0.0279775 0.05668861 ;
	setAttr ".pt[25]" -type "float3" 0.017517742 -0.0279775 0.053914066 ;
	setAttr ".pt[26]" -type "float3" 0.033320725 -0.0279775 0.045862041 ;
	setAttr ".pt[27]" -type "float3" 0.045862041 -0.0279775 0.033320718 ;
	setAttr ".pt[28]" -type "float3" 0.053914063 -0.0279775 0.017517731 ;
	setAttr ".pt[29]" -type "float3" 0.056688599 -0.0279775 -1.1348283e-08 ;
	setAttr ".pt[30]" -type "float3" 0.053914063 -0.0279775 -0.017517753 ;
	setAttr ".pt[31]" -type "float3" 0.045862041 -0.0279775 -0.033320736 ;
	setAttr ".pt[32]" -type "float3" 0.033320721 -0.0279775 -0.045862053 ;
	setAttr ".pt[33]" -type "float3" 0.017517736 -0.0279775 -0.053914078 ;
	setAttr ".pt[34]" -type "float3" -3.9846899e-09 -0.0279775 -0.05668861 ;
	setAttr ".pt[35]" -type "float3" -0.017517744 -0.0279775 -0.053914078 ;
	setAttr ".pt[36]" -type "float3" -0.033320725 -0.0279775 -0.045862049 ;
	setAttr ".pt[37]" -type "float3" -0.045862041 -0.0279775 -0.033320732 ;
	setAttr ".pt[38]" -type "float3" -0.053914063 -0.0279775 -0.017517751 ;
	setAttr ".pt[39]" -type "float3" -0.056688599 -0.0279775 -1.1348283e-08 ;
	setAttr ".pt[60]" -type "float3" 0.57344311 0.18850078 -0.18632288 ;
	setAttr ".pt[61]" -type "float3" 0.4878 0.18850078 -0.35440719 ;
	setAttr ".pt[62]" -type "float3" 0.3544074 0.18850078 -0.48779958 ;
	setAttr ".pt[63]" -type "float3" 0.18632296 0.18850078 -0.57344294 ;
	setAttr ".pt[64]" -type "float3" 8.332723e-08 0.18850078 -0.60295361 ;
	setAttr ".pt[65]" -type "float3" -0.18632288 0.18850078 -0.57344288 ;
	setAttr ".pt[66]" -type "float3" -0.35440719 0.18850078 -0.48779944 ;
	setAttr ".pt[67]" -type "float3" -0.48779947 0.18850078 -0.35440716 ;
	setAttr ".pt[68]" -type "float3" -0.5734427 0.18850078 -0.18632278 ;
	setAttr ".pt[69]" -type "float3" -0.60295355 0.18850078 1.1110296e-07 ;
	setAttr ".pt[70]" -type "float3" -0.5734427 0.18850078 0.18632294 ;
	setAttr ".pt[71]" -type "float3" -0.48779947 0.18850078 0.35440731 ;
	setAttr ".pt[72]" -type "float3" -0.35440713 0.18850078 0.48779958 ;
	setAttr ".pt[73]" -type "float3" -0.18632284 0.18850078 0.57344294 ;
	setAttr ".pt[74]" -type "float3" 6.535781e-08 0.18850078 0.60295361 ;
	setAttr ".pt[75]" -type "float3" 0.1863229 0.18850078 0.57344288 ;
	setAttr ".pt[76]" -type "float3" 0.35440719 0.18850078 0.48779956 ;
	setAttr ".pt[77]" -type "float3" 0.48779953 0.18850078 0.35440731 ;
	setAttr ".pt[78]" -type "float3" 0.57344288 0.18850078 0.18632291 ;
	setAttr ".pt[79]" -type "float3" 0.60295355 0.18850078 1.1110296e-07 ;
	setAttr ".pt[80]" -type "float3" 0.65394258 0.072000921 -0.21247868 ;
	setAttr ".pt[81]" -type "float3" 0.55627698 0.072000921 -0.40415853 ;
	setAttr ".pt[82]" -type "float3" 0.40415871 0.072000921 -0.55627662 ;
	setAttr ".pt[83]" -type "float3" 0.21247895 0.072000921 -0.65394235 ;
	setAttr ".pt[84]" -type "float3" 8.332723e-08 0.072000921 -0.68759573 ;
	setAttr ".pt[85]" -type "float3" -0.21247868 0.072000921 -0.65394223 ;
	setAttr ".pt[86]" -type "float3" -0.4041585 0.072000921 -0.55627644 ;
	setAttr ".pt[87]" -type "float3" -0.55627644 0.072000921 -0.40415847 ;
	setAttr ".pt[88]" -type "float3" -0.65394217 0.072000921 -0.21247859 ;
	setAttr ".pt[89]" -type "float3" -0.68759561 0.072000921 1.1110296e-07 ;
	setAttr ".pt[90]" -type "float3" -0.65394217 0.072000921 0.21247892 ;
	setAttr ".pt[91]" -type "float3" -0.55627644 0.072000921 0.40415865 ;
	setAttr ".pt[92]" -type "float3" -0.40415847 0.072000921 0.55627662 ;
	setAttr ".pt[93]" -type "float3" -0.21247861 0.072000921 0.65394223 ;
	setAttr ".pt[94]" -type "float3" 6.2835255e-08 0.072000921 0.68759561 ;
	setAttr ".pt[95]" -type "float3" 0.2124787 0.072000921 0.65394223 ;
	setAttr ".pt[96]" -type "float3" 0.4041585 0.072000921 0.55627656 ;
	setAttr ".pt[97]" -type "float3" 0.55627644 0.072000921 0.40415859 ;
	setAttr ".pt[98]" -type "float3" 0.65394217 0.072000921 0.2124788 ;
	setAttr ".pt[99]" -type "float3" 0.68759561 0.072000921 1.1110296e-07 ;
	setAttr ".pt[100]" -type "float3" 0.66478842 2.0831807e-08 -0.21600275 ;
	setAttr ".pt[101]" -type "float3" 0.56550276 2.0831807e-08 -0.41086155 ;
	setAttr ".pt[102]" -type "float3" 0.41086185 2.0831807e-08 -0.5655027 ;
	setAttr ".pt[103]" -type "float3" 0.21600285 2.0831807e-08 -0.66478813 ;
	setAttr ".pt[104]" -type "float3" 8.332723e-08 2.0831807e-08 -0.69899958 ;
	setAttr ".pt[105]" -type "float3" -0.21600275 2.0831807e-08 -0.66478801 ;
	setAttr ".pt[106]" -type "float3" -0.41086149 2.0831807e-08 -0.56550241 ;
	setAttr ".pt[107]" -type "float3" -0.56550246 2.0831807e-08 -0.41086149 ;
	setAttr ".pt[108]" -type "float3" -0.66478801 2.0831807e-08 -0.21600267 ;
	setAttr ".pt[109]" -type "float3" -0.69899958 2.0831807e-08 1.1110296e-07 ;
	setAttr ".pt[110]" -type "float3" -0.66478801 2.0831807e-08 0.21600281 ;
	setAttr ".pt[111]" -type "float3" -0.56550241 2.0831807e-08 0.41086158 ;
	setAttr ".pt[112]" -type "float3" -0.41086146 2.0831807e-08 0.56550252 ;
	setAttr ".pt[113]" -type "float3" -0.21600269 2.0831807e-08 0.66478801 ;
	setAttr ".pt[114]" -type "float3" 6.2495417e-08 2.0831807e-08 0.69899958 ;
	setAttr ".pt[115]" -type "float3" 0.21600276 2.0831807e-08 0.66478801 ;
	setAttr ".pt[116]" -type "float3" 0.41086149 2.0831807e-08 0.56550252 ;
	setAttr ".pt[117]" -type "float3" 0.56550246 2.0831807e-08 0.41086155 ;
	setAttr ".pt[118]" -type "float3" 0.66478801 2.0831807e-08 0.21600279 ;
	setAttr ".pt[119]" -type "float3" 0.69899958 2.0831807e-08 1.1110296e-07 ;
	setAttr ".pt[120]" -type "float3" 0.65394258 -0.072000876 -0.21247868 ;
	setAttr ".pt[121]" -type "float3" 0.55627698 -0.072000876 -0.40415853 ;
	setAttr ".pt[122]" -type "float3" 0.40415871 -0.072000876 -0.55627662 ;
	setAttr ".pt[123]" -type "float3" 0.21247895 -0.072000876 -0.65394235 ;
	setAttr ".pt[124]" -type "float3" 8.332723e-08 -0.072000876 -0.68759573 ;
	setAttr ".pt[125]" -type "float3" -0.21247868 -0.072000876 -0.65394223 ;
	setAttr ".pt[126]" -type "float3" -0.4041585 -0.072000876 -0.55627644 ;
	setAttr ".pt[127]" -type "float3" -0.55627644 -0.072000876 -0.40415847 ;
	setAttr ".pt[128]" -type "float3" -0.65394217 -0.072000876 -0.21247859 ;
	setAttr ".pt[129]" -type "float3" -0.68759561 -0.072000876 1.1110296e-07 ;
	setAttr ".pt[130]" -type "float3" -0.65394217 -0.072000876 0.21247892 ;
	setAttr ".pt[131]" -type "float3" -0.55627644 -0.072000876 0.40415865 ;
	setAttr ".pt[132]" -type "float3" -0.40415847 -0.072000876 0.55627662 ;
	setAttr ".pt[133]" -type "float3" -0.21247861 -0.072000876 0.65394223 ;
	setAttr ".pt[134]" -type "float3" 6.2835255e-08 -0.072000876 0.68759561 ;
	setAttr ".pt[135]" -type "float3" 0.2124787 -0.072000876 0.65394223 ;
	setAttr ".pt[136]" -type "float3" 0.4041585 -0.072000876 0.55627656 ;
	setAttr ".pt[137]" -type "float3" 0.55627644 -0.072000876 0.40415859 ;
	setAttr ".pt[138]" -type "float3" 0.65394217 -0.072000876 0.2124788 ;
	setAttr ".pt[139]" -type "float3" 0.68759561 -0.072000876 1.1110296e-07 ;
	setAttr ".pt[140]" -type "float3" 0.57344317 -0.18850078 -0.18632288 ;
	setAttr ".pt[141]" -type "float3" 0.48780009 -0.18850078 -0.35440731 ;
	setAttr ".pt[142]" -type "float3" 0.35440743 -0.18850078 -0.48779961 ;
	setAttr ".pt[143]" -type "float3" 0.186323 -0.18850078 -0.57344294 ;
	setAttr ".pt[144]" -type "float3" 8.332723e-08 -0.18850078 -0.60295367 ;
	setAttr ".pt[145]" -type "float3" -0.18632288 -0.18850078 -0.57344294 ;
	setAttr ".pt[146]" -type "float3" -0.35440719 -0.18850078 -0.48779956 ;
	setAttr ".pt[147]" -type "float3" -0.48779953 -0.18850078 -0.35440716 ;
	setAttr ".pt[148]" -type "float3" -0.57344288 -0.18850078 -0.18632284 ;
	setAttr ".pt[149]" -type "float3" -0.60295361 -0.18850078 1.1110296e-07 ;
	setAttr ".pt[150]" -type "float3" -0.57344288 -0.18850078 0.18632294 ;
	setAttr ".pt[151]" -type "float3" -0.48779947 -0.18850078 0.35440731 ;
	setAttr ".pt[152]" -type "float3" -0.35440713 -0.18850078 0.48779961 ;
	setAttr ".pt[153]" -type "float3" -0.18632285 -0.18850078 0.57344294 ;
	setAttr ".pt[154]" -type "float3" 6.535781e-08 -0.18850078 0.60295367 ;
	setAttr ".pt[155]" -type "float3" 0.18632291 -0.18850078 0.57344294 ;
	setAttr ".pt[156]" -type "float3" 0.35440731 -0.18850078 0.48779958 ;
	setAttr ".pt[157]" -type "float3" 0.48779953 -0.18850078 0.35440731 ;
	setAttr ".pt[158]" -type "float3" 0.57344288 -0.18850078 0.18632293 ;
	setAttr ".pt[159]" -type "float3" 0.60295361 -0.18850078 1.1110296e-07 ;
	setAttr ".pt[180]" -type "float3" -0.053914066 0.0279775 0.017517729 ;
	setAttr ".pt[181]" -type "float3" -0.045862049 0.0279775 0.03332071 ;
	setAttr ".pt[182]" -type "float3" -0.033320729 0.0279775 0.045862027 ;
	setAttr ".pt[183]" -type "float3" -0.017517744 0.0279775 0.053914048 ;
	setAttr ".pt[184]" -type "float3" -5.6741416e-09 0.0279775 0.056688577 ;
	setAttr ".pt[185]" -type "float3" 0.017517732 0.0279775 0.05391404 ;
	setAttr ".pt[186]" -type "float3" 0.033320706 0.0279775 0.045862019 ;
	setAttr ".pt[187]" -type "float3" 0.045862019 0.0279775 0.033320699 ;
	setAttr ".pt[188]" -type "float3" 0.05391404 0.0279775 0.017517723 ;
	setAttr ".pt[189]" -type "float3" 0.056688569 0.0279775 -1.1348283e-08 ;
	setAttr ".pt[190]" -type "float3" 0.05391404 0.0279775 -0.017517745 ;
	setAttr ".pt[191]" -type "float3" 0.045862019 0.0279775 -0.033320721 ;
	setAttr ".pt[192]" -type "float3" 0.033320703 0.0279775 -0.045862027 ;
	setAttr ".pt[193]" -type "float3" 0.017517729 0.0279775 -0.053914048 ;
	setAttr ".pt[194]" -type "float3" -3.9846908e-09 0.0279775 -0.056688577 ;
	setAttr ".pt[195]" -type "float3" -0.017517734 0.0279775 -0.053914048 ;
	setAttr ".pt[196]" -type "float3" -0.033320706 0.0279775 -0.045862027 ;
	setAttr ".pt[197]" -type "float3" -0.045862019 0.0279775 -0.033320718 ;
	setAttr ".pt[198]" -type "float3" -0.053914033 0.0279775 -0.017517742 ;
	setAttr ".pt[199]" -type "float3" -0.056688569 0.0279775 -1.1348283e-08 ;
	setAttr ".ai_translator" -type "string" "polymesh";
createNode lightLinker -s -n "lightLinker1";
	rename -uid "94475AC9-4215-BB0C-8766-84B413A22925";
	setAttr -s 2 ".lnk";
	setAttr -s 2 ".slnk";
createNode shapeEditorManager -n "shapeEditorManager";
	rename -uid "680170C7-41F7-9C05-DDC2-478BC78ACDD8";
createNode poseInterpolatorManager -n "poseInterpolatorManager";
	rename -uid "5C213A6A-4D22-C481-9D86-A7BC5EAFD153";
createNode displayLayerManager -n "layerManager";
	rename -uid "BECD3599-4DFD-DF39-7457-C6A627F42A9F";
createNode displayLayer -n "defaultLayer";
	rename -uid "70DF603B-4D45-EA5A-56DA-68845472E9B2";
createNode renderLayerManager -n "renderLayerManager";
	rename -uid "B441A59D-42D1-AAFD-EF14-7789123F7794";
createNode renderLayer -n "defaultRenderLayer";
	rename -uid "CCF7A5B8-4267-05C0-9717-DE9313C18978";
	setAttr ".g" yes;
createNode polyTorus -n "polyTorus1";
	rename -uid "34D8C406-4235-436D-34DA-14A2D7E91890";
createNode polyTorus -n "polyTorus2";
	rename -uid "B11CFCEF-4F73-A18C-2D50-69A12888BD5D";
createNode polyReduce -n "polyReduce1";
	rename -uid "5AF36E90-4CD2-6975-527D-85885D0221C7";
	setAttr ".ics" -type "componentList" 1 "f[*]";
	setAttr ".ver" 1;
	setAttr ".p" 50;
	setAttr ".vmp" -type "string" "";
	setAttr ".sym" -type "double4" 0 1 0 0 ;
	setAttr ".stl" 0.01;
	setAttr ".kqw" 1;
	setAttr ".cr" yes;
createNode polyReduce -n "polyReduce2";
	rename -uid "77FD3ACC-43AB-7241-7D16-B58A1F18B318";
	setAttr ".ics" -type "componentList" 1 "f[*]";
	setAttr ".ver" 1;
	setAttr ".p" 50;
	setAttr ".vmp" -type "string" "";
	setAttr ".sym" -type "double4" 0 1 0 0 ;
	setAttr ".stl" 0.01;
	setAttr ".kqw" 1;
	setAttr ".cr" yes;
createNode polyTweak -n "polyTweak1";
	rename -uid "963253F1-49E0-D844-C4DE-9F95080A7DC8";
	setAttr ".uopa" yes;
	setAttr -s 243 ".tk";
	setAttr ".tk[0]" -type "float3" 0.13476199 0 -0.043786779 ;
	setAttr ".tk[1]" -type "float3" 0.11463544 0 -0.083287418 ;
	setAttr ".tk[2]" -type "float3" 0.0832875 0 -0.11463534 ;
	setAttr ".tk[3]" -type "float3" 0.043786835 0 -0.13476191 ;
	setAttr ".tk[4]" -type "float3" 2.53374e-08 0 -0.14169705 ;
	setAttr ".tk[5]" -type "float3" -0.043786783 0 -0.1347619 ;
	setAttr ".tk[6]" -type "float3" -0.083287418 0 -0.1146353 ;
	setAttr ".tk[7]" -type "float3" -0.11463532 0 -0.083287403 ;
	setAttr ".tk[8]" -type "float3" -0.1347619 0 -0.043786749 ;
	setAttr ".tk[9]" -type "float3" -0.14169703 0 4.2229004e-08 ;
	setAttr ".tk[10]" -type "float3" -0.1347619 0 0.043786842 ;
	setAttr ".tk[11]" -type "float3" -0.1146353 0 0.083287485 ;
	setAttr ".tk[12]" -type "float3" -0.08328741 0 0.11463536 ;
	setAttr ".tk[13]" -type "float3" -0.043786779 0 0.13476196 ;
	setAttr ".tk[14]" -type "float3" 2.1114502e-08 0 0.14169709 ;
	setAttr ".tk[15]" -type "float3" 0.043786816 0 0.13476196 ;
	setAttr ".tk[16]" -type "float3" 0.08328744 0 0.11463534 ;
	setAttr ".tk[17]" -type "float3" 0.11463534 0 0.083287492 ;
	setAttr ".tk[18]" -type "float3" 0.13476191 0 0.043786835 ;
	setAttr ".tk[19]" -type "float3" 0.14169705 0 4.2229004e-08 ;
	setAttr ".tk[20]" -type "float3" 0.1413577 0 -0.045929849 ;
	setAttr ".tk[21]" -type "float3" 0.12024607 0 -0.087363809 ;
	setAttr ".tk[22]" -type "float3" 0.087363884 0 -0.120246 ;
	setAttr ".tk[23]" -type "float3" 0.045929905 0 -0.14135763 ;
	setAttr ".tk[24]" -type "float3" 2.53374e-08 0 -0.14863221 ;
	setAttr ".tk[25]" -type "float3" -0.04592986 0 -0.14135762 ;
	setAttr ".tk[26]" -type "float3" -0.087363809 0 -0.12024596 ;
	setAttr ".tk[27]" -type "float3" -0.12024598 0 -0.08736378 ;
	setAttr ".tk[28]" -type "float3" -0.1413576 0 -0.045929838 ;
	setAttr ".tk[29]" -type "float3" -0.14863218 0 4.2229004e-08 ;
	setAttr ".tk[30]" -type "float3" -0.1413576 0 0.045929909 ;
	setAttr ".tk[31]" -type "float3" -0.12024598 0 0.087363869 ;
	setAttr ".tk[32]" -type "float3" -0.08736378 0 0.120246 ;
	setAttr ".tk[33]" -type "float3" -0.045929849 0 0.14135766 ;
	setAttr ".tk[34]" -type "float3" 2.0907816e-08 0 0.14863226 ;
	setAttr ".tk[35]" -type "float3" 0.045929886 0 0.14135769 ;
	setAttr ".tk[36]" -type "float3" 0.087363839 0 0.12024602 ;
	setAttr ".tk[37]" -type "float3" 0.120246 0 0.087363847 ;
	setAttr ".tk[38]" -type "float3" 0.14135763 0 0.045929912 ;
	setAttr ".tk[39]" -type "float3" 0.14863221 0 4.2229004e-08 ;
	setAttr ".tk[40]" -type "float3" 0.16049924 0 -0.052149303 ;
	setAttr ".tk[41]" -type "float3" 0.13652883 0 -0.099193946 ;
	setAttr ".tk[42]" -type "float3" 0.099193983 0 -0.13652875 ;
	setAttr ".tk[43]" -type "float3" 0.052149378 0 -0.16049917 ;
	setAttr ".tk[44]" -type "float3" 2.53374e-08 0 -0.16875881 ;
	setAttr ".tk[45]" -type "float3" -0.052149326 0 -0.16049914 ;
	setAttr ".tk[46]" -type "float3" -0.099193946 0 -0.13652873 ;
	setAttr ".tk[47]" -type "float3" -0.13652872 0 -0.099193901 ;
	setAttr ".tk[48]" -type "float3" -0.16049911 0 -0.052149285 ;
	setAttr ".tk[49]" -type "float3" -0.16875876 0 4.2229004e-08 ;
	setAttr ".tk[50]" -type "float3" -0.16049911 0 0.052149378 ;
	setAttr ".tk[51]" -type "float3" -0.13652873 0 0.099193968 ;
	setAttr ".tk[52]" -type "float3" -0.099193908 0 0.13652879 ;
	setAttr ".tk[53]" -type "float3" -0.052149303 0 0.16049917 ;
	setAttr ".tk[54]" -type "float3" 2.0308004e-08 0 0.16875885 ;
	setAttr ".tk[55]" -type "float3" 0.052149355 0 0.16049917 ;
	setAttr ".tk[56]" -type "float3" 0.099193953 0 0.13652876 ;
	setAttr ".tk[57]" -type "float3" 0.13652873 0 0.09919396 ;
	setAttr ".tk[58]" -type "float3" 0.16049914 0 0.052149367 ;
	setAttr ".tk[59]" -type "float3" 0.16875876 0 4.2229004e-08 ;
	setAttr ".tk[60]" -type "float3" 0.19031289 0 -0.061836336 ;
	setAttr ".tk[61]" -type "float3" 0.16188979 0 -0.11761977 ;
	setAttr ".tk[62]" -type "float3" 0.11761982 0 -0.16188972 ;
	setAttr ".tk[63]" -type "float3" 0.061836407 0 -0.19031279 ;
	setAttr ".tk[64]" -type "float3" 2.53374e-08 0 -0.20010671 ;
	setAttr ".tk[65]" -type "float3" -0.061836358 0 -0.19031277 ;
	setAttr ".tk[66]" -type "float3" -0.11761975 0 -0.1618897 ;
	setAttr ".tk[67]" -type "float3" -0.1618897 0 -0.11761973 ;
	setAttr ".tk[68]" -type "float3" -0.19031273 0 -0.061836325 ;
	setAttr ".tk[69]" -type "float3" -0.20010665 0 4.2229004e-08 ;
	setAttr ".tk[70]" -type "float3" -0.19031273 0 0.061836407 ;
	setAttr ".tk[71]" -type "float3" -0.16188969 0 0.11761978 ;
	setAttr ".tk[72]" -type "float3" -0.11761972 0 0.16188973 ;
	setAttr ".tk[73]" -type "float3" -0.061836336 0 0.1903128 ;
	setAttr ".tk[74]" -type "float3" 1.9373759e-08 0 0.20010671 ;
	setAttr ".tk[75]" -type "float3" 0.061836377 0 0.19031279 ;
	setAttr ".tk[76]" -type "float3" 0.11761977 0 0.16188972 ;
	setAttr ".tk[77]" -type "float3" 0.1618897 0 0.11761978 ;
	setAttr ".tk[78]" -type "float3" 0.19031277 0 0.061836392 ;
	setAttr ".tk[79]" -type "float3" 0.20010665 0 4.2229004e-08 ;
	setAttr ".tk[90]" -type "float3" -1.4901161e-08 0 7.4505806e-09 ;
	setAttr ".tk[240]" -type "float3" 0.62441999 0 -0.20288621 ;
	setAttr ".tk[241]" -type "float3" 0.53116333 0 -0.38591257 ;
	setAttr ".tk[242]" -type "float3" 0.38591281 0 -0.5311631 ;
	setAttr ".tk[243]" -type "float3" 0.20288639 0 -0.62441969 ;
	setAttr ".tk[244]" -type "float3" 8.358861e-08 0 -0.65655375 ;
	setAttr ".tk[245]" -type "float3" -0.20288622 0 -0.62441957 ;
	setAttr ".tk[246]" -type "float3" -0.38591257 0 -0.53116298 ;
	setAttr ".tk[247]" -type "float3" -0.5311631 0 -0.38591248 ;
	setAttr ".tk[248]" -type "float3" -0.62441957 0 -0.2028861 ;
	setAttr ".tk[249]" -type "float3" -0.65655363 0 1.3931434e-07 ;
	setAttr ".tk[250]" -type "float3" -0.62441957 0 0.20288639 ;
	setAttr ".tk[251]" -type "float3" -0.53116304 0 0.38591269 ;
	setAttr ".tk[252]" -type "float3" -0.38591248 0 0.53116322 ;
	setAttr ".tk[253]" -type "float3" -0.20288616 0 0.62441981 ;
	setAttr ".tk[254]" -type "float3" 6.4021791e-08 0 0.65655375 ;
	setAttr ".tk[255]" -type "float3" 0.20288627 0 0.62441969 ;
	setAttr ".tk[256]" -type "float3" 0.38591257 0 0.5311631 ;
	setAttr ".tk[257]" -type "float3" 0.5311631 0 0.3859126 ;
	setAttr ".tk[258]" -type "float3" 0.62441957 0 0.20288636 ;
	setAttr ".tk[259]" -type "float3" 0.65655363 0 1.3931434e-07 ;
	setAttr ".tk[260]" -type "float3" 1.0027989 0 -0.32582873 ;
	setAttr ".tk[261]" -type "float3" 0.85303169 0 -0.61976355 ;
	setAttr ".tk[262]" -type "float3" 0.61976403 0 -0.8530314 ;
	setAttr ".tk[263]" -type "float3" 0.32582912 0 -1.002798 ;
	setAttr ".tk[264]" -type "float3" 1.5781073e-07 0 -1.0544046 ;
	setAttr ".tk[265]" -type "float3" -0.32582876 0 -1.0027978 ;
	setAttr ".tk[266]" -type "float3" -0.61976343 0 -0.8530314 ;
	setAttr ".tk[267]" -type "float3" -0.85303146 0 -0.61976343 ;
	setAttr ".tk[268]" -type "float3" -1.0027978 0 -0.3258287 ;
	setAttr ".tk[269]" -type "float3" -1.0544043 0 2.2874929e-07 ;
	setAttr ".tk[270]" -type "float3" -1.0027978 0 0.32582909 ;
	setAttr ".tk[271]" -type "float3" -0.85303122 0 0.61976385 ;
	setAttr ".tk[272]" -type "float3" -0.61976343 0 0.85303164 ;
	setAttr ".tk[273]" -type "float3" -0.32582873 0 1.002798 ;
	setAttr ".tk[274]" -type "float3" 1.2794781e-07 0 1.0544047 ;
	setAttr ".tk[275]" -type "float3" 0.32582891 0 1.002798 ;
	setAttr ".tk[276]" -type "float3" 0.61976355 0 0.8530314 ;
	setAttr ".tk[277]" -type "float3" 0.85303152 0 0.61976373 ;
	setAttr ".tk[278]" -type "float3" 1.0027977 0 0.325829 ;
	setAttr ".tk[279]" -type "float3" 1.0544045 0 2.2874929e-07 ;
	setAttr ".tk[280]" -type "float3" 0.89477229 0 -0.29072905 ;
	setAttr ".tk[281]" -type "float3" 0.76113892 0 -0.5529995 ;
	setAttr ".tk[282]" -type "float3" 0.55299979 0 -0.76113874 ;
	setAttr ".tk[283]" -type "float3" 0.29072931 0 -0.89477223 ;
	setAttr ".tk[284]" -type "float3" 1.5781073e-07 0 -0.94081908 ;
	setAttr ".tk[285]" -type "float3" -0.29072911 0 -0.89477211 ;
	setAttr ".tk[286]" -type "float3" -0.5529995 0 -0.76113844 ;
	setAttr ".tk[287]" -type "float3" -0.76113862 0 -0.55299956 ;
	setAttr ".tk[288]" -type "float3" -0.89477205 0 -0.29072893 ;
	setAttr ".tk[289]" -type "float3" -0.94081926 0 2.2874929e-07 ;
	setAttr ".tk[290]" -type "float3" -0.89477205 0 0.29072919 ;
	setAttr ".tk[291]" -type "float3" -0.76113844 0 0.55299968 ;
	setAttr ".tk[292]" -type "float3" -0.5529995 0 0.76113874 ;
	setAttr ".tk[293]" -type "float3" -0.29072902 0 0.89477229 ;
	setAttr ".tk[294]" -type "float3" 1.3353865e-07 0 0.94081914 ;
	setAttr ".tk[295]" -type "float3" 0.29072914 0 0.89477229 ;
	setAttr ".tk[296]" -type "float3" 0.55299956 0 0.76113874 ;
	setAttr ".tk[297]" -type "float3" 0.7611385 0 0.55299962 ;
	setAttr ".tk[298]" -type "float3" 0.89477205 0 0.29072922 ;
	setAttr ".tk[299]" -type "float3" 0.94081914 0 2.2874929e-07 ;
	setAttr ".tk[300]" -type "float3" 0.77502453 0 -0.25182053 ;
	setAttr ".tk[301]" -type "float3" 0.65927571 0 -0.47899139 ;
	setAttr ".tk[302]" -type "float3" 0.47899145 0 -0.65927517 ;
	setAttr ".tk[303]" -type "float3" 0.25182089 0 -0.77502429 ;
	setAttr ".tk[304]" -type "float3" 1.5781073e-07 0 -0.81490874 ;
	setAttr ".tk[305]" -type "float3" -0.25182059 0 -0.77502429 ;
	setAttr ".tk[306]" -type "float3" -0.47899142 0 -0.65927529 ;
	setAttr ".tk[307]" -type "float3" -0.65927529 0 -0.47899124 ;
	setAttr ".tk[308]" -type "float3" -0.77502429 0 -0.25182047 ;
	setAttr ".tk[309]" -type "float3" -0.81490862 0 2.2874929e-07 ;
	setAttr ".tk[310]" -type "float3" -0.77502429 0 0.25182092 ;
	setAttr ".tk[311]" -type "float3" -0.65927523 0 0.47899145 ;
	setAttr ".tk[312]" -type "float3" -0.47899136 0 0.65927529 ;
	setAttr ".tk[313]" -type "float3" -0.2518205 0 0.77502441 ;
	setAttr ".tk[314]" -type "float3" 1.3693263e-07 0 0.81490874 ;
	setAttr ".tk[315]" -type "float3" 0.25182062 0 0.77502435 ;
	setAttr ".tk[316]" -type "float3" 0.47899145 0 0.65927529 ;
	setAttr ".tk[317]" -type "float3" 0.65927517 0 0.47899148 ;
	setAttr ".tk[318]" -type "float3" 0.77502412 0 0.25182089 ;
	setAttr ".tk[319]" -type "float3" 0.81490874 0 2.2874929e-07 ;
	setAttr ".tk[320]" -type "float3" 0.65527654 0 -0.21291193 ;
	setAttr ".tk[321]" -type "float3" 0.55741161 0 -0.40498307 ;
	setAttr ".tk[322]" -type "float3" 0.40498325 0 -0.55741113 ;
	setAttr ".tk[323]" -type "float3" 0.21291238 0 -0.65527642 ;
	setAttr ".tk[324]" -type "float3" 1.5781073e-07 0 -0.68899822 ;
	setAttr ".tk[325]" -type "float3" -0.21291222 0 -0.65527618 ;
	setAttr ".tk[326]" -type "float3" -0.40498316 0 -0.55741102 ;
	setAttr ".tk[327]" -type "float3" -0.55741102 0 -0.40498301 ;
	setAttr ".tk[328]" -type "float3" -0.6552763 0 -0.21291183 ;
	setAttr ".tk[329]" -type "float3" -0.68899822 0 2.2874929e-07 ;
	setAttr ".tk[330]" -type "float3" -0.6552763 0 0.2129124 ;
	setAttr ".tk[331]" -type "float3" -0.55741107 0 0.40498325 ;
	setAttr ".tk[332]" -type "float3" -0.40498298 0 0.55741161 ;
	setAttr ".tk[333]" -type "float3" -0.2129119 0 0.65527648 ;
	setAttr ".tk[334]" -type "float3" 1.3802283e-07 0 0.68899852 ;
	setAttr ".tk[335]" -type "float3" 0.21291231 0 0.65527648 ;
	setAttr ".tk[336]" -type "float3" 0.40498322 0 0.55741161 ;
	setAttr ".tk[337]" -type "float3" 0.55741125 0 0.40498328 ;
	setAttr ".tk[338]" -type "float3" 0.65527648 0 0.21291234 ;
	setAttr ".tk[339]" -type "float3" 0.68899822 0 2.2874929e-07 ;
	setAttr ".tk[340]" -type "float3" 0.54725069 0 -0.17781225 ;
	setAttr ".tk[341]" -type "float3" 0.46551931 0 -0.33821896 ;
	setAttr ".tk[342]" -type "float3" 0.3382197 0 -0.46551877 ;
	setAttr ".tk[343]" -type "float3" 0.17781264 0 -0.54725003 ;
	setAttr ".tk[344]" -type "float3" 1.5781073e-07 0 -0.57541287 ;
	setAttr ".tk[345]" -type "float3" -0.17781223 0 -0.54725003 ;
	setAttr ".tk[346]" -type "float3" -0.33821905 0 -0.46551877 ;
	setAttr ".tk[347]" -type "float3" -0.46551883 0 -0.33821896 ;
	setAttr ".tk[348]" -type "float3" -0.54725003 0 -0.17781216 ;
	setAttr ".tk[349]" -type "float3" -0.57541275 0 2.2874929e-07 ;
	setAttr ".tk[350]" -type "float3" -0.54725003 0 0.1778127 ;
	setAttr ".tk[351]" -type "float3" -0.46551883 0 0.33821934 ;
	setAttr ".tk[352]" -type "float3" -0.33821902 0 0.46551883 ;
	setAttr ".tk[353]" -type "float3" -0.17781225 0 0.54725033 ;
	setAttr ".tk[354]" -type "float3" 1.3900639e-07 0 0.57541311 ;
	setAttr ".tk[355]" -type "float3" 0.17781234 0 0.54725027 ;
	setAttr ".tk[356]" -type "float3" 0.33821923 0 0.46551886 ;
	setAttr ".tk[357]" -type "float3" 0.4655188 0 0.33821926 ;
	setAttr ".tk[358]" -type "float3" 0.54725027 0 0.17781267 ;
	setAttr ".tk[359]" -type "float3" 0.57541287 0 2.2874929e-07 ;
	setAttr ".tk[360]" -type "float3" 0.54225087 0 -0.17618777 ;
	setAttr ".tk[361]" -type "float3" 0.46126628 0 -0.3351292 ;
	setAttr ".tk[362]" -type "float3" 0.33512959 0 -0.46126589 ;
	setAttr ".tk[363]" -type "float3" 0.17618805 0 -0.54225057 ;
	setAttr ".tk[364]" -type "float3" 1.114993e-07 0 -0.57015598 ;
	setAttr ".tk[365]" -type "float3" -0.17618783 0 -0.54225057 ;
	setAttr ".tk[366]" -type "float3" -0.33512923 0 -0.46126583 ;
	setAttr ".tk[367]" -type "float3" -0.46126586 0 -0.33512914 ;
	setAttr ".tk[368]" -type "float3" -0.54225057 0 -0.17618769 ;
	setAttr ".tk[369]" -type "float3" -0.57015598 0 2.0573447e-07 ;
	setAttr ".tk[370]" -type "float3" -0.54225057 0 0.17618811 ;
	setAttr ".tk[371]" -type "float3" -0.46126586 0 0.3351295 ;
	setAttr ".tk[372]" -type "float3" -0.33512917 0 0.46126604 ;
	setAttr ".tk[373]" -type "float3" -0.1761878 0 0.54225075 ;
	setAttr ".tk[374]" -type "float3" 9.4507342e-08 0 0.57015616 ;
	setAttr ".tk[375]" -type "float3" 0.17618798 0 0.54225075 ;
	setAttr ".tk[376]" -type "float3" 0.33512929 0 0.46126604 ;
	setAttr ".tk[377]" -type "float3" 0.46126598 0 0.33512944 ;
	setAttr ".tk[378]" -type "float3" 0.54225063 0 0.17618808 ;
	setAttr ".tk[379]" -type "float3" 0.5701561 0 2.0573447e-07 ;
	setAttr ".tk[380]" -type "float3" 0.35511053 0 -0.1153823 ;
	setAttr ".tk[381]" -type "float3" 0.30207509 0 -0.21947022 ;
	setAttr ".tk[382]" -type "float3" 0.21947035 0 -0.30207494 ;
	setAttr ".tk[383]" -type "float3" 0.1153824 0 -0.35511032 ;
	setAttr ".tk[384]" -type "float3" 3.3797697e-08 0 -0.37338507 ;
	setAttr ".tk[385]" -type "float3" -0.11538234 0 -0.35511032 ;
	setAttr ".tk[386]" -type "float3" -0.21947022 0 -0.30207482 ;
	setAttr ".tk[387]" -type "float3" -0.30207485 0 -0.21947023 ;
	setAttr ".tk[388]" -type "float3" -0.35511032 0 -0.11538226 ;
	setAttr ".tk[389]" -type "float3" -0.37338507 0 7.6231821e-08 ;
	setAttr ".tk[390]" -type "float3" -0.35511032 0 0.11538241 ;
	setAttr ".tk[391]" -type "float3" -0.30207482 0 0.21947032 ;
	setAttr ".tk[392]" -type "float3" -0.21947023 0 0.30207497 ;
	setAttr ".tk[393]" -type "float3" -0.1153823 0 0.35511035 ;
	setAttr ".tk[394]" -type "float3" 2.2669964e-08 0 0.37338513 ;
	setAttr ".tk[395]" -type "float3" 0.11538234 0 0.35511032 ;
	setAttr ".tk[396]" -type "float3" 0.21947025 0 0.30207494 ;
	setAttr ".tk[397]" -type "float3" 0.30207482 0 0.21947029 ;
	setAttr ".tk[398]" -type "float3" 0.35511026 0 0.1153824 ;
	setAttr ".tk[399]" -type "float3" 0.37338504 0 7.6231821e-08 ;
createNode script -n "uiConfigurationScriptNode";
	rename -uid "10A9ECFD-4A40-EF34-601E-C1877C9F30BD";
	setAttr ".b" -type "string" (
		"// Maya Mel UI Configuration File.\n//\n//  This script is machine generated.  Edit at your own risk.\n//\n//\n\nglobal string $gMainPane;\nif (`paneLayout -exists $gMainPane`) {\n\n\tglobal int $gUseScenePanelConfig;\n\tint    $useSceneConfig = $gUseScenePanelConfig;\n\tint    $nodeEditorPanelVisible = stringArrayContains(\"nodeEditorPanel1\", `getPanel -vis`);\n\tint    $nodeEditorWorkspaceControlOpen = (`workspaceControl -exists nodeEditorPanel1Window` && `workspaceControl -q -visible nodeEditorPanel1Window`);\n\tint    $menusOkayInPanels = `optionVar -q allowMenusInPanels`;\n\tint    $nVisPanes = `paneLayout -q -nvp $gMainPane`;\n\tint    $nPanes = 0;\n\tstring $editorName;\n\tstring $panelName;\n\tstring $itemFilterName;\n\tstring $panelConfig;\n\n\t//\n\t//  get current state of the UI\n\t//\n\tsceneUIReplacement -update $gMainPane;\n\n\t$panelName = `sceneUIReplacement -getNextPanel \"modelPanel\" (localizedPanelLabel(\"Top View\")) `;\n\tif (\"\" != $panelName) {\n\t\t$label = `panel -q -label $panelName`;\n\t\tmodelPanel -edit -l (localizedPanelLabel(\"Top View\")) -mbv $menusOkayInPanels  $panelName;\n"
		+ "\t\t$editorName = $panelName;\n        modelEditor -e \n            -camera \"top\" \n            -useInteractiveMode 0\n            -displayLights \"default\" \n            -displayAppearance \"smoothShaded\" \n            -activeOnly 0\n            -ignorePanZoom 0\n            -wireframeOnShaded 0\n            -headsUpDisplay 1\n            -holdOuts 1\n            -selectionHiliteDisplay 1\n            -useDefaultMaterial 0\n            -bufferMode \"double\" \n            -twoSidedLighting 0\n            -backfaceCulling 0\n            -xray 0\n            -jointXray 0\n            -activeComponentsXray 0\n            -displayTextures 0\n            -smoothWireframe 0\n            -lineWidth 1\n            -textureAnisotropic 0\n            -textureHilight 1\n            -textureSampling 2\n            -textureDisplay \"modulate\" \n            -textureMaxSize 32768\n            -fogging 0\n            -fogSource \"fragment\" \n            -fogMode \"linear\" \n            -fogStart 0\n            -fogEnd 100\n            -fogDensity 0.1\n            -fogColor 0.5 0.5 0.5 1 \n"
		+ "            -depthOfFieldPreview 1\n            -maxConstantTransparency 1\n            -rendererName \"vp2Renderer\" \n            -objectFilterShowInHUD 1\n            -isFiltered 0\n            -colorResolution 256 256 \n            -bumpResolution 512 512 \n            -textureCompression 0\n            -transparencyAlgorithm \"frontAndBackCull\" \n            -transpInShadows 0\n            -cullingOverride \"none\" \n            -lowQualityLighting 0\n            -maximumNumHardwareLights 1\n            -occlusionCulling 0\n            -shadingModel 0\n            -useBaseRenderer 0\n            -useReducedRenderer 0\n            -smallObjectCulling 0\n            -smallObjectThreshold -1 \n            -interactiveDisableShadows 0\n            -interactiveBackFaceCull 0\n            -sortTransparent 1\n            -controllers 1\n            -nurbsCurves 1\n            -nurbsSurfaces 1\n            -polymeshes 1\n            -subdivSurfaces 1\n            -planes 1\n            -lights 1\n            -cameras 1\n            -controlVertices 1\n"
		+ "            -hulls 1\n            -grid 1\n            -imagePlane 1\n            -joints 1\n            -ikHandles 1\n            -deformers 1\n            -dynamics 1\n            -particleInstancers 1\n            -fluids 1\n            -hairSystems 1\n            -follicles 1\n            -nCloths 1\n            -nParticles 1\n            -nRigids 1\n            -dynamicConstraints 1\n            -locators 1\n            -manipulators 1\n            -pluginShapes 1\n            -dimensions 1\n            -handles 1\n            -pivots 1\n            -textures 1\n            -strokes 1\n            -motionTrails 1\n            -clipGhosts 1\n            -greasePencils 1\n            -shadows 0\n            -captureSequenceNumber -1\n            -width 1\n            -height 1\n            -sceneRenderFilter 0\n            $editorName;\n        modelEditor -e -viewSelected 0 $editorName;\n        modelEditor -e \n            -pluginObjects \"gpuCacheDisplayFilter\" 1 \n            $editorName;\n\t\tif (!$useSceneConfig) {\n\t\t\tpanel -e -l $label $panelName;\n"
		+ "\t\t}\n\t}\n\n\n\t$panelName = `sceneUIReplacement -getNextPanel \"modelPanel\" (localizedPanelLabel(\"Side View\")) `;\n\tif (\"\" != $panelName) {\n\t\t$label = `panel -q -label $panelName`;\n\t\tmodelPanel -edit -l (localizedPanelLabel(\"Side View\")) -mbv $menusOkayInPanels  $panelName;\n\t\t$editorName = $panelName;\n        modelEditor -e \n            -camera \"side\" \n            -useInteractiveMode 0\n            -displayLights \"default\" \n            -displayAppearance \"smoothShaded\" \n            -activeOnly 0\n            -ignorePanZoom 0\n            -wireframeOnShaded 0\n            -headsUpDisplay 1\n            -holdOuts 1\n            -selectionHiliteDisplay 1\n            -useDefaultMaterial 0\n            -bufferMode \"double\" \n            -twoSidedLighting 0\n            -backfaceCulling 0\n            -xray 0\n            -jointXray 0\n            -activeComponentsXray 0\n            -displayTextures 0\n            -smoothWireframe 0\n            -lineWidth 1\n            -textureAnisotropic 0\n            -textureHilight 1\n            -textureSampling 2\n"
		+ "            -textureDisplay \"modulate\" \n            -textureMaxSize 32768\n            -fogging 0\n            -fogSource \"fragment\" \n            -fogMode \"linear\" \n            -fogStart 0\n            -fogEnd 100\n            -fogDensity 0.1\n            -fogColor 0.5 0.5 0.5 1 \n            -depthOfFieldPreview 1\n            -maxConstantTransparency 1\n            -rendererName \"vp2Renderer\" \n            -objectFilterShowInHUD 1\n            -isFiltered 0\n            -colorResolution 256 256 \n            -bumpResolution 512 512 \n            -textureCompression 0\n            -transparencyAlgorithm \"frontAndBackCull\" \n            -transpInShadows 0\n            -cullingOverride \"none\" \n            -lowQualityLighting 0\n            -maximumNumHardwareLights 1\n            -occlusionCulling 0\n            -shadingModel 0\n            -useBaseRenderer 0\n            -useReducedRenderer 0\n            -smallObjectCulling 0\n            -smallObjectThreshold -1 \n            -interactiveDisableShadows 0\n            -interactiveBackFaceCull 0\n"
		+ "            -sortTransparent 1\n            -controllers 1\n            -nurbsCurves 1\n            -nurbsSurfaces 1\n            -polymeshes 1\n            -subdivSurfaces 1\n            -planes 1\n            -lights 1\n            -cameras 1\n            -controlVertices 1\n            -hulls 1\n            -grid 1\n            -imagePlane 1\n            -joints 1\n            -ikHandles 1\n            -deformers 1\n            -dynamics 1\n            -particleInstancers 1\n            -fluids 1\n            -hairSystems 1\n            -follicles 1\n            -nCloths 1\n            -nParticles 1\n            -nRigids 1\n            -dynamicConstraints 1\n            -locators 1\n            -manipulators 1\n            -pluginShapes 1\n            -dimensions 1\n            -handles 1\n            -pivots 1\n            -textures 1\n            -strokes 1\n            -motionTrails 1\n            -clipGhosts 1\n            -greasePencils 1\n            -shadows 0\n            -captureSequenceNumber -1\n            -width 1\n            -height 1\n"
		+ "            -sceneRenderFilter 0\n            $editorName;\n        modelEditor -e -viewSelected 0 $editorName;\n        modelEditor -e \n            -pluginObjects \"gpuCacheDisplayFilter\" 1 \n            $editorName;\n\t\tif (!$useSceneConfig) {\n\t\t\tpanel -e -l $label $panelName;\n\t\t}\n\t}\n\n\n\t$panelName = `sceneUIReplacement -getNextPanel \"modelPanel\" (localizedPanelLabel(\"Front View\")) `;\n\tif (\"\" != $panelName) {\n\t\t$label = `panel -q -label $panelName`;\n\t\tmodelPanel -edit -l (localizedPanelLabel(\"Front View\")) -mbv $menusOkayInPanels  $panelName;\n\t\t$editorName = $panelName;\n        modelEditor -e \n            -camera \"front\" \n            -useInteractiveMode 0\n            -displayLights \"default\" \n            -displayAppearance \"smoothShaded\" \n            -activeOnly 0\n            -ignorePanZoom 0\n            -wireframeOnShaded 0\n            -headsUpDisplay 1\n            -holdOuts 1\n            -selectionHiliteDisplay 1\n            -useDefaultMaterial 0\n            -bufferMode \"double\" \n            -twoSidedLighting 0\n            -backfaceCulling 0\n"
		+ "            -xray 0\n            -jointXray 0\n            -activeComponentsXray 0\n            -displayTextures 0\n            -smoothWireframe 0\n            -lineWidth 1\n            -textureAnisotropic 0\n            -textureHilight 1\n            -textureSampling 2\n            -textureDisplay \"modulate\" \n            -textureMaxSize 32768\n            -fogging 0\n            -fogSource \"fragment\" \n            -fogMode \"linear\" \n            -fogStart 0\n            -fogEnd 100\n            -fogDensity 0.1\n            -fogColor 0.5 0.5 0.5 1 \n            -depthOfFieldPreview 1\n            -maxConstantTransparency 1\n            -rendererName \"vp2Renderer\" \n            -objectFilterShowInHUD 1\n            -isFiltered 0\n            -colorResolution 256 256 \n            -bumpResolution 512 512 \n            -textureCompression 0\n            -transparencyAlgorithm \"frontAndBackCull\" \n            -transpInShadows 0\n            -cullingOverride \"none\" \n            -lowQualityLighting 0\n            -maximumNumHardwareLights 1\n            -occlusionCulling 0\n"
		+ "            -shadingModel 0\n            -useBaseRenderer 0\n            -useReducedRenderer 0\n            -smallObjectCulling 0\n            -smallObjectThreshold -1 \n            -interactiveDisableShadows 0\n            -interactiveBackFaceCull 0\n            -sortTransparent 1\n            -controllers 1\n            -nurbsCurves 1\n            -nurbsSurfaces 1\n            -polymeshes 1\n            -subdivSurfaces 1\n            -planes 1\n            -lights 1\n            -cameras 1\n            -controlVertices 1\n            -hulls 1\n            -grid 1\n            -imagePlane 1\n            -joints 1\n            -ikHandles 1\n            -deformers 1\n            -dynamics 1\n            -particleInstancers 1\n            -fluids 1\n            -hairSystems 1\n            -follicles 1\n            -nCloths 1\n            -nParticles 1\n            -nRigids 1\n            -dynamicConstraints 1\n            -locators 1\n            -manipulators 1\n            -pluginShapes 1\n            -dimensions 1\n            -handles 1\n            -pivots 1\n"
		+ "            -textures 1\n            -strokes 1\n            -motionTrails 1\n            -clipGhosts 1\n            -greasePencils 1\n            -shadows 0\n            -captureSequenceNumber -1\n            -width 1\n            -height 1\n            -sceneRenderFilter 0\n            $editorName;\n        modelEditor -e -viewSelected 0 $editorName;\n        modelEditor -e \n            -pluginObjects \"gpuCacheDisplayFilter\" 1 \n            $editorName;\n\t\tif (!$useSceneConfig) {\n\t\t\tpanel -e -l $label $panelName;\n\t\t}\n\t}\n\n\n\t$panelName = `sceneUIReplacement -getNextPanel \"modelPanel\" (localizedPanelLabel(\"Persp View\")) `;\n\tif (\"\" != $panelName) {\n\t\t$label = `panel -q -label $panelName`;\n\t\tmodelPanel -edit -l (localizedPanelLabel(\"Persp View\")) -mbv $menusOkayInPanels  $panelName;\n\t\t$editorName = $panelName;\n        modelEditor -e \n            -camera \"persp\" \n            -useInteractiveMode 0\n            -displayLights \"default\" \n            -displayAppearance \"smoothShaded\" \n            -activeOnly 0\n            -ignorePanZoom 0\n"
		+ "            -wireframeOnShaded 0\n            -headsUpDisplay 1\n            -holdOuts 1\n            -selectionHiliteDisplay 1\n            -useDefaultMaterial 0\n            -bufferMode \"double\" \n            -twoSidedLighting 0\n            -backfaceCulling 0\n            -xray 0\n            -jointXray 0\n            -activeComponentsXray 0\n            -displayTextures 0\n            -smoothWireframe 0\n            -lineWidth 1\n            -textureAnisotropic 0\n            -textureHilight 1\n            -textureSampling 2\n            -textureDisplay \"modulate\" \n            -textureMaxSize 32768\n            -fogging 0\n            -fogSource \"fragment\" \n            -fogMode \"linear\" \n            -fogStart 0\n            -fogEnd 100\n            -fogDensity 0.1\n            -fogColor 0.5 0.5 0.5 1 \n            -depthOfFieldPreview 1\n            -maxConstantTransparency 1\n            -rendererName \"vp2Renderer\" \n            -objectFilterShowInHUD 1\n            -isFiltered 0\n            -colorResolution 256 256 \n            -bumpResolution 512 512 \n"
		+ "            -textureCompression 0\n            -transparencyAlgorithm \"frontAndBackCull\" \n            -transpInShadows 0\n            -cullingOverride \"none\" \n            -lowQualityLighting 0\n            -maximumNumHardwareLights 1\n            -occlusionCulling 0\n            -shadingModel 0\n            -useBaseRenderer 0\n            -useReducedRenderer 0\n            -smallObjectCulling 0\n            -smallObjectThreshold -1 \n            -interactiveDisableShadows 0\n            -interactiveBackFaceCull 0\n            -sortTransparent 1\n            -controllers 1\n            -nurbsCurves 1\n            -nurbsSurfaces 1\n            -polymeshes 1\n            -subdivSurfaces 1\n            -planes 1\n            -lights 1\n            -cameras 1\n            -controlVertices 1\n            -hulls 1\n            -grid 1\n            -imagePlane 1\n            -joints 1\n            -ikHandles 1\n            -deformers 1\n            -dynamics 1\n            -particleInstancers 1\n            -fluids 1\n            -hairSystems 1\n            -follicles 1\n"
		+ "            -nCloths 1\n            -nParticles 1\n            -nRigids 1\n            -dynamicConstraints 1\n            -locators 1\n            -manipulators 1\n            -pluginShapes 1\n            -dimensions 1\n            -handles 1\n            -pivots 1\n            -textures 1\n            -strokes 1\n            -motionTrails 1\n            -clipGhosts 1\n            -greasePencils 1\n            -shadows 0\n            -captureSequenceNumber -1\n            -width 1349\n            -height 525\n            -sceneRenderFilter 0\n            $editorName;\n        modelEditor -e -viewSelected 0 $editorName;\n        modelEditor -e \n            -pluginObjects \"gpuCacheDisplayFilter\" 1 \n            $editorName;\n\t\tif (!$useSceneConfig) {\n\t\t\tpanel -e -l $label $panelName;\n\t\t}\n\t}\n\n\n\t$panelName = `sceneUIReplacement -getNextPanel \"outlinerPanel\" (localizedPanelLabel(\"ToggledOutliner\")) `;\n\tif (\"\" != $panelName) {\n\t\t$label = `panel -q -label $panelName`;\n\t\toutlinerPanel -edit -l (localizedPanelLabel(\"ToggledOutliner\")) -mbv $menusOkayInPanels  $panelName;\n"
		+ "\t\t$editorName = $panelName;\n        outlinerEditor -e \n            -showShapes 0\n            -showAssignedMaterials 0\n            -showTimeEditor 1\n            -showReferenceNodes 1\n            -showReferenceMembers 1\n            -showAttributes 0\n            -showConnected 0\n            -showAnimCurvesOnly 0\n            -showMuteInfo 0\n            -organizeByLayer 1\n            -organizeByClip 1\n            -showAnimLayerWeight 1\n            -autoExpandLayers 1\n            -autoExpand 0\n            -showDagOnly 1\n            -showAssets 1\n            -showContainedOnly 1\n            -showPublishedAsConnected 0\n            -showParentContainers 0\n            -showContainerContents 1\n            -ignoreDagHierarchy 0\n            -expandConnections 0\n            -showUpstreamCurves 1\n            -showUnitlessCurves 1\n            -showCompounds 1\n            -showLeafs 1\n            -showNumericAttrsOnly 0\n            -highlightActive 1\n            -autoSelectNewObjects 0\n            -doNotSelectNewObjects 0\n            -dropIsParent 1\n"
		+ "            -transmitFilters 0\n            -setFilter \"defaultSetFilter\" \n            -showSetMembers 1\n            -allowMultiSelection 1\n            -alwaysToggleSelect 0\n            -directSelect 0\n            -isSet 0\n            -isSetMember 0\n            -displayMode \"DAG\" \n            -expandObjects 0\n            -setsIgnoreFilters 1\n            -containersIgnoreFilters 0\n            -editAttrName 0\n            -showAttrValues 0\n            -highlightSecondary 0\n            -showUVAttrsOnly 0\n            -showTextureNodesOnly 0\n            -attrAlphaOrder \"default\" \n            -animLayerFilterOptions \"allAffecting\" \n            -sortOrder \"none\" \n            -longNames 0\n            -niceNames 1\n            -showNamespace 1\n            -showPinIcons 0\n            -mapMotionTrails 0\n            -ignoreHiddenAttribute 0\n            -ignoreOutlinerColor 0\n            -renderFilterVisible 0\n            -renderFilterIndex 0\n            -selectionOrder \"chronological\" \n            -expandAttribute 0\n            $editorName;\n"
		+ "\t\tif (!$useSceneConfig) {\n\t\t\tpanel -e -l $label $panelName;\n\t\t}\n\t}\n\n\n\t$panelName = `sceneUIReplacement -getNextPanel \"outlinerPanel\" (localizedPanelLabel(\"Outliner\")) `;\n\tif (\"\" != $panelName) {\n\t\t$label = `panel -q -label $panelName`;\n\t\toutlinerPanel -edit -l (localizedPanelLabel(\"Outliner\")) -mbv $menusOkayInPanels  $panelName;\n\t\t$editorName = $panelName;\n        outlinerEditor -e \n            -showShapes 0\n            -showAssignedMaterials 0\n            -showTimeEditor 1\n            -showReferenceNodes 0\n            -showReferenceMembers 0\n            -showAttributes 0\n            -showConnected 0\n            -showAnimCurvesOnly 0\n            -showMuteInfo 0\n            -organizeByLayer 1\n            -organizeByClip 1\n            -showAnimLayerWeight 1\n            -autoExpandLayers 1\n            -autoExpand 0\n            -showDagOnly 1\n            -showAssets 1\n            -showContainedOnly 1\n            -showPublishedAsConnected 0\n            -showParentContainers 0\n            -showContainerContents 1\n            -ignoreDagHierarchy 0\n"
		+ "            -expandConnections 0\n            -showUpstreamCurves 1\n            -showUnitlessCurves 1\n            -showCompounds 1\n            -showLeafs 1\n            -showNumericAttrsOnly 0\n            -highlightActive 1\n            -autoSelectNewObjects 0\n            -doNotSelectNewObjects 0\n            -dropIsParent 1\n            -transmitFilters 0\n            -setFilter \"0\" \n            -showSetMembers 1\n            -allowMultiSelection 1\n            -alwaysToggleSelect 0\n            -directSelect 0\n            -displayMode \"DAG\" \n            -expandObjects 0\n            -setsIgnoreFilters 1\n            -containersIgnoreFilters 0\n            -editAttrName 0\n            -showAttrValues 0\n            -highlightSecondary 0\n            -showUVAttrsOnly 0\n            -showTextureNodesOnly 0\n            -attrAlphaOrder \"default\" \n            -animLayerFilterOptions \"allAffecting\" \n            -sortOrder \"none\" \n            -longNames 0\n            -niceNames 1\n            -showNamespace 1\n            -showPinIcons 0\n"
		+ "            -mapMotionTrails 0\n            -ignoreHiddenAttribute 0\n            -ignoreOutlinerColor 0\n            -renderFilterVisible 0\n            $editorName;\n\t\tif (!$useSceneConfig) {\n\t\t\tpanel -e -l $label $panelName;\n\t\t}\n\t}\n\n\n\t$panelName = `sceneUIReplacement -getNextScriptedPanel \"graphEditor\" (localizedPanelLabel(\"Graph Editor\")) `;\n\tif (\"\" != $panelName) {\n\t\t$label = `panel -q -label $panelName`;\n\t\tscriptedPanel -edit -l (localizedPanelLabel(\"Graph Editor\")) -mbv $menusOkayInPanels  $panelName;\n\n\t\t\t$editorName = ($panelName+\"OutlineEd\");\n            outlinerEditor -e \n                -showShapes 1\n                -showAssignedMaterials 0\n                -showTimeEditor 1\n                -showReferenceNodes 0\n                -showReferenceMembers 0\n                -showAttributes 1\n                -showConnected 1\n                -showAnimCurvesOnly 1\n                -showMuteInfo 0\n                -organizeByLayer 1\n                -organizeByClip 1\n                -showAnimLayerWeight 1\n                -autoExpandLayers 1\n"
		+ "                -autoExpand 1\n                -showDagOnly 0\n                -showAssets 1\n                -showContainedOnly 0\n                -showPublishedAsConnected 0\n                -showParentContainers 0\n                -showContainerContents 0\n                -ignoreDagHierarchy 0\n                -expandConnections 1\n                -showUpstreamCurves 1\n                -showUnitlessCurves 1\n                -showCompounds 0\n                -showLeafs 1\n                -showNumericAttrsOnly 1\n                -highlightActive 0\n                -autoSelectNewObjects 1\n                -doNotSelectNewObjects 0\n                -dropIsParent 1\n                -transmitFilters 1\n                -setFilter \"0\" \n                -showSetMembers 0\n                -allowMultiSelection 1\n                -alwaysToggleSelect 0\n                -directSelect 0\n                -displayMode \"DAG\" \n                -expandObjects 0\n                -setsIgnoreFilters 1\n                -containersIgnoreFilters 0\n                -editAttrName 0\n"
		+ "                -showAttrValues 0\n                -highlightSecondary 0\n                -showUVAttrsOnly 0\n                -showTextureNodesOnly 0\n                -attrAlphaOrder \"default\" \n                -animLayerFilterOptions \"allAffecting\" \n                -sortOrder \"none\" \n                -longNames 0\n                -niceNames 1\n                -showNamespace 1\n                -showPinIcons 1\n                -mapMotionTrails 1\n                -ignoreHiddenAttribute 0\n                -ignoreOutlinerColor 0\n                -renderFilterVisible 0\n                $editorName;\n\n\t\t\t$editorName = ($panelName+\"GraphEd\");\n            animCurveEditor -e \n                -displayValues 0\n                -snapTime \"integer\" \n                -snapValue \"none\" \n                -showPlayRangeShades \"on\" \n                -lockPlayRangeShades \"off\" \n                -smoothness \"fine\" \n                -resultSamples 1\n                -resultScreenSamples 0\n                -resultUpdate \"delayed\" \n                -showUpstreamCurves 1\n"
		+ "                -keyMinScale 1\n                -stackedCurvesMin -1\n                -stackedCurvesMax 1\n                -stackedCurvesSpace 0.2\n                -preSelectionHighlight 0\n                -constrainDrag 0\n                -valueLinesToggle 1\n                -highlightAffectedCurves 0\n                $editorName;\n\t\tif (!$useSceneConfig) {\n\t\t\tpanel -e -l $label $panelName;\n\t\t}\n\t}\n\n\n\t$panelName = `sceneUIReplacement -getNextScriptedPanel \"dopeSheetPanel\" (localizedPanelLabel(\"Dope Sheet\")) `;\n\tif (\"\" != $panelName) {\n\t\t$label = `panel -q -label $panelName`;\n\t\tscriptedPanel -edit -l (localizedPanelLabel(\"Dope Sheet\")) -mbv $menusOkayInPanels  $panelName;\n\n\t\t\t$editorName = ($panelName+\"OutlineEd\");\n            outlinerEditor -e \n                -showShapes 1\n                -showAssignedMaterials 0\n                -showTimeEditor 1\n                -showReferenceNodes 0\n                -showReferenceMembers 0\n                -showAttributes 1\n                -showConnected 1\n                -showAnimCurvesOnly 1\n"
		+ "                -showMuteInfo 0\n                -organizeByLayer 1\n                -organizeByClip 1\n                -showAnimLayerWeight 1\n                -autoExpandLayers 1\n                -autoExpand 0\n                -showDagOnly 0\n                -showAssets 1\n                -showContainedOnly 0\n                -showPublishedAsConnected 0\n                -showParentContainers 0\n                -showContainerContents 0\n                -ignoreDagHierarchy 0\n                -expandConnections 1\n                -showUpstreamCurves 1\n                -showUnitlessCurves 0\n                -showCompounds 1\n                -showLeafs 1\n                -showNumericAttrsOnly 1\n                -highlightActive 0\n                -autoSelectNewObjects 0\n                -doNotSelectNewObjects 1\n                -dropIsParent 1\n                -transmitFilters 0\n                -setFilter \"0\" \n                -showSetMembers 0\n                -allowMultiSelection 1\n                -alwaysToggleSelect 0\n                -directSelect 0\n"
		+ "                -displayMode \"DAG\" \n                -expandObjects 0\n                -setsIgnoreFilters 1\n                -containersIgnoreFilters 0\n                -editAttrName 0\n                -showAttrValues 0\n                -highlightSecondary 0\n                -showUVAttrsOnly 0\n                -showTextureNodesOnly 0\n                -attrAlphaOrder \"default\" \n                -animLayerFilterOptions \"allAffecting\" \n                -sortOrder \"none\" \n                -longNames 0\n                -niceNames 1\n                -showNamespace 1\n                -showPinIcons 0\n                -mapMotionTrails 1\n                -ignoreHiddenAttribute 0\n                -ignoreOutlinerColor 0\n                -renderFilterVisible 0\n                $editorName;\n\n\t\t\t$editorName = ($panelName+\"DopeSheetEd\");\n            dopeSheetEditor -e \n                -displayValues 0\n                -snapTime \"integer\" \n                -snapValue \"none\" \n                -outliner \"dopeSheetPanel1OutlineEd\" \n                -showSummary 1\n"
		+ "                -showScene 0\n                -hierarchyBelow 0\n                -showTicks 1\n                -selectionWindow 0 0 0 0 \n                $editorName;\n\t\tif (!$useSceneConfig) {\n\t\t\tpanel -e -l $label $panelName;\n\t\t}\n\t}\n\n\n\t$panelName = `sceneUIReplacement -getNextScriptedPanel \"timeEditorPanel\" (localizedPanelLabel(\"Time Editor\")) `;\n\tif (\"\" != $panelName) {\n\t\t$label = `panel -q -label $panelName`;\n\t\tscriptedPanel -edit -l (localizedPanelLabel(\"Time Editor\")) -mbv $menusOkayInPanels  $panelName;\n\t\tif (!$useSceneConfig) {\n\t\t\tpanel -e -l $label $panelName;\n\t\t}\n\t}\n\n\n\t$panelName = `sceneUIReplacement -getNextScriptedPanel \"clipEditorPanel\" (localizedPanelLabel(\"Trax Editor\")) `;\n\tif (\"\" != $panelName) {\n\t\t$label = `panel -q -label $panelName`;\n\t\tscriptedPanel -edit -l (localizedPanelLabel(\"Trax Editor\")) -mbv $menusOkayInPanels  $panelName;\n\n\t\t\t$editorName = clipEditorNameFromPanel($panelName);\n            clipEditor -e \n                -displayValues 0\n                -snapTime \"none\" \n                -snapValue \"none\" \n"
		+ "                -initialized 0\n                -manageSequencer 0 \n                $editorName;\n\t\tif (!$useSceneConfig) {\n\t\t\tpanel -e -l $label $panelName;\n\t\t}\n\t}\n\n\n\t$panelName = `sceneUIReplacement -getNextScriptedPanel \"sequenceEditorPanel\" (localizedPanelLabel(\"Camera Sequencer\")) `;\n\tif (\"\" != $panelName) {\n\t\t$label = `panel -q -label $panelName`;\n\t\tscriptedPanel -edit -l (localizedPanelLabel(\"Camera Sequencer\")) -mbv $menusOkayInPanels  $panelName;\n\n\t\t\t$editorName = sequenceEditorNameFromPanel($panelName);\n            clipEditor -e \n                -displayValues 0\n                -snapTime \"none\" \n                -snapValue \"none\" \n                -initialized 0\n                -manageSequencer 1 \n                $editorName;\n\t\tif (!$useSceneConfig) {\n\t\t\tpanel -e -l $label $panelName;\n\t\t}\n\t}\n\n\n\t$panelName = `sceneUIReplacement -getNextScriptedPanel \"hyperGraphPanel\" (localizedPanelLabel(\"Hypergraph Hierarchy\")) `;\n\tif (\"\" != $panelName) {\n\t\t$label = `panel -q -label $panelName`;\n\t\tscriptedPanel -edit -l (localizedPanelLabel(\"Hypergraph Hierarchy\")) -mbv $menusOkayInPanels  $panelName;\n"
		+ "\n\t\t\t$editorName = ($panelName+\"HyperGraphEd\");\n            hyperGraph -e \n                -graphLayoutStyle \"hierarchicalLayout\" \n                -orientation \"horiz\" \n                -mergeConnections 0\n                -zoom 1\n                -animateTransition 0\n                -showRelationships 1\n                -showShapes 0\n                -showDeformers 0\n                -showExpressions 0\n                -showConstraints 0\n                -showConnectionFromSelected 0\n                -showConnectionToSelected 0\n                -showConstraintLabels 0\n                -showUnderworld 0\n                -showInvisible 0\n                -transitionFrames 1\n                -opaqueContainers 0\n                -freeform 0\n                -imagePosition 0 0 \n                -imageScale 1\n                -imageEnabled 0\n                -graphType \"DAG\" \n                -heatMapDisplay 0\n                -updateSelection 1\n                -updateNodeAdded 1\n                -useDrawOverrideColor 0\n                -limitGraphTraversal -1\n"
		+ "                -range 0 0 \n                -iconSize \"smallIcons\" \n                -showCachedConnections 0\n                $editorName;\n\t\tif (!$useSceneConfig) {\n\t\t\tpanel -e -l $label $panelName;\n\t\t}\n\t}\n\n\n\t$panelName = `sceneUIReplacement -getNextScriptedPanel \"hyperShadePanel\" (localizedPanelLabel(\"Hypershade\")) `;\n\tif (\"\" != $panelName) {\n\t\t$label = `panel -q -label $panelName`;\n\t\tscriptedPanel -edit -l (localizedPanelLabel(\"Hypershade\")) -mbv $menusOkayInPanels  $panelName;\n\t\tif (!$useSceneConfig) {\n\t\t\tpanel -e -l $label $panelName;\n\t\t}\n\t}\n\n\n\t$panelName = `sceneUIReplacement -getNextScriptedPanel \"visorPanel\" (localizedPanelLabel(\"Visor\")) `;\n\tif (\"\" != $panelName) {\n\t\t$label = `panel -q -label $panelName`;\n\t\tscriptedPanel -edit -l (localizedPanelLabel(\"Visor\")) -mbv $menusOkayInPanels  $panelName;\n\t\tif (!$useSceneConfig) {\n\t\t\tpanel -e -l $label $panelName;\n\t\t}\n\t}\n\n\n\t$panelName = `sceneUIReplacement -getNextScriptedPanel \"nodeEditorPanel\" (localizedPanelLabel(\"Node Editor\")) `;\n\tif ($nodeEditorPanelVisible || $nodeEditorWorkspaceControlOpen) {\n"
		+ "\t\tif (\"\" == $panelName) {\n\t\t\tif ($useSceneConfig) {\n\t\t\t\t$panelName = `scriptedPanel -unParent  -type \"nodeEditorPanel\" -l (localizedPanelLabel(\"Node Editor\")) -mbv $menusOkayInPanels `;\n\n\t\t\t$editorName = ($panelName+\"NodeEditorEd\");\n            nodeEditor -e \n                -allAttributes 0\n                -allNodes 0\n                -autoSizeNodes 1\n                -consistentNameSize 1\n                -createNodeCommand \"nodeEdCreateNodeCommand\" \n                -connectNodeOnCreation 0\n                -connectOnDrop 0\n                -copyConnectionsOnPaste 0\n                -connectionStyle \"bezier\" \n                -defaultPinnedState 0\n                -additiveGraphingMode 0\n                -settingsChangedCallback \"nodeEdSyncControls\" \n                -traversalDepthLimit -1\n                -keyPressCommand \"nodeEdKeyPressCommand\" \n                -nodeTitleMode \"name\" \n                -gridSnap 0\n                -gridVisibility 1\n                -crosshairOnEdgeDragging 0\n                -popupMenuScript \"nodeEdBuildPanelMenus\" \n"
		+ "                -showNamespace 1\n                -showShapes 1\n                -showSGShapes 0\n                -showTransforms 1\n                -useAssets 1\n                -syncedSelection 1\n                -extendToShapes 1\n                -editorMode \"default\" \n                -hasWatchpoint 0\n                $editorName;\n\t\t\t}\n\t\t} else {\n\t\t\t$label = `panel -q -label $panelName`;\n\t\t\tscriptedPanel -edit -l (localizedPanelLabel(\"Node Editor\")) -mbv $menusOkayInPanels  $panelName;\n\n\t\t\t$editorName = ($panelName+\"NodeEditorEd\");\n            nodeEditor -e \n                -allAttributes 0\n                -allNodes 0\n                -autoSizeNodes 1\n                -consistentNameSize 1\n                -createNodeCommand \"nodeEdCreateNodeCommand\" \n                -connectNodeOnCreation 0\n                -connectOnDrop 0\n                -copyConnectionsOnPaste 0\n                -connectionStyle \"bezier\" \n                -defaultPinnedState 0\n                -additiveGraphingMode 0\n                -settingsChangedCallback \"nodeEdSyncControls\" \n"
		+ "                -traversalDepthLimit -1\n                -keyPressCommand \"nodeEdKeyPressCommand\" \n                -nodeTitleMode \"name\" \n                -gridSnap 0\n                -gridVisibility 1\n                -crosshairOnEdgeDragging 0\n                -popupMenuScript \"nodeEdBuildPanelMenus\" \n                -showNamespace 1\n                -showShapes 1\n                -showSGShapes 0\n                -showTransforms 1\n                -useAssets 1\n                -syncedSelection 1\n                -extendToShapes 1\n                -editorMode \"default\" \n                -hasWatchpoint 0\n                $editorName;\n\t\t\tif (!$useSceneConfig) {\n\t\t\t\tpanel -e -l $label $panelName;\n\t\t\t}\n\t\t}\n\t}\n\n\n\t$panelName = `sceneUIReplacement -getNextScriptedPanel \"createNodePanel\" (localizedPanelLabel(\"Create Node\")) `;\n\tif (\"\" != $panelName) {\n\t\t$label = `panel -q -label $panelName`;\n\t\tscriptedPanel -edit -l (localizedPanelLabel(\"Create Node\")) -mbv $menusOkayInPanels  $panelName;\n\t\tif (!$useSceneConfig) {\n\t\t\tpanel -e -l $label $panelName;\n"
		+ "\t\t}\n\t}\n\n\n\t$panelName = `sceneUIReplacement -getNextScriptedPanel \"polyTexturePlacementPanel\" (localizedPanelLabel(\"UV Editor\")) `;\n\tif (\"\" != $panelName) {\n\t\t$label = `panel -q -label $panelName`;\n\t\tscriptedPanel -edit -l (localizedPanelLabel(\"UV Editor\")) -mbv $menusOkayInPanels  $panelName;\n\t\tif (!$useSceneConfig) {\n\t\t\tpanel -e -l $label $panelName;\n\t\t}\n\t}\n\n\n\t$panelName = `sceneUIReplacement -getNextScriptedPanel \"renderWindowPanel\" (localizedPanelLabel(\"Render View\")) `;\n\tif (\"\" != $panelName) {\n\t\t$label = `panel -q -label $panelName`;\n\t\tscriptedPanel -edit -l (localizedPanelLabel(\"Render View\")) -mbv $menusOkayInPanels  $panelName;\n\t\tif (!$useSceneConfig) {\n\t\t\tpanel -e -l $label $panelName;\n\t\t}\n\t}\n\n\n\t$panelName = `sceneUIReplacement -getNextPanel \"shapePanel\" (localizedPanelLabel(\"Shape Editor\")) `;\n\tif (\"\" != $panelName) {\n\t\t$label = `panel -q -label $panelName`;\n\t\tshapePanel -edit -l (localizedPanelLabel(\"Shape Editor\")) -mbv $menusOkayInPanels  $panelName;\n\t\tif (!$useSceneConfig) {\n\t\t\tpanel -e -l $label $panelName;\n"
		+ "\t\t}\n\t}\n\n\n\t$panelName = `sceneUIReplacement -getNextPanel \"posePanel\" (localizedPanelLabel(\"Pose Editor\")) `;\n\tif (\"\" != $panelName) {\n\t\t$label = `panel -q -label $panelName`;\n\t\tposePanel -edit -l (localizedPanelLabel(\"Pose Editor\")) -mbv $menusOkayInPanels  $panelName;\n\t\tif (!$useSceneConfig) {\n\t\t\tpanel -e -l $label $panelName;\n\t\t}\n\t}\n\n\n\t$panelName = `sceneUIReplacement -getNextScriptedPanel \"dynRelEdPanel\" (localizedPanelLabel(\"Dynamic Relationships\")) `;\n\tif (\"\" != $panelName) {\n\t\t$label = `panel -q -label $panelName`;\n\t\tscriptedPanel -edit -l (localizedPanelLabel(\"Dynamic Relationships\")) -mbv $menusOkayInPanels  $panelName;\n\t\tif (!$useSceneConfig) {\n\t\t\tpanel -e -l $label $panelName;\n\t\t}\n\t}\n\n\n\t$panelName = `sceneUIReplacement -getNextScriptedPanel \"relationshipPanel\" (localizedPanelLabel(\"Relationship Editor\")) `;\n\tif (\"\" != $panelName) {\n\t\t$label = `panel -q -label $panelName`;\n\t\tscriptedPanel -edit -l (localizedPanelLabel(\"Relationship Editor\")) -mbv $menusOkayInPanels  $panelName;\n\t\tif (!$useSceneConfig) {\n"
		+ "\t\t\tpanel -e -l $label $panelName;\n\t\t}\n\t}\n\n\n\t$panelName = `sceneUIReplacement -getNextScriptedPanel \"referenceEditorPanel\" (localizedPanelLabel(\"Reference Editor\")) `;\n\tif (\"\" != $panelName) {\n\t\t$label = `panel -q -label $panelName`;\n\t\tscriptedPanel -edit -l (localizedPanelLabel(\"Reference Editor\")) -mbv $menusOkayInPanels  $panelName;\n\t\tif (!$useSceneConfig) {\n\t\t\tpanel -e -l $label $panelName;\n\t\t}\n\t}\n\n\n\t$panelName = `sceneUIReplacement -getNextScriptedPanel \"componentEditorPanel\" (localizedPanelLabel(\"Component Editor\")) `;\n\tif (\"\" != $panelName) {\n\t\t$label = `panel -q -label $panelName`;\n\t\tscriptedPanel -edit -l (localizedPanelLabel(\"Component Editor\")) -mbv $menusOkayInPanels  $panelName;\n\t\tif (!$useSceneConfig) {\n\t\t\tpanel -e -l $label $panelName;\n\t\t}\n\t}\n\n\n\t$panelName = `sceneUIReplacement -getNextScriptedPanel \"dynPaintScriptedPanelType\" (localizedPanelLabel(\"Paint Effects\")) `;\n\tif (\"\" != $panelName) {\n\t\t$label = `panel -q -label $panelName`;\n\t\tscriptedPanel -edit -l (localizedPanelLabel(\"Paint Effects\")) -mbv $menusOkayInPanels  $panelName;\n"
		+ "\t\tif (!$useSceneConfig) {\n\t\t\tpanel -e -l $label $panelName;\n\t\t}\n\t}\n\n\n\t$panelName = `sceneUIReplacement -getNextScriptedPanel \"scriptEditorPanel\" (localizedPanelLabel(\"Script Editor\")) `;\n\tif (\"\" != $panelName) {\n\t\t$label = `panel -q -label $panelName`;\n\t\tscriptedPanel -edit -l (localizedPanelLabel(\"Script Editor\")) -mbv $menusOkayInPanels  $panelName;\n\t\tif (!$useSceneConfig) {\n\t\t\tpanel -e -l $label $panelName;\n\t\t}\n\t}\n\n\n\t$panelName = `sceneUIReplacement -getNextScriptedPanel \"profilerPanel\" (localizedPanelLabel(\"Profiler Tool\")) `;\n\tif (\"\" != $panelName) {\n\t\t$label = `panel -q -label $panelName`;\n\t\tscriptedPanel -edit -l (localizedPanelLabel(\"Profiler Tool\")) -mbv $menusOkayInPanels  $panelName;\n\t\tif (!$useSceneConfig) {\n\t\t\tpanel -e -l $label $panelName;\n\t\t}\n\t}\n\n\n\t$panelName = `sceneUIReplacement -getNextScriptedPanel \"contentBrowserPanel\" (localizedPanelLabel(\"Content Browser\")) `;\n\tif (\"\" != $panelName) {\n\t\t$label = `panel -q -label $panelName`;\n\t\tscriptedPanel -edit -l (localizedPanelLabel(\"Content Browser\")) -mbv $menusOkayInPanels  $panelName;\n"
		+ "\t\tif (!$useSceneConfig) {\n\t\t\tpanel -e -l $label $panelName;\n\t\t}\n\t}\n\n\n\tif ($useSceneConfig) {\n        string $configName = `getPanel -cwl (localizedPanelLabel(\"Current Layout\"))`;\n        if (\"\" != $configName) {\n\t\t\tpanelConfiguration -edit -label (localizedPanelLabel(\"Current Layout\")) \n\t\t\t\t-userCreated false\n\t\t\t\t-defaultImage \"\"\n\t\t\t\t-image \"\"\n\t\t\t\t-sc false\n\t\t\t\t-configString \"global string $gMainPane; paneLayout -e -cn \\\"single\\\" -ps 1 100 100 $gMainPane;\"\n\t\t\t\t-removeAllPanels\n\t\t\t\t-ap false\n\t\t\t\t\t(localizedPanelLabel(\"Persp View\")) \n\t\t\t\t\t\"modelPanel\"\n"
		+ "\t\t\t\t\t\"$panelName = `modelPanel -unParent -l (localizedPanelLabel(\\\"Persp View\\\")) -mbv $menusOkayInPanels `;\\n$editorName = $panelName;\\nmodelEditor -e \\n    -cam `findStartUpCamera persp` \\n    -useInteractiveMode 0\\n    -displayLights \\\"default\\\" \\n    -displayAppearance \\\"smoothShaded\\\" \\n    -activeOnly 0\\n    -ignorePanZoom 0\\n    -wireframeOnShaded 0\\n    -headsUpDisplay 1\\n    -holdOuts 1\\n    -selectionHiliteDisplay 1\\n    -useDefaultMaterial 0\\n    -bufferMode \\\"double\\\" \\n    -twoSidedLighting 0\\n    -backfaceCulling 0\\n    -xray 0\\n    -jointXray 0\\n    -activeComponentsXray 0\\n    -displayTextures 0\\n    -smoothWireframe 0\\n    -lineWidth 1\\n    -textureAnisotropic 0\\n    -textureHilight 1\\n    -textureSampling 2\\n    -textureDisplay \\\"modulate\\\" \\n    -textureMaxSize 32768\\n    -fogging 0\\n    -fogSource \\\"fragment\\\" \\n    -fogMode \\\"linear\\\" \\n    -fogStart 0\\n    -fogEnd 100\\n    -fogDensity 0.1\\n    -fogColor 0.5 0.5 0.5 1 \\n    -depthOfFieldPreview 1\\n    -maxConstantTransparency 1\\n    -rendererName \\\"vp2Renderer\\\" \\n    -objectFilterShowInHUD 1\\n    -isFiltered 0\\n    -colorResolution 256 256 \\n    -bumpResolution 512 512 \\n    -textureCompression 0\\n    -transparencyAlgorithm \\\"frontAndBackCull\\\" \\n    -transpInShadows 0\\n    -cullingOverride \\\"none\\\" \\n    -lowQualityLighting 0\\n    -maximumNumHardwareLights 1\\n    -occlusionCulling 0\\n    -shadingModel 0\\n    -useBaseRenderer 0\\n    -useReducedRenderer 0\\n    -smallObjectCulling 0\\n    -smallObjectThreshold -1 \\n    -interactiveDisableShadows 0\\n    -interactiveBackFaceCull 0\\n    -sortTransparent 1\\n    -controllers 1\\n    -nurbsCurves 1\\n    -nurbsSurfaces 1\\n    -polymeshes 1\\n    -subdivSurfaces 1\\n    -planes 1\\n    -lights 1\\n    -cameras 1\\n    -controlVertices 1\\n    -hulls 1\\n    -grid 1\\n    -imagePlane 1\\n    -joints 1\\n    -ikHandles 1\\n    -deformers 1\\n    -dynamics 1\\n    -particleInstancers 1\\n    -fluids 1\\n    -hairSystems 1\\n    -follicles 1\\n    -nCloths 1\\n    -nParticles 1\\n    -nRigids 1\\n    -dynamicConstraints 1\\n    -locators 1\\n    -manipulators 1\\n    -pluginShapes 1\\n    -dimensions 1\\n    -handles 1\\n    -pivots 1\\n    -textures 1\\n    -strokes 1\\n    -motionTrails 1\\n    -clipGhosts 1\\n    -greasePencils 1\\n    -shadows 0\\n    -captureSequenceNumber -1\\n    -width 1349\\n    -height 525\\n    -sceneRenderFilter 0\\n    $editorName;\\nmodelEditor -e -viewSelected 0 $editorName;\\nmodelEditor -e \\n    -pluginObjects \\\"gpuCacheDisplayFilter\\\" 1 \\n    $editorName\"\n"
		+ "\t\t\t\t\t\"modelPanel -edit -l (localizedPanelLabel(\\\"Persp View\\\")) -mbv $menusOkayInPanels  $panelName;\\n$editorName = $panelName;\\nmodelEditor -e \\n    -cam `findStartUpCamera persp` \\n    -useInteractiveMode 0\\n    -displayLights \\\"default\\\" \\n    -displayAppearance \\\"smoothShaded\\\" \\n    -activeOnly 0\\n    -ignorePanZoom 0\\n    -wireframeOnShaded 0\\n    -headsUpDisplay 1\\n    -holdOuts 1\\n    -selectionHiliteDisplay 1\\n    -useDefaultMaterial 0\\n    -bufferMode \\\"double\\\" \\n    -twoSidedLighting 0\\n    -backfaceCulling 0\\n    -xray 0\\n    -jointXray 0\\n    -activeComponentsXray 0\\n    -displayTextures 0\\n    -smoothWireframe 0\\n    -lineWidth 1\\n    -textureAnisotropic 0\\n    -textureHilight 1\\n    -textureSampling 2\\n    -textureDisplay \\\"modulate\\\" \\n    -textureMaxSize 32768\\n    -fogging 0\\n    -fogSource \\\"fragment\\\" \\n    -fogMode \\\"linear\\\" \\n    -fogStart 0\\n    -fogEnd 100\\n    -fogDensity 0.1\\n    -fogColor 0.5 0.5 0.5 1 \\n    -depthOfFieldPreview 1\\n    -maxConstantTransparency 1\\n    -rendererName \\\"vp2Renderer\\\" \\n    -objectFilterShowInHUD 1\\n    -isFiltered 0\\n    -colorResolution 256 256 \\n    -bumpResolution 512 512 \\n    -textureCompression 0\\n    -transparencyAlgorithm \\\"frontAndBackCull\\\" \\n    -transpInShadows 0\\n    -cullingOverride \\\"none\\\" \\n    -lowQualityLighting 0\\n    -maximumNumHardwareLights 1\\n    -occlusionCulling 0\\n    -shadingModel 0\\n    -useBaseRenderer 0\\n    -useReducedRenderer 0\\n    -smallObjectCulling 0\\n    -smallObjectThreshold -1 \\n    -interactiveDisableShadows 0\\n    -interactiveBackFaceCull 0\\n    -sortTransparent 1\\n    -controllers 1\\n    -nurbsCurves 1\\n    -nurbsSurfaces 1\\n    -polymeshes 1\\n    -subdivSurfaces 1\\n    -planes 1\\n    -lights 1\\n    -cameras 1\\n    -controlVertices 1\\n    -hulls 1\\n    -grid 1\\n    -imagePlane 1\\n    -joints 1\\n    -ikHandles 1\\n    -deformers 1\\n    -dynamics 1\\n    -particleInstancers 1\\n    -fluids 1\\n    -hairSystems 1\\n    -follicles 1\\n    -nCloths 1\\n    -nParticles 1\\n    -nRigids 1\\n    -dynamicConstraints 1\\n    -locators 1\\n    -manipulators 1\\n    -pluginShapes 1\\n    -dimensions 1\\n    -handles 1\\n    -pivots 1\\n    -textures 1\\n    -strokes 1\\n    -motionTrails 1\\n    -clipGhosts 1\\n    -greasePencils 1\\n    -shadows 0\\n    -captureSequenceNumber -1\\n    -width 1349\\n    -height 525\\n    -sceneRenderFilter 0\\n    $editorName;\\nmodelEditor -e -viewSelected 0 $editorName;\\nmodelEditor -e \\n    -pluginObjects \\\"gpuCacheDisplayFilter\\\" 1 \\n    $editorName\"\n"
		+ "\t\t\t\t$configName;\n\n            setNamedPanelLayout (localizedPanelLabel(\"Current Layout\"));\n        }\n\n        panelHistory -e -clear mainPanelHistory;\n        sceneUIReplacement -clear;\n\t}\n\n\ngrid -spacing 5 -size 12 -divisions 5 -displayAxes yes -displayGridLines yes -displayDivisionLines yes -displayPerspectiveLabels no -displayOrthographicLabels no -displayAxesBold yes -perspectiveLabelPosition axis -orthographicLabelPosition edge;\nviewManip -drawCompass 0 -compassAngle 0 -frontParameters \"\" -homeParameters \"\" -selectionLockParameters \"\";\n}\n");
	setAttr ".st" 3;
createNode script -n "sceneConfigurationScriptNode";
	rename -uid "91DD92CD-4BFE-147E-5A64-5CA516A6779B";
	setAttr ".b" -type "string" "playbackOptions -min 1 -max 120 -ast 1 -aet 200 ";
	setAttr ".st" 6;
select -ne :time1;
	setAttr ".o" 1;
	setAttr ".unw" 1;
select -ne :hardwareRenderingGlobals;
	setAttr ".otfna" -type "stringArray" 22 "NURBS Curves" "NURBS Surfaces" "Polygons" "Subdiv Surface" "Particles" "Particle Instance" "Fluids" "Strokes" "Image Planes" "UI" "Lights" "Cameras" "Locators" "Joints" "IK Handles" "Deformers" "Motion Trails" "Components" "Hair Systems" "Follicles" "Misc. UI" "Ornaments"  ;
	setAttr ".otfva" -type "Int32Array" 22 0 1 1 1 1 1
		 1 1 1 0 0 0 0 0 0 0 0 0
		 0 0 0 0 ;
	setAttr ".fprt" yes;
select -ne :renderPartition;
	setAttr -s 2 ".st";
select -ne :renderGlobalsList1;
select -ne :defaultShaderList1;
	setAttr -s 5 ".s";
select -ne :postProcessList1;
	setAttr -s 2 ".p";
select -ne :defaultRenderingList1;
select -ne :initialShadingGroup;
	setAttr -s 2 ".dsm";
	setAttr ".ro" yes;
select -ne :initialParticleSE;
	setAttr ".ro" yes;
select -ne :defaultRenderGlobals;
	addAttr -ci true -h true -sn "dss" -ln "defaultSurfaceShader" -dt "string";
	setAttr ".ren" -type "string" "arnold";
	setAttr ".dss" -type "string" "lambert1";
select -ne :defaultResolution;
	setAttr ".pa" 1;
select -ne :defaultColorMgtGlobals;
	setAttr ".cfe" yes;
	setAttr ".cfp" -type "string" "<MAYA_RESOURCES>/OCIO-configs/Maya2022-default/config.ocio";
	setAttr ".wsn" -type "string" "ACEScg";
select -ne :hardwareRenderGlobals;
	setAttr ".ctrs" 256;
	setAttr ".btrs" 512;
select -ne :ikSystem;
	setAttr -s 4 ".sol";
connectAttr "polyReduce2.out" "pTorusShape1.i";
connectAttr "polyReduce1.out" "pTorusShape2.i";
relationship "link" ":lightLinker1" ":initialShadingGroup.message" ":defaultLightSet.message";
relationship "link" ":lightLinker1" ":initialParticleSE.message" ":defaultLightSet.message";
relationship "shadowLink" ":lightLinker1" ":initialShadingGroup.message" ":defaultLightSet.message";
relationship "shadowLink" ":lightLinker1" ":initialParticleSE.message" ":defaultLightSet.message";
connectAttr "layerManager.dli[0]" "defaultLayer.id";
connectAttr "renderLayerManager.rlmi[0]" "defaultRenderLayer.rlid";
connectAttr "polyTorus2.out" "polyReduce1.ip";
connectAttr "polyTweak1.out" "polyReduce2.ip";
connectAttr "polyTorus1.out" "polyTweak1.ip";
connectAttr "defaultRenderLayer.msg" ":defaultRenderingList1.r" -na;
connectAttr "pTorusShape1.iog" ":initialShadingGroup.dsm" -na;
connectAttr "pTorusShape2.iog" ":initialShadingGroup.dsm" -na;
// End of Hole.ma
