//Maya ASCII 2022 scene
//Name: MediumMushroom.ma
//Last modified: Wed, Aug 25, 2021 01:07:30 PM
//Codeset: 1252
requires maya "2022";
requires "mtoa" "4.2.1";
currentUnit -l centimeter -a degree -t film;
fileInfo "application" "maya";
fileInfo "product" "Maya 2022";
fileInfo "version" "2022";
fileInfo "cutIdentifier" "202102181415-29bfc1879c";
fileInfo "osv" "Windows 10 Home v2009 (Build: 19043)";
fileInfo "UUID" "1A344BF2-4D06-75F5-AF60-048ADF77449A";
createNode transform -s -n "persp";
	rename -uid "3234E397-491C-DEE4-A271-B193A6953339";
	setAttr ".v" no;
	setAttr ".t" -type "double3" -8.9239808889864491 2.5558110335644488 3.473996311546935 ;
	setAttr ".r" -type "double3" -6.3383527286487098 649.40000000002226 -1.1969170893893056e-15 ;
createNode camera -s -n "perspShape" -p "persp";
	rename -uid "0B4F9DF3-428B-90F6-B913-4B97E850F993";
	setAttr -k off ".v" no;
	setAttr ".fl" 34.999999999999993;
	setAttr ".coi" 9.038652636460645;
	setAttr ".imn" -type "string" "persp";
	setAttr ".den" -type "string" "persp_depth";
	setAttr ".man" -type "string" "persp_mask";
	setAttr ".hc" -type "string" "viewSet -p %camera";
	setAttr ".ai_translator" -type "string" "perspective";
createNode transform -s -n "top";
	rename -uid "ADBA679C-4E2C-46C7-0D4D-078108A22E42";
	setAttr ".v" no;
	setAttr ".t" -type "double3" 0 1000.1 0 ;
	setAttr ".r" -type "double3" -90 0 0 ;
createNode camera -s -n "topShape" -p "top";
	rename -uid "F0C865D0-4503-ADF4-3B41-DCBC1ABFF9C4";
	setAttr -k off ".v" no;
	setAttr ".rnd" no;
	setAttr ".coi" 1000.1;
	setAttr ".ow" 30;
	setAttr ".imn" -type "string" "top";
	setAttr ".den" -type "string" "top_depth";
	setAttr ".man" -type "string" "top_mask";
	setAttr ".hc" -type "string" "viewSet -t %camera";
	setAttr ".o" yes;
	setAttr ".ai_translator" -type "string" "orthographic";
createNode transform -s -n "front";
	rename -uid "D1B86BE9-4612-2388-2C69-738459676A30";
	setAttr ".v" no;
	setAttr ".t" -type "double3" 0 0 1000.1 ;
createNode camera -s -n "frontShape" -p "front";
	rename -uid "0C62ADAE-4FCF-9088-A589-D1AFEF5241D0";
	setAttr -k off ".v" no;
	setAttr ".rnd" no;
	setAttr ".coi" 1000.1;
	setAttr ".ow" 30;
	setAttr ".imn" -type "string" "front";
	setAttr ".den" -type "string" "front_depth";
	setAttr ".man" -type "string" "front_mask";
	setAttr ".hc" -type "string" "viewSet -f %camera";
	setAttr ".o" yes;
	setAttr ".ai_translator" -type "string" "orthographic";
createNode transform -s -n "side";
	rename -uid "727E89D5-466F-AE54-AFA7-75AD3F5782AB";
	setAttr ".v" no;
	setAttr ".t" -type "double3" 1000.1 0 0 ;
	setAttr ".r" -type "double3" 0 90 0 ;
createNode camera -s -n "sideShape" -p "side";
	rename -uid "11F254D8-4CB5-CA18-73E0-20BA33D2206A";
	setAttr -k off ".v" no;
	setAttr ".rnd" no;
	setAttr ".coi" 1000.1;
	setAttr ".ow" 30;
	setAttr ".imn" -type "string" "side";
	setAttr ".den" -type "string" "side_depth";
	setAttr ".man" -type "string" "side_mask";
	setAttr ".hc" -type "string" "viewSet -s %camera";
	setAttr ".o" yes;
	setAttr ".ai_translator" -type "string" "orthographic";
createNode transform -n "pCylinder1";
	rename -uid "EF906FD7-4FED-F168-6E90-6DA5F685D167";
	setAttr ".t" -type "double3" 0 1.0175186598953578 0 ;
createNode mesh -n "MediumMushroom" -p "pCylinder1";
	rename -uid "98044E69-4D5F-B508-1353-2A8CFCA38071";
	setAttr -k off ".v";
	setAttr ".vir" yes;
	setAttr ".vif" yes;
	setAttr ".pv" -type "double2" 0.49999988079071045 0.65871107578277588 ;
	setAttr ".uvst[0].uvsn" -type "string" "map1";
	setAttr ".cuvs" -type "string" "map1";
	setAttr ".dcc" -type "string" "Ambient+Diffuse";
	setAttr ".covm[0]"  0 1 1;
	setAttr ".cdvm[0]"  0 1 1;
	setAttr -s 101 ".pt";
	setAttr ".pt[0]" -type "float3" -0.77637058 0 0.25225785 ;
	setAttr ".pt[1]" -type "float3" -0.66042042 0 0.47982317 ;
	setAttr ".pt[2]" -type "float3" -0.47982329 0 0.66042006 ;
	setAttr ".pt[3]" -type "float3" -0.25225809 0 0.77637023 ;
	setAttr ".pt[4]" -type "float3" -9.7313375e-08 0 0.81632382 ;
	setAttr ".pt[5]" -type "float3" 0.25225788 0 0.77637011 ;
	setAttr ".pt[6]" -type "float3" 0.47982311 0 0.66041988 ;
	setAttr ".pt[7]" -type "float3" 0.66041988 0 0.47982308 ;
	setAttr ".pt[8]" -type "float3" 0.77636999 0 0.25225776 ;
	setAttr ".pt[9]" -type "float3" 0.81632382 0 -1.4597003e-07 ;
	setAttr ".pt[10]" -type "float3" 0.77636999 0 -0.25225806 ;
	setAttr ".pt[11]" -type "float3" 0.66041982 0 -0.47982311 ;
	setAttr ".pt[12]" -type "float3" 0.47982308 0 -0.66042006 ;
	setAttr ".pt[13]" -type "float3" 0.25225779 0 -0.77637023 ;
	setAttr ".pt[14]" -type "float3" -7.2985017e-08 0 -0.81632382 ;
	setAttr ".pt[15]" -type "float3" -0.25225791 0 -0.77637011 ;
	setAttr ".pt[16]" -type "float3" -0.47982311 0 -0.66042 ;
	setAttr ".pt[17]" -type "float3" -0.66041988 0 -0.47982323 ;
	setAttr ".pt[18]" -type "float3" -0.77636999 0 -0.252258 ;
	setAttr ".pt[19]" -type "float3" -0.81632382 0 -1.4597003e-07 ;
	setAttr ".pt[20]" -type "float3" -0.36533964 0.079189509 0.11870587 ;
	setAttr ".pt[21]" -type "float3" -0.31077623 0.079189509 0.22579205 ;
	setAttr ".pt[22]" -type "float3" -0.22579232 0.079189509 0.31077611 ;
	setAttr ".pt[23]" -type "float3" -0.11870595 0.079189509 0.36533925 ;
	setAttr ".pt[24]" -type "float3" -4.5793101e-08 0.079189509 0.38414052 ;
	setAttr ".pt[25]" -type "float3" 0.1187059 0.079189509 0.36533925 ;
	setAttr ".pt[26]" -type "float3" 0.22579223 0.079189509 0.31077605 ;
	setAttr ".pt[27]" -type "float3" 0.31077605 0.079189509 0.22579198 ;
	setAttr ".pt[28]" -type "float3" 0.36533919 0.079189509 0.1187058 ;
	setAttr ".pt[29]" -type "float3" 0.3841404 0.079189509 -9.1586216e-08 ;
	setAttr ".pt[30]" -type "float3" 0.36533919 0.079189509 -0.11870607 ;
	setAttr ".pt[31]" -type "float3" 0.31077605 0.079189509 -0.2257922 ;
	setAttr ".pt[32]" -type "float3" 0.2257922 0.079189509 -0.31077617 ;
	setAttr ".pt[33]" -type "float3" 0.1187059 0.079189509 -0.36533925 ;
	setAttr ".pt[34]" -type "float3" -3.4344833e-08 0.079189509 -0.38414052 ;
	setAttr ".pt[35]" -type "float3" -0.11870593 0.079189509 -0.36533934 ;
	setAttr ".pt[36]" -type "float3" -0.22579223 0.079189509 -0.31077611 ;
	setAttr ".pt[37]" -type "float3" -0.31077605 0.079189509 -0.2257922 ;
	setAttr ".pt[38]" -type "float3" -0.36533919 0.079189509 -0.11870599 ;
	setAttr ".pt[39]" -type "float3" -0.3841404 0.079189509 -9.1586216e-08 ;
	setAttr ".pt[41]" -type "float3" 0 0.16835919 0 ;
	setAttr ".pt[42]" -type "float3" -0.79705977 0.12297148 0.25898027 ;
	setAttr ".pt[43]" -type "float3" -0.6780197 0.12297148 0.49260983 ;
	setAttr ".pt[44]" -type "float3" -0.49261013 0.12297148 0.67801934 ;
	setAttr ".pt[45]" -type "float3" -0.25898051 0.12297148 0.79705954 ;
	setAttr ".pt[46]" -type "float3" -9.9906643e-08 0.12297148 0.83807814 ;
	setAttr ".pt[47]" -type "float3" 0.2589803 0.12297148 0.79705954 ;
	setAttr ".pt[48]" -type "float3" 0.49260977 0.12297148 0.67801917 ;
	setAttr ".pt[49]" -type "float3" 0.67801917 0.12297148 0.49260965 ;
	setAttr ".pt[50]" -type "float3" 0.79705954 0.12297148 0.25898018 ;
	setAttr ".pt[51]" -type "float3" 0.83807778 0.12297148 -1.4985991e-07 ;
	setAttr ".pt[52]" -type "float3" 0.79705954 0.12297148 -0.25898048 ;
	setAttr ".pt[53]" -type "float3" 0.67801911 0.12297148 -0.49260995 ;
	setAttr ".pt[54]" -type "float3" 0.49260965 0.12297148 -0.67801934 ;
	setAttr ".pt[55]" -type "float3" 0.25898021 0.12297148 -0.7970596 ;
	setAttr ".pt[56]" -type "float3" -7.4929957e-08 0.12297148 -0.83807814 ;
	setAttr ".pt[57]" -type "float3" -0.25898036 0.12297148 -0.79705954 ;
	setAttr ".pt[58]" -type "float3" -0.49260977 0.12297148 -0.67801929 ;
	setAttr ".pt[59]" -type "float3" -0.67801917 0.12297148 -0.49260989 ;
	setAttr ".pt[60]" -type "float3" -0.79705948 0.12297148 -0.25898042 ;
	setAttr ".pt[61]" -type "float3" -0.83807778 0.12297148 -1.4985991e-07 ;
	setAttr ".pt[82]" -type "float3" -0.21774028 0 0.070748031 ;
	setAttr ".pt[83]" -type "float3" -0.22894548 0 -4.5550951e-08 ;
	setAttr ".pt[84]" -type "float3" -0.21774007 0 -0.070748091 ;
	setAttr ".pt[85]" -type "float3" -0.18522076 0 -0.13457084 ;
	setAttr ".pt[86]" -type "float3" -0.13457082 0 -0.18522078 ;
	setAttr ".pt[87]" -type "float3" -0.070748039 0 -0.21774013 ;
	setAttr ".pt[88]" -type "float3" -1.1435414e-08 0 -0.22894552 ;
	setAttr ".pt[89]" -type "float3" 0.070748031 0 -0.21774012 ;
	setAttr ".pt[90]" -type "float3" 0.13457082 0 -0.18522082 ;
	setAttr ".pt[91]" -type "float3" 0.18522076 0 -0.13457085 ;
	setAttr ".pt[92]" -type "float3" 0.21774009 0 -0.070748121 ;
	setAttr ".pt[93]" -type "float3" 0.22894548 0 -4.5550951e-08 ;
	setAttr ".pt[94]" -type "float3" 0.21774009 0 0.070748009 ;
	setAttr ".pt[95]" -type "float3" 0.18522076 0 0.13457075 ;
	setAttr ".pt[96]" -type "float3" 0.13457084 0 0.18522076 ;
	setAttr ".pt[97]" -type "float3" 0.070748039 0 0.21774012 ;
	setAttr ".pt[98]" -type "float3" -1.8258516e-08 0 0.22894552 ;
	setAttr ".pt[99]" -type "float3" -0.070748076 0 0.21774012 ;
	setAttr ".pt[100]" -type "float3" -0.13457088 0 0.18522078 ;
	setAttr ".pt[101]" -type "float3" -0.18522087 0 0.13457081 ;
	setAttr ".pt[102]" -type "float3" -0.14161605 0.049502157 0.04601378 ;
	setAttr ".pt[103]" -type "float3" -0.14890377 0.049502157 -3.5501429e-08 ;
	setAttr ".pt[104]" -type "float3" -0.14161588 0.049502157 -0.046013836 ;
	setAttr ".pt[105]" -type "float3" -0.12046565 0.049502157 -0.08752349 ;
	setAttr ".pt[106]" -type "float3" -0.08752349 0.049502157 -0.1204657 ;
	setAttr ".pt[107]" -type "float3" -0.046013799 0.049502157 -0.14161596 ;
	setAttr ".pt[108]" -type "float3" -1.3313038e-08 0.049502157 -0.14890383 ;
	setAttr ".pt[109]" -type "float3" 0.046013787 0.049502157 -0.14161594 ;
	setAttr ".pt[110]" -type "float3" 0.087523475 0.049502157 -0.12046572 ;
	setAttr ".pt[111]" -type "float3" 0.12046565 0.049502157 -0.087523498 ;
	setAttr ".pt[112]" -type "float3" 0.14161588 0.049502157 -0.046013843 ;
	setAttr ".pt[113]" -type "float3" 0.14890377 0.049502157 -3.5501429e-08 ;
	setAttr ".pt[114]" -type "float3" 0.14161588 0.049502157 0.046013765 ;
	setAttr ".pt[115]" -type "float3" 0.12046565 0.049502157 0.087523416 ;
	setAttr ".pt[116]" -type "float3" 0.08752349 0.049502157 0.12046565 ;
	setAttr ".pt[117]" -type "float3" 0.046013795 0.049502157 0.14161594 ;
	setAttr ".pt[118]" -type "float3" -1.7750713e-08 0.049502157 0.14890383 ;
	setAttr ".pt[119]" -type "float3" -0.046013828 0.049502157 0.14161594 ;
	setAttr ".pt[120]" -type "float3" -0.087523542 0.049502157 0.12046568 ;
	setAttr ".pt[121]" -type "float3" -0.12046575 0.049502157 0.087523438 ;
	setAttr ".ai_translator" -type "string" "polymesh";
createNode transform -n "pCylinder2";
	rename -uid "EB5CA59E-44D9-0F09-3BBA-3395A5485945";
	setAttr ".t" -type "double3" 0 1.0175186598953578 0 ;
createNode mesh -n "pCylinderShape2" -p "pCylinder2";
	rename -uid "61D0656E-410F-6142-D11C-71B3859B050D";
	setAttr -k off ".v";
	setAttr ".vir" yes;
	setAttr ".vif" yes;
	setAttr ".pv" -type "double2" 0.49999988079071045 0.65871107578277588 ;
	setAttr ".uvst[0].uvsn" -type "string" "map1";
	setAttr -s 168 ".uvst[0].uvsp[0:167]" -type "float2" 0.64860266 0.10796607
		 0.62640899 0.064408496 0.59184152 0.029841021 0.54828393 0.0076473355 0.5 -7.4505806e-08
		 0.45171607 0.0076473504 0.40815851 0.029841051 0.37359107 0.064408526 0.3513974 0.1079661
		 0.34374997 0.15625 0.3513974 0.2045339 0.37359107 0.24809146 0.40815854 0.28265893
		 0.4517161 0.3048526 0.5 0.3125 0.54828387 0.3048526 0.59184146 0.28265893 0.62640893
		 0.24809146 0.6486026 0.2045339 0.65625 0.15625 0.375 0.3125 0.38749999 0.3125 0.39999998
		 0.3125 0.41249996 0.3125 0.42499995 0.3125 0.43749994 0.3125 0.44999993 0.3125 0.46249992
		 0.3125 0.4749999 0.3125 0.48749989 0.3125 0.49999988 0.3125 0.51249987 0.3125 0.52499986
		 0.3125 0.53749985 0.3125 0.54999983 0.3125 0.56249982 0.3125 0.57499981 0.3125 0.5874998
		 0.3125 0.59999979 0.3125 0.61249977 0.3125 0.62499976 0.3125 0.375 0.68843985 0.38749999
		 0.68843985 0.39999998 0.68843985 0.41249996 0.68843985 0.42499995 0.68843985 0.43749994
		 0.68843985 0.44999993 0.68843985 0.46249992 0.68843985 0.4749999 0.68843985 0.48749989
		 0.68843985 0.49999988 0.68843985 0.51249987 0.68843985 0.52499986 0.68843985 0.53749985
		 0.68843985 0.54999983 0.68843985 0.56249982 0.68843985 0.57499981 0.68843985 0.5874998
		 0.68843985 0.59999979 0.68843985 0.61249977 0.68843985 0.62499976 0.68843985 0.64860266
		 0.79546607 0.62640899 0.75190848 0.59184152 0.71734101 0.54828393 0.69514734 0.5
		 0.68749994 0.45171607 0.69514734 0.40815851 0.71734107 0.37359107 0.75190854 0.3513974
		 0.79546607 0.34374997 0.84375 0.3513974 0.89203393 0.37359107 0.93559146 0.40815854
		 0.97015893 0.4517161 0.9923526 0.5 1 0.54828387 0.9923526 0.59184146 0.97015893 0.62640893
		 0.93559146 0.6486026 0.89203393 0.65625 0.84375 0.5 0.15000001 0.5 0.83749998 0.62499976
		 0.5416376 0.375 0.5416376 0.38749999 0.5416376 0.39999998 0.5416376 0.41249996 0.5416376
		 0.42499995 0.5416376 0.43749994 0.5416376 0.44999993 0.5416376 0.46249992 0.5416376
		 0.4749999 0.5416376 0.48749989 0.5416376 0.49999988 0.5416376 0.51249987 0.5416376
		 0.52499986 0.5416376 0.53749985 0.5416376 0.54999983 0.5416376 0.56249982 0.5416376
		 0.57499981 0.5416376 0.5874998 0.5416376 0.59999979 0.5416376 0.61249977 0.5416376
		 0.62499976 0.61820012 0.375 0.61820012 0.61249977 0.61820012 0.59999979 0.61820012
		 0.5874998 0.61820012 0.57499981 0.61820012 0.56249982 0.61820012 0.54999983 0.61820012
		 0.53749985 0.61820012 0.52499986 0.61820012 0.51249987 0.61820012 0.49999988 0.61820012
		 0.48749989 0.61820012 0.4749999 0.61820012 0.46249992 0.61820012 0.44999993 0.61820012
		 0.43749994 0.61820012 0.42499995 0.61820012 0.41249996 0.61820012 0.39999998 0.61820012
		 0.38749999 0.61820012 0.62499976 0.65871108 0.375 0.65871108 0.61249977 0.65871108
		 0.59999979 0.65871108 0.5874998 0.65871108 0.57499981 0.65871108 0.56249982 0.65871108
		 0.54999983 0.65871108 0.53749985 0.65871108 0.52499986 0.65871108 0.51249987 0.65871108
		 0.49999988 0.65871108 0.48749989 0.65871108 0.4749999 0.65871108 0.46249992 0.65871108
		 0.44999993 0.65871108 0.43749994 0.65871108 0.42499995 0.65871108 0.41249996 0.65871108
		 0.39999998 0.65871108 0.38749999 0.65871108 0.62499976 0.67315769 0.375 0.67315769
		 0.61249977 0.67315769 0.59999979 0.67315769 0.5874998 0.67315769 0.57499981 0.67315769
		 0.56249982 0.67315769 0.54999983 0.67315769 0.53749985 0.67315769 0.52499986 0.67315769
		 0.51249987 0.67315769 0.49999988 0.67315769 0.48749989 0.67315769 0.4749999 0.67315769
		 0.46249992 0.67315769 0.44999993 0.67315769 0.43749994 0.67315769 0.42499995 0.67315769
		 0.41249996 0.67315769 0.39999998 0.67315769 0.38749999 0.67315769;
	setAttr ".cuvs" -type "string" "map1";
	setAttr ".dcc" -type "string" "Ambient+Diffuse";
	setAttr ".covm[0]"  0 1 1;
	setAttr ".cdvm[0]"  0 1 1;
	setAttr -s 101 ".pt";
	setAttr ".pt[0]" -type "float3" -0.77637058 0 0.25225785 ;
	setAttr ".pt[1]" -type "float3" -0.66042042 0 0.47982317 ;
	setAttr ".pt[2]" -type "float3" -0.47982329 0 0.66042006 ;
	setAttr ".pt[3]" -type "float3" -0.25225809 0 0.77637023 ;
	setAttr ".pt[4]" -type "float3" -9.7313375e-08 0 0.81632382 ;
	setAttr ".pt[5]" -type "float3" 0.25225788 0 0.77637011 ;
	setAttr ".pt[6]" -type "float3" 0.47982311 0 0.66041988 ;
	setAttr ".pt[7]" -type "float3" 0.66041988 0 0.47982308 ;
	setAttr ".pt[8]" -type "float3" 0.77636999 0 0.25225776 ;
	setAttr ".pt[9]" -type "float3" 0.81632382 0 -1.4597003e-07 ;
	setAttr ".pt[10]" -type "float3" 0.77636999 0 -0.25225806 ;
	setAttr ".pt[11]" -type "float3" 0.66041982 0 -0.47982311 ;
	setAttr ".pt[12]" -type "float3" 0.47982308 0 -0.66042006 ;
	setAttr ".pt[13]" -type "float3" 0.25225779 0 -0.77637023 ;
	setAttr ".pt[14]" -type "float3" -7.2985017e-08 0 -0.81632382 ;
	setAttr ".pt[15]" -type "float3" -0.25225791 0 -0.77637011 ;
	setAttr ".pt[16]" -type "float3" -0.47982311 0 -0.66042 ;
	setAttr ".pt[17]" -type "float3" -0.66041988 0 -0.47982323 ;
	setAttr ".pt[18]" -type "float3" -0.77636999 0 -0.252258 ;
	setAttr ".pt[19]" -type "float3" -0.81632382 0 -1.4597003e-07 ;
	setAttr ".pt[20]" -type "float3" -0.36533964 0.079189509 0.11870587 ;
	setAttr ".pt[21]" -type "float3" -0.31077623 0.079189509 0.22579205 ;
	setAttr ".pt[22]" -type "float3" -0.22579232 0.079189509 0.31077611 ;
	setAttr ".pt[23]" -type "float3" -0.11870595 0.079189509 0.36533925 ;
	setAttr ".pt[24]" -type "float3" -4.5793101e-08 0.079189509 0.38414052 ;
	setAttr ".pt[25]" -type "float3" 0.1187059 0.079189509 0.36533925 ;
	setAttr ".pt[26]" -type "float3" 0.22579223 0.079189509 0.31077605 ;
	setAttr ".pt[27]" -type "float3" 0.31077605 0.079189509 0.22579198 ;
	setAttr ".pt[28]" -type "float3" 0.36533919 0.079189509 0.1187058 ;
	setAttr ".pt[29]" -type "float3" 0.3841404 0.079189509 -9.1586216e-08 ;
	setAttr ".pt[30]" -type "float3" 0.36533919 0.079189509 -0.11870607 ;
	setAttr ".pt[31]" -type "float3" 0.31077605 0.079189509 -0.2257922 ;
	setAttr ".pt[32]" -type "float3" 0.2257922 0.079189509 -0.31077617 ;
	setAttr ".pt[33]" -type "float3" 0.1187059 0.079189509 -0.36533925 ;
	setAttr ".pt[34]" -type "float3" -3.4344833e-08 0.079189509 -0.38414052 ;
	setAttr ".pt[35]" -type "float3" -0.11870593 0.079189509 -0.36533934 ;
	setAttr ".pt[36]" -type "float3" -0.22579223 0.079189509 -0.31077611 ;
	setAttr ".pt[37]" -type "float3" -0.31077605 0.079189509 -0.2257922 ;
	setAttr ".pt[38]" -type "float3" -0.36533919 0.079189509 -0.11870599 ;
	setAttr ".pt[39]" -type "float3" -0.3841404 0.079189509 -9.1586216e-08 ;
	setAttr ".pt[41]" -type "float3" 0 0.16835919 0 ;
	setAttr ".pt[42]" -type "float3" -0.79705977 0.12297148 0.25898027 ;
	setAttr ".pt[43]" -type "float3" -0.6780197 0.12297148 0.49260983 ;
	setAttr ".pt[44]" -type "float3" -0.49261013 0.12297148 0.67801934 ;
	setAttr ".pt[45]" -type "float3" -0.25898051 0.12297148 0.79705954 ;
	setAttr ".pt[46]" -type "float3" -9.9906643e-08 0.12297148 0.83807814 ;
	setAttr ".pt[47]" -type "float3" 0.2589803 0.12297148 0.79705954 ;
	setAttr ".pt[48]" -type "float3" 0.49260977 0.12297148 0.67801917 ;
	setAttr ".pt[49]" -type "float3" 0.67801917 0.12297148 0.49260965 ;
	setAttr ".pt[50]" -type "float3" 0.79705954 0.12297148 0.25898018 ;
	setAttr ".pt[51]" -type "float3" 0.83807778 0.12297148 -1.4985991e-07 ;
	setAttr ".pt[52]" -type "float3" 0.79705954 0.12297148 -0.25898048 ;
	setAttr ".pt[53]" -type "float3" 0.67801911 0.12297148 -0.49260995 ;
	setAttr ".pt[54]" -type "float3" 0.49260965 0.12297148 -0.67801934 ;
	setAttr ".pt[55]" -type "float3" 0.25898021 0.12297148 -0.7970596 ;
	setAttr ".pt[56]" -type "float3" -7.4929957e-08 0.12297148 -0.83807814 ;
	setAttr ".pt[57]" -type "float3" -0.25898036 0.12297148 -0.79705954 ;
	setAttr ".pt[58]" -type "float3" -0.49260977 0.12297148 -0.67801929 ;
	setAttr ".pt[59]" -type "float3" -0.67801917 0.12297148 -0.49260989 ;
	setAttr ".pt[60]" -type "float3" -0.79705948 0.12297148 -0.25898042 ;
	setAttr ".pt[61]" -type "float3" -0.83807778 0.12297148 -1.4985991e-07 ;
	setAttr ".pt[82]" -type "float3" -0.21774028 0 0.070748031 ;
	setAttr ".pt[83]" -type "float3" -0.22894548 0 -4.5550951e-08 ;
	setAttr ".pt[84]" -type "float3" -0.21774007 0 -0.070748091 ;
	setAttr ".pt[85]" -type "float3" -0.18522076 0 -0.13457084 ;
	setAttr ".pt[86]" -type "float3" -0.13457082 0 -0.18522078 ;
	setAttr ".pt[87]" -type "float3" -0.070748039 0 -0.21774013 ;
	setAttr ".pt[88]" -type "float3" -1.1435414e-08 0 -0.22894552 ;
	setAttr ".pt[89]" -type "float3" 0.070748031 0 -0.21774012 ;
	setAttr ".pt[90]" -type "float3" 0.13457082 0 -0.18522082 ;
	setAttr ".pt[91]" -type "float3" 0.18522076 0 -0.13457085 ;
	setAttr ".pt[92]" -type "float3" 0.21774009 0 -0.070748121 ;
	setAttr ".pt[93]" -type "float3" 0.22894548 0 -4.5550951e-08 ;
	setAttr ".pt[94]" -type "float3" 0.21774009 0 0.070748009 ;
	setAttr ".pt[95]" -type "float3" 0.18522076 0 0.13457075 ;
	setAttr ".pt[96]" -type "float3" 0.13457084 0 0.18522076 ;
	setAttr ".pt[97]" -type "float3" 0.070748039 0 0.21774012 ;
	setAttr ".pt[98]" -type "float3" -1.8258516e-08 0 0.22894552 ;
	setAttr ".pt[99]" -type "float3" -0.070748076 0 0.21774012 ;
	setAttr ".pt[100]" -type "float3" -0.13457088 0 0.18522078 ;
	setAttr ".pt[101]" -type "float3" -0.18522087 0 0.13457081 ;
	setAttr ".pt[102]" -type "float3" -0.14161605 0.049502157 0.04601378 ;
	setAttr ".pt[103]" -type "float3" -0.14890377 0.049502157 -3.5501429e-08 ;
	setAttr ".pt[104]" -type "float3" -0.14161588 0.049502157 -0.046013836 ;
	setAttr ".pt[105]" -type "float3" -0.12046565 0.049502157 -0.08752349 ;
	setAttr ".pt[106]" -type "float3" -0.08752349 0.049502157 -0.1204657 ;
	setAttr ".pt[107]" -type "float3" -0.046013799 0.049502157 -0.14161596 ;
	setAttr ".pt[108]" -type "float3" -1.3313038e-08 0.049502157 -0.14890383 ;
	setAttr ".pt[109]" -type "float3" 0.046013787 0.049502157 -0.14161594 ;
	setAttr ".pt[110]" -type "float3" 0.087523475 0.049502157 -0.12046572 ;
	setAttr ".pt[111]" -type "float3" 0.12046565 0.049502157 -0.087523498 ;
	setAttr ".pt[112]" -type "float3" 0.14161588 0.049502157 -0.046013843 ;
	setAttr ".pt[113]" -type "float3" 0.14890377 0.049502157 -3.5501429e-08 ;
	setAttr ".pt[114]" -type "float3" 0.14161588 0.049502157 0.046013765 ;
	setAttr ".pt[115]" -type "float3" 0.12046565 0.049502157 0.087523416 ;
	setAttr ".pt[116]" -type "float3" 0.08752349 0.049502157 0.12046565 ;
	setAttr ".pt[117]" -type "float3" 0.046013795 0.049502157 0.14161594 ;
	setAttr ".pt[118]" -type "float3" -1.7750713e-08 0.049502157 0.14890383 ;
	setAttr ".pt[119]" -type "float3" -0.046013828 0.049502157 0.14161594 ;
	setAttr ".pt[120]" -type "float3" -0.087523542 0.049502157 0.12046568 ;
	setAttr ".pt[121]" -type "float3" -0.12046575 0.049502157 0.087523438 ;
	setAttr -s 122 ".vt[0:121]"  0.95105714 -1 -0.30901718 0.80901754 -1 -0.5877856
		 0.5877856 -1 -0.80901748 0.30901715 -1 -0.95105702 0 -1 -1.000000476837 -0.30901715 -1 -0.95105696
		 -0.58778548 -1 -0.8090173 -0.80901724 -1 -0.58778542 -0.95105678 -1 -0.30901706 -1.000000238419 -1 0
		 -0.95105678 -1 0.30901706 -0.80901718 -1 0.58778536 -0.58778536 -1 0.80901712 -0.30901706 -1 0.95105666
		 -2.9802322e-08 -1 1.000000119209 0.30901697 -1 0.9510566 0.58778524 -1 0.80901706
		 0.809017 -1 0.5877853 0.95105654 -1 0.309017 1 -1 0 0.91185212 1.017765641 -0.2962786
		 0.77566725 1.017765641 -0.56355536 0.5635556 1.017765641 -0.77566731 0.29627845 1.017765641 -0.9118517
		 -4.9141491e-09 1.017765641 -0.95877784 -0.29627851 1.017765641 -0.9118517 -0.5635556 1.017765641 -0.77566707
		 -0.77566695 1.017765641 -0.56355512 -0.91185129 1.017765641 -0.29627848 -0.95877737 1.017765641 -9.8282271e-09
		 -0.91185129 1.017765641 0.29627857 -0.77566695 1.017765641 0.56355518 -0.56355554 1.017765641 0.77566695
		 -0.29627851 1.017765641 0.91185123 -3.3487908e-08 1.017765641 0.95877737 0.29627836 1.017765641 0.91185147
		 0.56355536 1.017765641 0.77566683 0.77566671 1.017765641 0.56355518 0.91185105 1.017765641 0.29627845
		 0.95877713 1.017765641 -9.8282271e-09 0 -1 0 0 1 0 0.95105708 0.21901199 -0.30901718
		 0.80901754 0.21901199 -0.5877856 0.5877856 0.21901199 -0.80901748 0.30901715 0.21901199 -0.95105702
		 0 0.21901199 -1.000000476837 -0.30901715 0.21901199 -0.95105696 -0.58778548 0.21901199 -0.8090173
		 -0.80901724 0.21901199 -0.58778542 -0.95105684 0.21901199 -0.30901706 -1.000000238419 0.21901199 0
		 -0.95105684 0.21901199 0.30901706 -0.80901718 0.21901199 0.58778536 -0.58778536 0.21901199 0.80901712
		 -0.30901706 0.21901199 0.95105672 -2.9802322e-08 0.21901199 1.000000119209 0.30901697 0.21901199 0.9510566
		 0.58778524 0.21901199 0.80901706 0.809017 0.21901199 0.5877853 0.95105648 0.21901199 0.309017
		 1 0.21901199 0 1.43662369 0.53093374 -0.46678716 1.51055479 0.53093374 1.2172575e-07
		 1.43662286 0.53093374 0.46678722 1.22206438 0.53093374 0.88788199 0.88788176 0.53093374 1.2220645
		 0.4667871 0.53093374 1.43662298 1.5844822e-08 0.53093374 1.51055479 -0.46678707 0.53093374 1.43662322
		 -0.88788182 0.53093374 1.22206497 -1.2220645 0.53093374 0.88788211 -1.43662322 0.53093374 0.46678731
		 -1.51055503 0.53093374 1.2172575e-07 -1.43662322 0.53093374 -0.46678698 -1.22206461 0.53093374 -0.88788188
		 -0.88788199 0.53093374 -1.22206473 -0.46678722 0.53093374 -1.43662333 6.086286e-08 0.53093374 -1.51055527
		 0.46678737 0.53093374 -1.43662333 0.88788235 0.53093374 -1.22206497 1.22206533 0.53093374 -0.88788211
		 1.43662405 0.85648608 -0.46678716 1.51055467 0.85648608 1.2172576e-07 1.43662274 0.85648608 0.46678722
		 1.22206414 0.85648608 0.88788199 0.88788205 0.85648608 1.22206438 0.46678698 0.85648608 1.4366231
		 1.5844845e-08 0.85648608 1.51055503 -0.46678707 0.85648608 1.43662298 -0.88788211 0.85648608 1.22206461
		 -1.22206438 0.85648608 0.88788211 -1.43662298 0.85648608 0.46678734 -1.51055479 0.85648608 1.2172576e-07
		 -1.43662298 0.85648608 -0.46678701 -1.2220645 0.85648608 -0.88788188 -0.88788223 0.85648608 -1.2220645
		 -0.46678716 0.85648608 -1.43662333 6.0862845e-08 0.85648608 -1.51055539 0.46678722 0.85648608 -1.43662333
		 0.88788247 0.85648608 -1.22206473 1.22206497 0.85648608 -0.88788211 1.18161273 0.9348594 -0.38392904
		 1.24241996 0.9348594 5.7797493e-08 1.18161154 0.9348594 0.38392901 1.0051386356 0.9348594 0.73027635
		 0.73027647 0.9348594 1.0051388741 0.38392884 0.9348594 1.1816119 -8.128259e-09 0.9348594 1.24242032
		 -0.38392895 0.9348594 1.18161178 -0.73027658 0.9348594 1.0051389933 -1.0051388741 0.9348594 0.73027641
		 -1.18161178 0.9348594 0.38392913 -1.2424202 0.9348594 5.7797493e-08 -1.18161178 0.9348594 -0.38392889
		 -1.0051388741 0.9348594 -0.73027623 -0.7302767 0.9348594 -1.0051389933 -0.38392901 0.9348594 -1.18161213
		 2.8898711e-08 0.9348594 -1.24242079 0.38392901 0.9348594 -1.18161213 0.73027682 0.9348594 -1.0051392317
		 1.0051393509 0.9348594 -0.73027647;
	setAttr -s 260 ".ed";
	setAttr ".ed[0:165]"  0 1 0 1 2 0 2 3 0 3 4 0 4 5 0 5 6 0 6 7 0 7 8 0 8 9 0
		 9 10 0 10 11 0 11 12 0 12 13 0 13 14 0 14 15 0 15 16 0 16 17 0 17 18 0 18 19 0 19 0 0
		 20 21 0 21 22 0 22 23 0 23 24 0 24 25 0 25 26 0 26 27 0 27 28 0 28 29 0 29 30 0 30 31 0
		 31 32 0 32 33 0 33 34 0 34 35 0 35 36 0 36 37 0 37 38 0 38 39 0 39 20 0 0 42 1 1 43 1
		 2 44 1 3 45 1 4 46 1 5 47 1 6 48 1 7 49 1 8 50 1 9 51 1 10 52 1 11 53 1 12 54 1 13 55 1
		 14 56 1 15 57 1 16 58 1 17 59 1 18 60 1 19 61 1 40 0 1 40 1 1 40 2 1 40 3 1 40 4 1
		 40 5 1 40 6 1 40 7 1 40 8 1 40 9 1 40 10 1 40 11 1 40 12 1 40 13 1 40 14 1 40 15 1
		 40 16 1 40 17 1 40 18 1 40 19 1 20 41 1 21 41 1 22 41 1 23 41 1 24 41 1 25 41 1 26 41 1
		 27 41 1 28 41 1 29 41 1 30 41 1 31 41 1 32 41 1 33 41 1 34 41 1 35 41 1 36 41 1 37 41 1
		 38 41 1 39 41 1 42 62 1 43 81 1 44 80 1 45 79 1 46 78 1 47 77 1 48 76 1 49 75 1 50 74 1
		 51 73 1 52 72 1 53 71 1 54 70 1 55 69 1 56 68 1 57 67 1 58 66 1 59 65 1 60 64 1 61 63 1
		 42 43 1 43 44 1 44 45 1 45 46 1 46 47 1 47 48 1 48 49 1 49 50 1 50 51 1 51 52 1 52 53 1
		 53 54 1 54 55 1 55 56 1 56 57 1 57 58 1 58 59 1 59 60 1 60 61 1 61 42 1 62 82 1 63 83 1
		 64 84 1 65 85 1 66 86 1 67 87 1 68 88 1 69 89 1 70 90 1 71 91 1 72 92 1 73 93 1 74 94 1
		 75 95 1 76 96 1 77 97 1 78 98 1 79 99 1 80 100 1 81 101 1 62 63 1 63 64 1 64 65 1
		 65 66 1 66 67 1 67 68 1;
	setAttr ".ed[166:259]" 68 69 1 69 70 1 70 71 1 71 72 1 72 73 1 73 74 1 74 75 1
		 75 76 1 76 77 1 77 78 1 78 79 1 79 80 1 80 81 1 81 62 1 82 102 1 83 103 1 84 104 1
		 85 105 1 86 106 1 87 107 1 88 108 1 89 109 1 90 110 1 91 111 1 92 112 1 93 113 1
		 94 114 1 95 115 1 96 116 1 97 117 1 98 118 1 99 119 1 100 120 1 101 121 1 82 83 1
		 83 84 1 84 85 1 85 86 1 86 87 1 87 88 1 88 89 1 89 90 1 90 91 1 91 92 1 92 93 1 93 94 1
		 94 95 1 95 96 1 96 97 1 97 98 1 98 99 1 99 100 1 100 101 1 101 82 1 102 20 1 103 39 1
		 104 38 1 105 37 1 106 36 1 107 35 1 108 34 1 109 33 1 110 32 1 111 31 1 112 30 1
		 113 29 1 114 28 1 115 27 1 116 26 1 117 25 1 118 24 1 119 23 1 120 22 1 121 21 1
		 102 103 1 103 104 1 104 105 1 105 106 1 106 107 1 107 108 1 108 109 1 109 110 1 110 111 1
		 111 112 1 112 113 1 113 114 1 114 115 1 115 116 1 116 117 1 117 118 1 118 119 1 119 120 1
		 120 121 1 121 102 1;
	setAttr -s 140 -ch 520 ".fc[0:139]" -type "polyFaces" 
		f 4 120 101 179 -101
		mu 0 4 85 86 125 106
		f 4 121 102 178 -102
		mu 0 4 86 87 124 125
		f 4 122 103 177 -103
		mu 0 4 87 88 123 124
		f 4 123 104 176 -104
		mu 0 4 88 89 122 123
		f 4 124 105 175 -105
		mu 0 4 89 90 121 122
		f 4 125 106 174 -106
		mu 0 4 90 91 120 121
		f 4 126 107 173 -107
		mu 0 4 91 92 119 120
		f 4 127 108 172 -108
		mu 0 4 92 93 118 119
		f 4 128 109 171 -109
		mu 0 4 93 94 117 118
		f 4 129 110 170 -110
		mu 0 4 94 95 116 117
		f 4 130 111 169 -111
		mu 0 4 95 96 115 116
		f 4 131 112 168 -112
		mu 0 4 96 97 114 115
		f 4 132 113 167 -113
		mu 0 4 97 98 113 114
		f 4 133 114 166 -114
		mu 0 4 98 99 112 113
		f 4 134 115 165 -115
		mu 0 4 99 100 111 112
		f 4 135 116 164 -116
		mu 0 4 100 101 110 111
		f 4 136 117 163 -117
		mu 0 4 101 102 109 110
		f 4 137 118 162 -118
		mu 0 4 102 103 108 109
		f 4 138 119 161 -119
		mu 0 4 103 104 107 108
		f 4 139 100 160 -120
		mu 0 4 104 84 105 107
		f 3 -1 -61 61
		mu 0 3 1 0 82
		f 3 -2 -62 62
		mu 0 3 2 1 82
		f 3 -3 -63 63
		mu 0 3 3 2 82
		f 3 -4 -64 64
		mu 0 3 4 3 82
		f 3 -5 -65 65
		mu 0 3 5 4 82
		f 3 -6 -66 66
		mu 0 3 6 5 82
		f 3 -7 -67 67
		mu 0 3 7 6 82
		f 3 -8 -68 68
		mu 0 3 8 7 82
		f 3 -9 -69 69
		mu 0 3 9 8 82
		f 3 -10 -70 70
		mu 0 3 10 9 82
		f 3 -11 -71 71
		mu 0 3 11 10 82
		f 3 -12 -72 72
		mu 0 3 12 11 82
		f 3 -13 -73 73
		mu 0 3 13 12 82
		f 3 -14 -74 74
		mu 0 3 14 13 82
		f 3 -15 -75 75
		mu 0 3 15 14 82
		f 3 -16 -76 76
		mu 0 3 16 15 82
		f 3 -17 -77 77
		mu 0 3 17 16 82
		f 3 -18 -78 78
		mu 0 3 18 17 82
		f 3 -19 -79 79
		mu 0 3 19 18 82
		f 3 -20 -80 60
		mu 0 3 0 19 82
		f 3 20 81 -81
		mu 0 3 80 79 83
		f 3 21 82 -82
		mu 0 3 79 78 83
		f 3 22 83 -83
		mu 0 3 78 77 83
		f 3 23 84 -84
		mu 0 3 77 76 83
		f 3 24 85 -85
		mu 0 3 76 75 83
		f 3 25 86 -86
		mu 0 3 75 74 83
		f 3 26 87 -87
		mu 0 3 74 73 83
		f 3 27 88 -88
		mu 0 3 73 72 83
		f 3 28 89 -89
		mu 0 3 72 71 83
		f 3 29 90 -90
		mu 0 3 71 70 83
		f 3 30 91 -91
		mu 0 3 70 69 83
		f 3 31 92 -92
		mu 0 3 69 68 83
		f 3 32 93 -93
		mu 0 3 68 67 83
		f 3 33 94 -94
		mu 0 3 67 66 83
		f 3 34 95 -95
		mu 0 3 66 65 83
		f 3 35 96 -96
		mu 0 3 65 64 83
		f 3 36 97 -97
		mu 0 3 64 63 83
		f 3 37 98 -98
		mu 0 3 63 62 83
		f 3 38 99 -99
		mu 0 3 62 81 83
		f 3 39 80 -100
		mu 0 3 81 80 83
		f 4 0 41 -121 -41
		mu 0 4 20 21 86 85
		f 4 1 42 -122 -42
		mu 0 4 21 22 87 86
		f 4 2 43 -123 -43
		mu 0 4 22 23 88 87
		f 4 3 44 -124 -44
		mu 0 4 23 24 89 88
		f 4 4 45 -125 -45
		mu 0 4 24 25 90 89
		f 4 5 46 -126 -46
		mu 0 4 25 26 91 90
		f 4 6 47 -127 -47
		mu 0 4 26 27 92 91
		f 4 7 48 -128 -48
		mu 0 4 27 28 93 92
		f 4 8 49 -129 -49
		mu 0 4 28 29 94 93
		f 4 9 50 -130 -50
		mu 0 4 29 30 95 94
		f 4 10 51 -131 -51
		mu 0 4 30 31 96 95
		f 4 11 52 -132 -52
		mu 0 4 31 32 97 96
		f 4 12 53 -133 -53
		mu 0 4 32 33 98 97
		f 4 13 54 -134 -54
		mu 0 4 33 34 99 98
		f 4 14 55 -135 -55
		mu 0 4 34 35 100 99
		f 4 15 56 -136 -56
		mu 0 4 35 36 101 100
		f 4 16 57 -137 -57
		mu 0 4 36 37 102 101
		f 4 17 58 -138 -58
		mu 0 4 37 38 103 102
		f 4 18 59 -139 -59
		mu 0 4 38 39 104 103
		f 4 19 40 -140 -60
		mu 0 4 39 40 84 104
		f 4 -161 140 200 -142
		mu 0 4 107 105 126 128
		f 4 -162 141 201 -143
		mu 0 4 108 107 128 129
		f 4 -163 142 202 -144
		mu 0 4 109 108 129 130
		f 4 -164 143 203 -145
		mu 0 4 110 109 130 131
		f 4 -165 144 204 -146
		mu 0 4 111 110 131 132
		f 4 -166 145 205 -147
		mu 0 4 112 111 132 133
		f 4 -167 146 206 -148
		mu 0 4 113 112 133 134
		f 4 -168 147 207 -149
		mu 0 4 114 113 134 135
		f 4 -169 148 208 -150
		mu 0 4 115 114 135 136
		f 4 -170 149 209 -151
		mu 0 4 116 115 136 137
		f 4 -171 150 210 -152
		mu 0 4 117 116 137 138
		f 4 -172 151 211 -153
		mu 0 4 118 117 138 139
		f 4 -173 152 212 -154
		mu 0 4 119 118 139 140
		f 4 -174 153 213 -155
		mu 0 4 120 119 140 141
		f 4 -175 154 214 -156
		mu 0 4 121 120 141 142
		f 4 -176 155 215 -157
		mu 0 4 122 121 142 143
		f 4 -177 156 216 -158
		mu 0 4 123 122 143 144
		f 4 -178 157 217 -159
		mu 0 4 124 123 144 145
		f 4 -179 158 218 -160
		mu 0 4 125 124 145 146
		f 4 -180 159 219 -141
		mu 0 4 106 125 146 127
		f 4 -201 180 240 -182
		mu 0 4 128 126 147 149
		f 4 -202 181 241 -183
		mu 0 4 129 128 149 150
		f 4 -203 182 242 -184
		mu 0 4 130 129 150 151
		f 4 -204 183 243 -185
		mu 0 4 131 130 151 152
		f 4 -205 184 244 -186
		mu 0 4 132 131 152 153
		f 4 -206 185 245 -187
		mu 0 4 133 132 153 154
		f 4 -207 186 246 -188
		mu 0 4 134 133 154 155
		f 4 -208 187 247 -189
		mu 0 4 135 134 155 156
		f 4 -209 188 248 -190
		mu 0 4 136 135 156 157
		f 4 -210 189 249 -191
		mu 0 4 137 136 157 158
		f 4 -211 190 250 -192
		mu 0 4 138 137 158 159
		f 4 -212 191 251 -193
		mu 0 4 139 138 159 160
		f 4 -213 192 252 -194
		mu 0 4 140 139 160 161
		f 4 -214 193 253 -195
		mu 0 4 141 140 161 162
		f 4 -215 194 254 -196
		mu 0 4 142 141 162 163
		f 4 -216 195 255 -197
		mu 0 4 143 142 163 164
		f 4 -217 196 256 -198
		mu 0 4 144 143 164 165
		f 4 -218 197 257 -199
		mu 0 4 145 144 165 166
		f 4 -219 198 258 -200
		mu 0 4 146 145 166 167
		f 4 -220 199 259 -181
		mu 0 4 127 146 167 148
		f 4 -241 220 -40 -222
		mu 0 4 149 147 61 60
		f 4 -242 221 -39 -223
		mu 0 4 150 149 60 59
		f 4 -243 222 -38 -224
		mu 0 4 151 150 59 58
		f 4 -244 223 -37 -225
		mu 0 4 152 151 58 57
		f 4 -245 224 -36 -226
		mu 0 4 153 152 57 56
		f 4 -246 225 -35 -227
		mu 0 4 154 153 56 55
		f 4 -247 226 -34 -228
		mu 0 4 155 154 55 54
		f 4 -248 227 -33 -229
		mu 0 4 156 155 54 53
		f 4 -249 228 -32 -230
		mu 0 4 157 156 53 52
		f 4 -250 229 -31 -231
		mu 0 4 158 157 52 51
		f 4 -251 230 -30 -232
		mu 0 4 159 158 51 50
		f 4 -252 231 -29 -233
		mu 0 4 160 159 50 49
		f 4 -253 232 -28 -234
		mu 0 4 161 160 49 48
		f 4 -254 233 -27 -235
		mu 0 4 162 161 48 47
		f 4 -255 234 -26 -236
		mu 0 4 163 162 47 46
		f 4 -256 235 -25 -237
		mu 0 4 164 163 46 45
		f 4 -257 236 -24 -238
		mu 0 4 165 164 45 44
		f 4 -258 237 -23 -239
		mu 0 4 166 165 44 43
		f 4 -259 238 -22 -240
		mu 0 4 167 166 43 42
		f 4 -260 239 -21 -221
		mu 0 4 148 167 42 41;
	setAttr ".cd" -type "dataPolyComponent" Index_Data Edge 0 ;
	setAttr ".cvd" -type "dataPolyComponent" Index_Data Vertex 0 ;
	setAttr ".pd[0]" -type "dataPolyComponent" Index_Data UV 0 ;
	setAttr ".hfd" -type "dataPolyComponent" Index_Data Face 0 ;
	setAttr ".ai_translator" -type "string" "polymesh";
createNode lightLinker -s -n "lightLinker1";
	rename -uid "4E777B87-432F-FB0C-B40F-F6BE7FA6CC12";
	setAttr -s 2 ".lnk";
	setAttr -s 2 ".slnk";
createNode shapeEditorManager -n "shapeEditorManager";
	rename -uid "C95AEC74-4617-AEB8-E5B5-81B428AA2167";
createNode poseInterpolatorManager -n "poseInterpolatorManager";
	rename -uid "4058E602-49E5-26CF-C5A4-07B607FA40B3";
createNode displayLayerManager -n "layerManager";
	rename -uid "B4E50E50-4E09-A3B6-76A5-8999EDDB2445";
createNode displayLayer -n "defaultLayer";
	rename -uid "B3F2E9FB-4325-0CD0-FF2E-4DAF109F118D";
createNode renderLayerManager -n "renderLayerManager";
	rename -uid "5E4249E0-4303-42B8-4B93-5893B3580DAD";
createNode renderLayer -n "defaultRenderLayer";
	rename -uid "35778F7C-4FCA-F428-EC59-83873156509F";
	setAttr ".g" yes;
createNode polyCylinder -n "polyCylinder1";
	rename -uid "4D333297-443A-3340-C36B-F9A492AE9A13";
	setAttr ".sc" 1;
	setAttr ".cuv" 3;
createNode polySplit -n "polySplit1";
	rename -uid "748AD358-4A80-3444-0F87-C08858568942";
	setAttr -s 21 ".e[0:20]"  0.60950601 0.60950601 0.60950601 0.60950601
		 0.60950601 0.60950601 0.60950601 0.60950601 0.60950601 0.60950601 0.60950601 0.60950601
		 0.60950601 0.60950601 0.60950601 0.60950601 0.60950601 0.60950601 0.60950601 0.60950601
		 0.60950601;
	setAttr -s 21 ".d[0:20]"  -2147483608 -2147483607 -2147483606 -2147483605 -2147483604 -2147483603 
		-2147483602 -2147483601 -2147483600 -2147483599 -2147483598 -2147483597 -2147483596 -2147483595 -2147483594 -2147483593 -2147483592 -2147483591 
		-2147483590 -2147483589 -2147483608;
	setAttr ".sma" 180;
	setAttr ".m2015" yes;
createNode polySplit -n "polySplit2";
	rename -uid "5C74D5C8-4585-468E-FD02-DDA80F6FD829";
	setAttr -s 21 ".e[0:20]"  0.52153498 0.52153498 0.52153498 0.52153498
		 0.52153498 0.52153498 0.52153498 0.52153498 0.52153498 0.52153498 0.52153498 0.52153498
		 0.52153498 0.52153498 0.52153498 0.52153498 0.52153498 0.52153498 0.52153498 0.52153498
		 0.52153498;
	setAttr -s 21 ".d[0:20]"  -2147483548 -2147483529 -2147483530 -2147483531 -2147483532 -2147483533 
		-2147483534 -2147483535 -2147483536 -2147483537 -2147483538 -2147483539 -2147483540 -2147483541 -2147483542 -2147483543 -2147483544 -2147483545 
		-2147483546 -2147483547 -2147483548;
	setAttr ".sma" 180;
	setAttr ".m2015" yes;
createNode polyTweak -n "polyTweak1";
	rename -uid "32377384-42FE-2EE0-231F-2C8DF0ACCCD0";
	setAttr ".uopa" yes;
	setAttr -s 61 ".tk";
	setAttr ".tk[20]" -type "float3" 0.48556721 0.095390841 -0.15777001 ;
	setAttr ".tk[21]" -type "float3" 0.41304722 0.095390841 -0.30009645 ;
	setAttr ".tk[22]" -type "float3" 0.30009699 0.095390841 -0.41304725 ;
	setAttr ".tk[23]" -type "float3" 0.15776998 0.095390841 -0.48556632 ;
	setAttr ".tk[24]" -type "float3" 6.0862838e-08 0.095390841 -0.51055509 ;
	setAttr ".tk[25]" -type "float3" -0.15776995 0.095390841 -0.48556644 ;
	setAttr ".tk[26]" -type "float3" -0.30009696 0.095390841 -0.41304708 ;
	setAttr ".tk[27]" -type "float3" -0.41304699 0.095390841 -0.30009639 ;
	setAttr ".tk[28]" -type "float3" -0.48556614 0.095390841 -0.15776995 ;
	setAttr ".tk[29]" -type "float3" -0.51055461 0.095390841 1.2172578e-07 ;
	setAttr ".tk[30]" -type "float3" -0.48556614 0.095390841 0.15777029 ;
	setAttr ".tk[31]" -type "float3" -0.41304705 0.095390841 0.30009669 ;
	setAttr ".tk[32]" -type "float3" -0.30009705 0.095390841 0.41304725 ;
	setAttr ".tk[33]" -type "float3" -0.15777004 0.095390841 0.48556626 ;
	setAttr ".tk[34]" -type "float3" 4.5647184e-08 0.095390841 0.51055485 ;
	setAttr ".tk[35]" -type "float3" 0.15776998 0.095390841 0.48556665 ;
	setAttr ".tk[36]" -type "float3" 0.30009696 0.095390841 0.41304713 ;
	setAttr ".tk[37]" -type "float3" 0.41304699 0.095390841 0.30009675 ;
	setAttr ".tk[38]" -type "float3" 0.48556614 0.095390841 0.15777014 ;
	setAttr ".tk[39]" -type "float3" 0.51055461 0.095390841 1.2172578e-07 ;
	setAttr ".tk[42]" -type "float3" 0 -2.9802322e-08 0 ;
	setAttr ".tk[43]" -type "float3" 0 -2.9802322e-08 0 ;
	setAttr ".tk[44]" -type "float3" 0 -2.9802322e-08 0 ;
	setAttr ".tk[45]" -type "float3" 0 -2.9802322e-08 0 ;
	setAttr ".tk[46]" -type "float3" 0 -2.9802322e-08 0 ;
	setAttr ".tk[47]" -type "float3" 0 -2.9802322e-08 0 ;
	setAttr ".tk[48]" -type "float3" 0 -2.9802322e-08 0 ;
	setAttr ".tk[49]" -type "float3" 0 -2.9802322e-08 0 ;
	setAttr ".tk[50]" -type "float3" 0 -2.9802322e-08 0 ;
	setAttr ".tk[51]" -type "float3" 0 -2.9802322e-08 0 ;
	setAttr ".tk[52]" -type "float3" 0 -2.9802322e-08 0 ;
	setAttr ".tk[53]" -type "float3" 0 -2.9802322e-08 0 ;
	setAttr ".tk[54]" -type "float3" 0 -2.9802322e-08 0 ;
	setAttr ".tk[55]" -type "float3" 0 -2.9802322e-08 0 ;
	setAttr ".tk[56]" -type "float3" 0 -2.9802322e-08 0 ;
	setAttr ".tk[57]" -type "float3" 0 -2.9802322e-08 0 ;
	setAttr ".tk[58]" -type "float3" 0 -2.9802322e-08 0 ;
	setAttr ".tk[59]" -type "float3" 0 -2.9802322e-08 0 ;
	setAttr ".tk[60]" -type "float3" 0 -2.9802322e-08 0 ;
	setAttr ".tk[61]" -type "float3" 0 -2.9802322e-08 0 ;
	setAttr ".tk[62]" -type "float3" 0.48556665 -0.095390856 -0.15776999 ;
	setAttr ".tk[63]" -type "float3" 0.51055473 -0.095390856 1.2172575e-07 ;
	setAttr ".tk[64]" -type "float3" 0.48556638 -0.095390856 0.15777023 ;
	setAttr ".tk[65]" -type "float3" 0.41304737 -0.095390856 0.30009669 ;
	setAttr ".tk[66]" -type "float3" 0.30009651 -0.095390856 0.41304749 ;
	setAttr ".tk[67]" -type "float3" 0.15777013 -0.095390856 0.48556641 ;
	setAttr ".tk[68]" -type "float3" 4.5647145e-08 -0.095390856 0.51055473 ;
	setAttr ".tk[69]" -type "float3" -0.15777001 -0.095390856 0.48556653 ;
	setAttr ".tk[70]" -type "float3" -0.30009645 -0.095390856 0.41304779 ;
	setAttr ".tk[71]" -type "float3" -0.41304734 -0.095390856 0.30009678 ;
	setAttr ".tk[72]" -type "float3" -0.48556638 -0.095390856 0.15777025 ;
	setAttr ".tk[73]" -type "float3" -0.51055473 -0.095390856 1.2172575e-07 ;
	setAttr ".tk[74]" -type "float3" -0.48556638 -0.095390856 -0.15776992 ;
	setAttr ".tk[75]" -type "float3" -0.41304737 -0.095390856 -0.30009642 ;
	setAttr ".tk[76]" -type "float3" -0.30009651 -0.095390856 -0.41304737 ;
	setAttr ".tk[77]" -type "float3" -0.15777005 -0.095390856 -0.48556638 ;
	setAttr ".tk[78]" -type "float3" 6.086286e-08 -0.095390856 -0.51055473 ;
	setAttr ".tk[79]" -type "float3" 0.15777022 -0.095390856 -0.48556638 ;
	setAttr ".tk[80]" -type "float3" 0.30009675 -0.095390856 -0.41304755 ;
	setAttr ".tk[81]" -type "float3" 0.41304782 -0.095390856 -0.30009651 ;
createNode polySplit -n "polySplit3";
	rename -uid "6CF4D42F-48F4-544B-9851-96B3C388A9CF";
	setAttr -s 21 ".e[0:20]"  0.57675302 0.57675302 0.57675302 0.57675302
		 0.57675302 0.57675302 0.57675302 0.57675302 0.57675302 0.57675302 0.57675302 0.57675302
		 0.57675302 0.57675302 0.57675302 0.57675302 0.57675302 0.57675302 0.57675302 0.57675302
		 0.57675302;
	setAttr -s 21 ".d[0:20]"  -2147483508 -2147483507 -2147483506 -2147483505 -2147483504 -2147483503 
		-2147483502 -2147483501 -2147483500 -2147483499 -2147483498 -2147483497 -2147483496 -2147483495 -2147483494 -2147483493 -2147483492 -2147483491 
		-2147483490 -2147483489 -2147483508;
	setAttr ".sma" 180;
	setAttr ".m2015" yes;
createNode polyTweak -n "polyTweak2";
	rename -uid "81F4EBE4-454A-701D-377D-07975BB41345";
	setAttr ".uopa" yes;
	setAttr -s 20 ".tk[20:39]" -type "float3"  -0.52477217 -0.077625141 0.17050858
		 -0.44639748 -0.077625141 0.32432672 -0.32432696 -0.077625141 0.44639742 -0.17050868
		 -0.077625141 0.52477163 -6.5776987e-08 -0.077625141 0.55177766 0.17050859 -0.077625141
		 0.52477163 0.3243269 -0.077625141 0.4463973 0.4463973 -0.077625141 0.32432666 0.52477157
		 -0.077625141 0.17050853 0.55177742 -0.077625141 -1.31554e-07 0.52477157 -0.077625141
		 -0.17050877 0.4463973 -0.077625141 -0.32432687 0.32432687 -0.077625141 -0.44639745
		 0.17050859 -0.077625141 -0.52477163 -4.9332769e-08 -0.077625141 -0.55177766 -0.17050861
		 -0.077625141 -0.52477175 -0.3243269 -0.077625141 -0.44639742 -0.4463973 -0.077625141
		 -0.32432687 -0.52477157 -0.077625141 -0.17050871 -0.55177742 -0.077625141 -1.31554e-07;
createNode polySplit -n "polySplit4";
	rename -uid "6AF9111B-46FB-A56D-88D5-0CBC1C7FDC35";
	setAttr -s 21 ".e[0:20]"  0.48594701 0.48594701 0.48594701 0.48594701
		 0.48594701 0.48594701 0.48594701 0.48594701 0.48594701 0.48594701 0.48594701 0.48594701
		 0.48594701 0.48594701 0.48594701 0.48594701 0.48594701 0.48594701 0.48594701 0.48594701
		 0.48594701;
	setAttr -s 21 ".d[0:20]"  -2147483468 -2147483467 -2147483466 -2147483465 -2147483464 -2147483463 
		-2147483462 -2147483461 -2147483460 -2147483459 -2147483458 -2147483457 -2147483456 -2147483455 -2147483454 -2147483453 -2147483452 -2147483451 
		-2147483450 -2147483449 -2147483468;
	setAttr ".sma" 180;
	setAttr ".m2015" yes;
createNode script -n "uiConfigurationScriptNode";
	rename -uid "78DA06AD-4723-C533-7D0D-D0873161247D";
	setAttr ".b" -type "string" (
		"// Maya Mel UI Configuration File.\n//\n//  This script is machine generated.  Edit at your own risk.\n//\n//\n\nglobal string $gMainPane;\nif (`paneLayout -exists $gMainPane`) {\n\n\tglobal int $gUseScenePanelConfig;\n\tint    $useSceneConfig = $gUseScenePanelConfig;\n\tint    $nodeEditorPanelVisible = stringArrayContains(\"nodeEditorPanel1\", `getPanel -vis`);\n\tint    $nodeEditorWorkspaceControlOpen = (`workspaceControl -exists nodeEditorPanel1Window` && `workspaceControl -q -visible nodeEditorPanel1Window`);\n\tint    $menusOkayInPanels = `optionVar -q allowMenusInPanels`;\n\tint    $nVisPanes = `paneLayout -q -nvp $gMainPane`;\n\tint    $nPanes = 0;\n\tstring $editorName;\n\tstring $panelName;\n\tstring $itemFilterName;\n\tstring $panelConfig;\n\n\t//\n\t//  get current state of the UI\n\t//\n\tsceneUIReplacement -update $gMainPane;\n\n\t$panelName = `sceneUIReplacement -getNextPanel \"modelPanel\" (localizedPanelLabel(\"Top View\")) `;\n\tif (\"\" != $panelName) {\n\t\t$label = `panel -q -label $panelName`;\n\t\tmodelPanel -edit -l (localizedPanelLabel(\"Top View\")) -mbv $menusOkayInPanels  $panelName;\n"
		+ "\t\t$editorName = $panelName;\n        modelEditor -e \n            -camera \"top\" \n            -useInteractiveMode 0\n            -displayLights \"default\" \n            -displayAppearance \"smoothShaded\" \n            -activeOnly 0\n            -ignorePanZoom 0\n            -wireframeOnShaded 0\n            -headsUpDisplay 1\n            -holdOuts 1\n            -selectionHiliteDisplay 1\n            -useDefaultMaterial 0\n            -bufferMode \"double\" \n            -twoSidedLighting 0\n            -backfaceCulling 0\n            -xray 0\n            -jointXray 0\n            -activeComponentsXray 0\n            -displayTextures 0\n            -smoothWireframe 0\n            -lineWidth 1\n            -textureAnisotropic 0\n            -textureHilight 1\n            -textureSampling 2\n            -textureDisplay \"modulate\" \n            -textureMaxSize 32768\n            -fogging 0\n            -fogSource \"fragment\" \n            -fogMode \"linear\" \n            -fogStart 0\n            -fogEnd 100\n            -fogDensity 0.1\n            -fogColor 0.5 0.5 0.5 1 \n"
		+ "            -depthOfFieldPreview 1\n            -maxConstantTransparency 1\n            -rendererName \"vp2Renderer\" \n            -objectFilterShowInHUD 1\n            -isFiltered 0\n            -colorResolution 256 256 \n            -bumpResolution 512 512 \n            -textureCompression 0\n            -transparencyAlgorithm \"frontAndBackCull\" \n            -transpInShadows 0\n            -cullingOverride \"none\" \n            -lowQualityLighting 0\n            -maximumNumHardwareLights 1\n            -occlusionCulling 0\n            -shadingModel 0\n            -useBaseRenderer 0\n            -useReducedRenderer 0\n            -smallObjectCulling 0\n            -smallObjectThreshold -1 \n            -interactiveDisableShadows 0\n            -interactiveBackFaceCull 0\n            -sortTransparent 1\n            -controllers 1\n            -nurbsCurves 1\n            -nurbsSurfaces 1\n            -polymeshes 1\n            -subdivSurfaces 1\n            -planes 1\n            -lights 1\n            -cameras 1\n            -controlVertices 1\n"
		+ "            -hulls 1\n            -grid 1\n            -imagePlane 1\n            -joints 1\n            -ikHandles 1\n            -deformers 1\n            -dynamics 1\n            -particleInstancers 1\n            -fluids 1\n            -hairSystems 1\n            -follicles 1\n            -nCloths 1\n            -nParticles 1\n            -nRigids 1\n            -dynamicConstraints 1\n            -locators 1\n            -manipulators 1\n            -pluginShapes 1\n            -dimensions 1\n            -handles 1\n            -pivots 1\n            -textures 1\n            -strokes 1\n            -motionTrails 1\n            -clipGhosts 1\n            -greasePencils 1\n            -shadows 0\n            -captureSequenceNumber -1\n            -width 1\n            -height 1\n            -sceneRenderFilter 0\n            $editorName;\n        modelEditor -e -viewSelected 0 $editorName;\n        modelEditor -e \n            -pluginObjects \"gpuCacheDisplayFilter\" 1 \n            $editorName;\n\t\tif (!$useSceneConfig) {\n\t\t\tpanel -e -l $label $panelName;\n"
		+ "\t\t}\n\t}\n\n\n\t$panelName = `sceneUIReplacement -getNextPanel \"modelPanel\" (localizedPanelLabel(\"Side View\")) `;\n\tif (\"\" != $panelName) {\n\t\t$label = `panel -q -label $panelName`;\n\t\tmodelPanel -edit -l (localizedPanelLabel(\"Side View\")) -mbv $menusOkayInPanels  $panelName;\n\t\t$editorName = $panelName;\n        modelEditor -e \n            -camera \"side\" \n            -useInteractiveMode 0\n            -displayLights \"default\" \n            -displayAppearance \"smoothShaded\" \n            -activeOnly 0\n            -ignorePanZoom 0\n            -wireframeOnShaded 0\n            -headsUpDisplay 1\n            -holdOuts 1\n            -selectionHiliteDisplay 1\n            -useDefaultMaterial 0\n            -bufferMode \"double\" \n            -twoSidedLighting 0\n            -backfaceCulling 0\n            -xray 0\n            -jointXray 0\n            -activeComponentsXray 0\n            -displayTextures 0\n            -smoothWireframe 0\n            -lineWidth 1\n            -textureAnisotropic 0\n            -textureHilight 1\n            -textureSampling 2\n"
		+ "            -textureDisplay \"modulate\" \n            -textureMaxSize 32768\n            -fogging 0\n            -fogSource \"fragment\" \n            -fogMode \"linear\" \n            -fogStart 0\n            -fogEnd 100\n            -fogDensity 0.1\n            -fogColor 0.5 0.5 0.5 1 \n            -depthOfFieldPreview 1\n            -maxConstantTransparency 1\n            -rendererName \"vp2Renderer\" \n            -objectFilterShowInHUD 1\n            -isFiltered 0\n            -colorResolution 256 256 \n            -bumpResolution 512 512 \n            -textureCompression 0\n            -transparencyAlgorithm \"frontAndBackCull\" \n            -transpInShadows 0\n            -cullingOverride \"none\" \n            -lowQualityLighting 0\n            -maximumNumHardwareLights 1\n            -occlusionCulling 0\n            -shadingModel 0\n            -useBaseRenderer 0\n            -useReducedRenderer 0\n            -smallObjectCulling 0\n            -smallObjectThreshold -1 \n            -interactiveDisableShadows 0\n            -interactiveBackFaceCull 0\n"
		+ "            -sortTransparent 1\n            -controllers 1\n            -nurbsCurves 1\n            -nurbsSurfaces 1\n            -polymeshes 1\n            -subdivSurfaces 1\n            -planes 1\n            -lights 1\n            -cameras 1\n            -controlVertices 1\n            -hulls 1\n            -grid 1\n            -imagePlane 1\n            -joints 1\n            -ikHandles 1\n            -deformers 1\n            -dynamics 1\n            -particleInstancers 1\n            -fluids 1\n            -hairSystems 1\n            -follicles 1\n            -nCloths 1\n            -nParticles 1\n            -nRigids 1\n            -dynamicConstraints 1\n            -locators 1\n            -manipulators 1\n            -pluginShapes 1\n            -dimensions 1\n            -handles 1\n            -pivots 1\n            -textures 1\n            -strokes 1\n            -motionTrails 1\n            -clipGhosts 1\n            -greasePencils 1\n            -shadows 0\n            -captureSequenceNumber -1\n            -width 1\n            -height 1\n"
		+ "            -sceneRenderFilter 0\n            $editorName;\n        modelEditor -e -viewSelected 0 $editorName;\n        modelEditor -e \n            -pluginObjects \"gpuCacheDisplayFilter\" 1 \n            $editorName;\n\t\tif (!$useSceneConfig) {\n\t\t\tpanel -e -l $label $panelName;\n\t\t}\n\t}\n\n\n\t$panelName = `sceneUIReplacement -getNextPanel \"modelPanel\" (localizedPanelLabel(\"Front View\")) `;\n\tif (\"\" != $panelName) {\n\t\t$label = `panel -q -label $panelName`;\n\t\tmodelPanel -edit -l (localizedPanelLabel(\"Front View\")) -mbv $menusOkayInPanels  $panelName;\n\t\t$editorName = $panelName;\n        modelEditor -e \n            -camera \"front\" \n            -useInteractiveMode 0\n            -displayLights \"default\" \n            -displayAppearance \"smoothShaded\" \n            -activeOnly 0\n            -ignorePanZoom 0\n            -wireframeOnShaded 0\n            -headsUpDisplay 1\n            -holdOuts 1\n            -selectionHiliteDisplay 1\n            -useDefaultMaterial 0\n            -bufferMode \"double\" \n            -twoSidedLighting 0\n            -backfaceCulling 0\n"
		+ "            -xray 0\n            -jointXray 0\n            -activeComponentsXray 0\n            -displayTextures 0\n            -smoothWireframe 0\n            -lineWidth 1\n            -textureAnisotropic 0\n            -textureHilight 1\n            -textureSampling 2\n            -textureDisplay \"modulate\" \n            -textureMaxSize 32768\n            -fogging 0\n            -fogSource \"fragment\" \n            -fogMode \"linear\" \n            -fogStart 0\n            -fogEnd 100\n            -fogDensity 0.1\n            -fogColor 0.5 0.5 0.5 1 \n            -depthOfFieldPreview 1\n            -maxConstantTransparency 1\n            -rendererName \"vp2Renderer\" \n            -objectFilterShowInHUD 1\n            -isFiltered 0\n            -colorResolution 256 256 \n            -bumpResolution 512 512 \n            -textureCompression 0\n            -transparencyAlgorithm \"frontAndBackCull\" \n            -transpInShadows 0\n            -cullingOverride \"none\" \n            -lowQualityLighting 0\n            -maximumNumHardwareLights 1\n            -occlusionCulling 0\n"
		+ "            -shadingModel 0\n            -useBaseRenderer 0\n            -useReducedRenderer 0\n            -smallObjectCulling 0\n            -smallObjectThreshold -1 \n            -interactiveDisableShadows 0\n            -interactiveBackFaceCull 0\n            -sortTransparent 1\n            -controllers 1\n            -nurbsCurves 1\n            -nurbsSurfaces 1\n            -polymeshes 1\n            -subdivSurfaces 1\n            -planes 1\n            -lights 1\n            -cameras 1\n            -controlVertices 1\n            -hulls 1\n            -grid 1\n            -imagePlane 1\n            -joints 1\n            -ikHandles 1\n            -deformers 1\n            -dynamics 1\n            -particleInstancers 1\n            -fluids 1\n            -hairSystems 1\n            -follicles 1\n            -nCloths 1\n            -nParticles 1\n            -nRigids 1\n            -dynamicConstraints 1\n            -locators 1\n            -manipulators 1\n            -pluginShapes 1\n            -dimensions 1\n            -handles 1\n            -pivots 1\n"
		+ "            -textures 1\n            -strokes 1\n            -motionTrails 1\n            -clipGhosts 1\n            -greasePencils 1\n            -shadows 0\n            -captureSequenceNumber -1\n            -width 1\n            -height 1\n            -sceneRenderFilter 0\n            $editorName;\n        modelEditor -e -viewSelected 0 $editorName;\n        modelEditor -e \n            -pluginObjects \"gpuCacheDisplayFilter\" 1 \n            $editorName;\n\t\tif (!$useSceneConfig) {\n\t\t\tpanel -e -l $label $panelName;\n\t\t}\n\t}\n\n\n\t$panelName = `sceneUIReplacement -getNextPanel \"modelPanel\" (localizedPanelLabel(\"Persp View\")) `;\n\tif (\"\" != $panelName) {\n\t\t$label = `panel -q -label $panelName`;\n\t\tmodelPanel -edit -l (localizedPanelLabel(\"Persp View\")) -mbv $menusOkayInPanels  $panelName;\n\t\t$editorName = $panelName;\n        modelEditor -e \n            -camera \"persp\" \n            -useInteractiveMode 0\n            -displayLights \"default\" \n            -displayAppearance \"smoothShaded\" \n            -activeOnly 0\n            -ignorePanZoom 0\n"
		+ "            -wireframeOnShaded 0\n            -headsUpDisplay 1\n            -holdOuts 1\n            -selectionHiliteDisplay 1\n            -useDefaultMaterial 0\n            -bufferMode \"double\" \n            -twoSidedLighting 0\n            -backfaceCulling 0\n            -xray 0\n            -jointXray 0\n            -activeComponentsXray 0\n            -displayTextures 0\n            -smoothWireframe 0\n            -lineWidth 1\n            -textureAnisotropic 0\n            -textureHilight 1\n            -textureSampling 2\n            -textureDisplay \"modulate\" \n            -textureMaxSize 32768\n            -fogging 0\n            -fogSource \"fragment\" \n            -fogMode \"linear\" \n            -fogStart 0\n            -fogEnd 100\n            -fogDensity 0.1\n            -fogColor 0.5 0.5 0.5 1 \n            -depthOfFieldPreview 1\n            -maxConstantTransparency 1\n            -rendererName \"vp2Renderer\" \n            -objectFilterShowInHUD 1\n            -isFiltered 0\n            -colorResolution 256 256 \n            -bumpResolution 512 512 \n"
		+ "            -textureCompression 0\n            -transparencyAlgorithm \"frontAndBackCull\" \n            -transpInShadows 0\n            -cullingOverride \"none\" \n            -lowQualityLighting 0\n            -maximumNumHardwareLights 1\n            -occlusionCulling 0\n            -shadingModel 0\n            -useBaseRenderer 0\n            -useReducedRenderer 0\n            -smallObjectCulling 0\n            -smallObjectThreshold -1 \n            -interactiveDisableShadows 0\n            -interactiveBackFaceCull 0\n            -sortTransparent 1\n            -controllers 1\n            -nurbsCurves 1\n            -nurbsSurfaces 1\n            -polymeshes 1\n            -subdivSurfaces 1\n            -planes 1\n            -lights 1\n            -cameras 1\n            -controlVertices 1\n            -hulls 1\n            -grid 1\n            -imagePlane 1\n            -joints 1\n            -ikHandles 1\n            -deformers 1\n            -dynamics 1\n            -particleInstancers 1\n            -fluids 1\n            -hairSystems 1\n            -follicles 1\n"
		+ "            -nCloths 1\n            -nParticles 1\n            -nRigids 1\n            -dynamicConstraints 1\n            -locators 1\n            -manipulators 1\n            -pluginShapes 1\n            -dimensions 1\n            -handles 1\n            -pivots 1\n            -textures 1\n            -strokes 1\n            -motionTrails 1\n            -clipGhosts 1\n            -greasePencils 1\n            -shadows 0\n            -captureSequenceNumber -1\n            -width 1349\n            -height 525\n            -sceneRenderFilter 0\n            $editorName;\n        modelEditor -e -viewSelected 0 $editorName;\n        modelEditor -e \n            -pluginObjects \"gpuCacheDisplayFilter\" 1 \n            $editorName;\n\t\tif (!$useSceneConfig) {\n\t\t\tpanel -e -l $label $panelName;\n\t\t}\n\t}\n\n\n\t$panelName = `sceneUIReplacement -getNextPanel \"outlinerPanel\" (localizedPanelLabel(\"ToggledOutliner\")) `;\n\tif (\"\" != $panelName) {\n\t\t$label = `panel -q -label $panelName`;\n\t\toutlinerPanel -edit -l (localizedPanelLabel(\"ToggledOutliner\")) -mbv $menusOkayInPanels  $panelName;\n"
		+ "\t\t$editorName = $panelName;\n        outlinerEditor -e \n            -showShapes 0\n            -showAssignedMaterials 0\n            -showTimeEditor 1\n            -showReferenceNodes 1\n            -showReferenceMembers 1\n            -showAttributes 0\n            -showConnected 0\n            -showAnimCurvesOnly 0\n            -showMuteInfo 0\n            -organizeByLayer 1\n            -organizeByClip 1\n            -showAnimLayerWeight 1\n            -autoExpandLayers 1\n            -autoExpand 0\n            -showDagOnly 1\n            -showAssets 1\n            -showContainedOnly 1\n            -showPublishedAsConnected 0\n            -showParentContainers 0\n            -showContainerContents 1\n            -ignoreDagHierarchy 0\n            -expandConnections 0\n            -showUpstreamCurves 1\n            -showUnitlessCurves 1\n            -showCompounds 1\n            -showLeafs 1\n            -showNumericAttrsOnly 0\n            -highlightActive 1\n            -autoSelectNewObjects 0\n            -doNotSelectNewObjects 0\n            -dropIsParent 1\n"
		+ "            -transmitFilters 0\n            -setFilter \"defaultSetFilter\" \n            -showSetMembers 1\n            -allowMultiSelection 1\n            -alwaysToggleSelect 0\n            -directSelect 0\n            -isSet 0\n            -isSetMember 0\n            -displayMode \"DAG\" \n            -expandObjects 0\n            -setsIgnoreFilters 1\n            -containersIgnoreFilters 0\n            -editAttrName 0\n            -showAttrValues 0\n            -highlightSecondary 0\n            -showUVAttrsOnly 0\n            -showTextureNodesOnly 0\n            -attrAlphaOrder \"default\" \n            -animLayerFilterOptions \"allAffecting\" \n            -sortOrder \"none\" \n            -longNames 0\n            -niceNames 1\n            -showNamespace 1\n            -showPinIcons 0\n            -mapMotionTrails 0\n            -ignoreHiddenAttribute 0\n            -ignoreOutlinerColor 0\n            -renderFilterVisible 0\n            -renderFilterIndex 0\n            -selectionOrder \"chronological\" \n            -expandAttribute 0\n            $editorName;\n"
		+ "\t\tif (!$useSceneConfig) {\n\t\t\tpanel -e -l $label $panelName;\n\t\t}\n\t}\n\n\n\t$panelName = `sceneUIReplacement -getNextPanel \"outlinerPanel\" (localizedPanelLabel(\"Outliner\")) `;\n\tif (\"\" != $panelName) {\n\t\t$label = `panel -q -label $panelName`;\n\t\toutlinerPanel -edit -l (localizedPanelLabel(\"Outliner\")) -mbv $menusOkayInPanels  $panelName;\n\t\t$editorName = $panelName;\n        outlinerEditor -e \n            -showShapes 0\n            -showAssignedMaterials 0\n            -showTimeEditor 1\n            -showReferenceNodes 0\n            -showReferenceMembers 0\n            -showAttributes 0\n            -showConnected 0\n            -showAnimCurvesOnly 0\n            -showMuteInfo 0\n            -organizeByLayer 1\n            -organizeByClip 1\n            -showAnimLayerWeight 1\n            -autoExpandLayers 1\n            -autoExpand 0\n            -showDagOnly 1\n            -showAssets 1\n            -showContainedOnly 1\n            -showPublishedAsConnected 0\n            -showParentContainers 0\n            -showContainerContents 1\n            -ignoreDagHierarchy 0\n"
		+ "            -expandConnections 0\n            -showUpstreamCurves 1\n            -showUnitlessCurves 1\n            -showCompounds 1\n            -showLeafs 1\n            -showNumericAttrsOnly 0\n            -highlightActive 1\n            -autoSelectNewObjects 0\n            -doNotSelectNewObjects 0\n            -dropIsParent 1\n            -transmitFilters 0\n            -setFilter \"0\" \n            -showSetMembers 1\n            -allowMultiSelection 1\n            -alwaysToggleSelect 0\n            -directSelect 0\n            -displayMode \"DAG\" \n            -expandObjects 0\n            -setsIgnoreFilters 1\n            -containersIgnoreFilters 0\n            -editAttrName 0\n            -showAttrValues 0\n            -highlightSecondary 0\n            -showUVAttrsOnly 0\n            -showTextureNodesOnly 0\n            -attrAlphaOrder \"default\" \n            -animLayerFilterOptions \"allAffecting\" \n            -sortOrder \"none\" \n            -longNames 0\n            -niceNames 1\n            -showNamespace 1\n            -showPinIcons 0\n"
		+ "            -mapMotionTrails 0\n            -ignoreHiddenAttribute 0\n            -ignoreOutlinerColor 0\n            -renderFilterVisible 0\n            $editorName;\n\t\tif (!$useSceneConfig) {\n\t\t\tpanel -e -l $label $panelName;\n\t\t}\n\t}\n\n\n\t$panelName = `sceneUIReplacement -getNextScriptedPanel \"graphEditor\" (localizedPanelLabel(\"Graph Editor\")) `;\n\tif (\"\" != $panelName) {\n\t\t$label = `panel -q -label $panelName`;\n\t\tscriptedPanel -edit -l (localizedPanelLabel(\"Graph Editor\")) -mbv $menusOkayInPanels  $panelName;\n\n\t\t\t$editorName = ($panelName+\"OutlineEd\");\n            outlinerEditor -e \n                -showShapes 1\n                -showAssignedMaterials 0\n                -showTimeEditor 1\n                -showReferenceNodes 0\n                -showReferenceMembers 0\n                -showAttributes 1\n                -showConnected 1\n                -showAnimCurvesOnly 1\n                -showMuteInfo 0\n                -organizeByLayer 1\n                -organizeByClip 1\n                -showAnimLayerWeight 1\n                -autoExpandLayers 1\n"
		+ "                -autoExpand 1\n                -showDagOnly 0\n                -showAssets 1\n                -showContainedOnly 0\n                -showPublishedAsConnected 0\n                -showParentContainers 0\n                -showContainerContents 0\n                -ignoreDagHierarchy 0\n                -expandConnections 1\n                -showUpstreamCurves 1\n                -showUnitlessCurves 1\n                -showCompounds 0\n                -showLeafs 1\n                -showNumericAttrsOnly 1\n                -highlightActive 0\n                -autoSelectNewObjects 1\n                -doNotSelectNewObjects 0\n                -dropIsParent 1\n                -transmitFilters 1\n                -setFilter \"0\" \n                -showSetMembers 0\n                -allowMultiSelection 1\n                -alwaysToggleSelect 0\n                -directSelect 0\n                -displayMode \"DAG\" \n                -expandObjects 0\n                -setsIgnoreFilters 1\n                -containersIgnoreFilters 0\n                -editAttrName 0\n"
		+ "                -showAttrValues 0\n                -highlightSecondary 0\n                -showUVAttrsOnly 0\n                -showTextureNodesOnly 0\n                -attrAlphaOrder \"default\" \n                -animLayerFilterOptions \"allAffecting\" \n                -sortOrder \"none\" \n                -longNames 0\n                -niceNames 1\n                -showNamespace 1\n                -showPinIcons 1\n                -mapMotionTrails 1\n                -ignoreHiddenAttribute 0\n                -ignoreOutlinerColor 0\n                -renderFilterVisible 0\n                $editorName;\n\n\t\t\t$editorName = ($panelName+\"GraphEd\");\n            animCurveEditor -e \n                -displayValues 0\n                -snapTime \"integer\" \n                -snapValue \"none\" \n                -showPlayRangeShades \"on\" \n                -lockPlayRangeShades \"off\" \n                -smoothness \"fine\" \n                -resultSamples 1\n                -resultScreenSamples 0\n                -resultUpdate \"delayed\" \n                -showUpstreamCurves 1\n"
		+ "                -keyMinScale 1\n                -stackedCurvesMin -1\n                -stackedCurvesMax 1\n                -stackedCurvesSpace 0.2\n                -preSelectionHighlight 0\n                -constrainDrag 0\n                -valueLinesToggle 1\n                -highlightAffectedCurves 0\n                $editorName;\n\t\tif (!$useSceneConfig) {\n\t\t\tpanel -e -l $label $panelName;\n\t\t}\n\t}\n\n\n\t$panelName = `sceneUIReplacement -getNextScriptedPanel \"dopeSheetPanel\" (localizedPanelLabel(\"Dope Sheet\")) `;\n\tif (\"\" != $panelName) {\n\t\t$label = `panel -q -label $panelName`;\n\t\tscriptedPanel -edit -l (localizedPanelLabel(\"Dope Sheet\")) -mbv $menusOkayInPanels  $panelName;\n\n\t\t\t$editorName = ($panelName+\"OutlineEd\");\n            outlinerEditor -e \n                -showShapes 1\n                -showAssignedMaterials 0\n                -showTimeEditor 1\n                -showReferenceNodes 0\n                -showReferenceMembers 0\n                -showAttributes 1\n                -showConnected 1\n                -showAnimCurvesOnly 1\n"
		+ "                -showMuteInfo 0\n                -organizeByLayer 1\n                -organizeByClip 1\n                -showAnimLayerWeight 1\n                -autoExpandLayers 1\n                -autoExpand 0\n                -showDagOnly 0\n                -showAssets 1\n                -showContainedOnly 0\n                -showPublishedAsConnected 0\n                -showParentContainers 0\n                -showContainerContents 0\n                -ignoreDagHierarchy 0\n                -expandConnections 1\n                -showUpstreamCurves 1\n                -showUnitlessCurves 0\n                -showCompounds 1\n                -showLeafs 1\n                -showNumericAttrsOnly 1\n                -highlightActive 0\n                -autoSelectNewObjects 0\n                -doNotSelectNewObjects 1\n                -dropIsParent 1\n                -transmitFilters 0\n                -setFilter \"0\" \n                -showSetMembers 0\n                -allowMultiSelection 1\n                -alwaysToggleSelect 0\n                -directSelect 0\n"
		+ "                -displayMode \"DAG\" \n                -expandObjects 0\n                -setsIgnoreFilters 1\n                -containersIgnoreFilters 0\n                -editAttrName 0\n                -showAttrValues 0\n                -highlightSecondary 0\n                -showUVAttrsOnly 0\n                -showTextureNodesOnly 0\n                -attrAlphaOrder \"default\" \n                -animLayerFilterOptions \"allAffecting\" \n                -sortOrder \"none\" \n                -longNames 0\n                -niceNames 1\n                -showNamespace 1\n                -showPinIcons 0\n                -mapMotionTrails 1\n                -ignoreHiddenAttribute 0\n                -ignoreOutlinerColor 0\n                -renderFilterVisible 0\n                $editorName;\n\n\t\t\t$editorName = ($panelName+\"DopeSheetEd\");\n            dopeSheetEditor -e \n                -displayValues 0\n                -snapTime \"integer\" \n                -snapValue \"none\" \n                -outliner \"dopeSheetPanel1OutlineEd\" \n                -showSummary 1\n"
		+ "                -showScene 0\n                -hierarchyBelow 0\n                -showTicks 1\n                -selectionWindow 0 0 0 0 \n                $editorName;\n\t\tif (!$useSceneConfig) {\n\t\t\tpanel -e -l $label $panelName;\n\t\t}\n\t}\n\n\n\t$panelName = `sceneUIReplacement -getNextScriptedPanel \"timeEditorPanel\" (localizedPanelLabel(\"Time Editor\")) `;\n\tif (\"\" != $panelName) {\n\t\t$label = `panel -q -label $panelName`;\n\t\tscriptedPanel -edit -l (localizedPanelLabel(\"Time Editor\")) -mbv $menusOkayInPanels  $panelName;\n\t\tif (!$useSceneConfig) {\n\t\t\tpanel -e -l $label $panelName;\n\t\t}\n\t}\n\n\n\t$panelName = `sceneUIReplacement -getNextScriptedPanel \"clipEditorPanel\" (localizedPanelLabel(\"Trax Editor\")) `;\n\tif (\"\" != $panelName) {\n\t\t$label = `panel -q -label $panelName`;\n\t\tscriptedPanel -edit -l (localizedPanelLabel(\"Trax Editor\")) -mbv $menusOkayInPanels  $panelName;\n\n\t\t\t$editorName = clipEditorNameFromPanel($panelName);\n            clipEditor -e \n                -displayValues 0\n                -snapTime \"none\" \n                -snapValue \"none\" \n"
		+ "                -initialized 0\n                -manageSequencer 0 \n                $editorName;\n\t\tif (!$useSceneConfig) {\n\t\t\tpanel -e -l $label $panelName;\n\t\t}\n\t}\n\n\n\t$panelName = `sceneUIReplacement -getNextScriptedPanel \"sequenceEditorPanel\" (localizedPanelLabel(\"Camera Sequencer\")) `;\n\tif (\"\" != $panelName) {\n\t\t$label = `panel -q -label $panelName`;\n\t\tscriptedPanel -edit -l (localizedPanelLabel(\"Camera Sequencer\")) -mbv $menusOkayInPanels  $panelName;\n\n\t\t\t$editorName = sequenceEditorNameFromPanel($panelName);\n            clipEditor -e \n                -displayValues 0\n                -snapTime \"none\" \n                -snapValue \"none\" \n                -initialized 0\n                -manageSequencer 1 \n                $editorName;\n\t\tif (!$useSceneConfig) {\n\t\t\tpanel -e -l $label $panelName;\n\t\t}\n\t}\n\n\n\t$panelName = `sceneUIReplacement -getNextScriptedPanel \"hyperGraphPanel\" (localizedPanelLabel(\"Hypergraph Hierarchy\")) `;\n\tif (\"\" != $panelName) {\n\t\t$label = `panel -q -label $panelName`;\n\t\tscriptedPanel -edit -l (localizedPanelLabel(\"Hypergraph Hierarchy\")) -mbv $menusOkayInPanels  $panelName;\n"
		+ "\n\t\t\t$editorName = ($panelName+\"HyperGraphEd\");\n            hyperGraph -e \n                -graphLayoutStyle \"hierarchicalLayout\" \n                -orientation \"horiz\" \n                -mergeConnections 0\n                -zoom 1\n                -animateTransition 0\n                -showRelationships 1\n                -showShapes 0\n                -showDeformers 0\n                -showExpressions 0\n                -showConstraints 0\n                -showConnectionFromSelected 0\n                -showConnectionToSelected 0\n                -showConstraintLabels 0\n                -showUnderworld 0\n                -showInvisible 0\n                -transitionFrames 1\n                -opaqueContainers 0\n                -freeform 0\n                -imagePosition 0 0 \n                -imageScale 1\n                -imageEnabled 0\n                -graphType \"DAG\" \n                -heatMapDisplay 0\n                -updateSelection 1\n                -updateNodeAdded 1\n                -useDrawOverrideColor 0\n                -limitGraphTraversal -1\n"
		+ "                -range 0 0 \n                -iconSize \"smallIcons\" \n                -showCachedConnections 0\n                $editorName;\n\t\tif (!$useSceneConfig) {\n\t\t\tpanel -e -l $label $panelName;\n\t\t}\n\t}\n\n\n\t$panelName = `sceneUIReplacement -getNextScriptedPanel \"hyperShadePanel\" (localizedPanelLabel(\"Hypershade\")) `;\n\tif (\"\" != $panelName) {\n\t\t$label = `panel -q -label $panelName`;\n\t\tscriptedPanel -edit -l (localizedPanelLabel(\"Hypershade\")) -mbv $menusOkayInPanels  $panelName;\n\t\tif (!$useSceneConfig) {\n\t\t\tpanel -e -l $label $panelName;\n\t\t}\n\t}\n\n\n\t$panelName = `sceneUIReplacement -getNextScriptedPanel \"visorPanel\" (localizedPanelLabel(\"Visor\")) `;\n\tif (\"\" != $panelName) {\n\t\t$label = `panel -q -label $panelName`;\n\t\tscriptedPanel -edit -l (localizedPanelLabel(\"Visor\")) -mbv $menusOkayInPanels  $panelName;\n\t\tif (!$useSceneConfig) {\n\t\t\tpanel -e -l $label $panelName;\n\t\t}\n\t}\n\n\n\t$panelName = `sceneUIReplacement -getNextScriptedPanel \"nodeEditorPanel\" (localizedPanelLabel(\"Node Editor\")) `;\n\tif ($nodeEditorPanelVisible || $nodeEditorWorkspaceControlOpen) {\n"
		+ "\t\tif (\"\" == $panelName) {\n\t\t\tif ($useSceneConfig) {\n\t\t\t\t$panelName = `scriptedPanel -unParent  -type \"nodeEditorPanel\" -l (localizedPanelLabel(\"Node Editor\")) -mbv $menusOkayInPanels `;\n\n\t\t\t$editorName = ($panelName+\"NodeEditorEd\");\n            nodeEditor -e \n                -allAttributes 0\n                -allNodes 0\n                -autoSizeNodes 1\n                -consistentNameSize 1\n                -createNodeCommand \"nodeEdCreateNodeCommand\" \n                -connectNodeOnCreation 0\n                -connectOnDrop 0\n                -copyConnectionsOnPaste 0\n                -connectionStyle \"bezier\" \n                -defaultPinnedState 0\n                -additiveGraphingMode 0\n                -settingsChangedCallback \"nodeEdSyncControls\" \n                -traversalDepthLimit -1\n                -keyPressCommand \"nodeEdKeyPressCommand\" \n                -nodeTitleMode \"name\" \n                -gridSnap 0\n                -gridVisibility 1\n                -crosshairOnEdgeDragging 0\n                -popupMenuScript \"nodeEdBuildPanelMenus\" \n"
		+ "                -showNamespace 1\n                -showShapes 1\n                -showSGShapes 0\n                -showTransforms 1\n                -useAssets 1\n                -syncedSelection 1\n                -extendToShapes 1\n                -editorMode \"default\" \n                -hasWatchpoint 0\n                $editorName;\n\t\t\t}\n\t\t} else {\n\t\t\t$label = `panel -q -label $panelName`;\n\t\t\tscriptedPanel -edit -l (localizedPanelLabel(\"Node Editor\")) -mbv $menusOkayInPanels  $panelName;\n\n\t\t\t$editorName = ($panelName+\"NodeEditorEd\");\n            nodeEditor -e \n                -allAttributes 0\n                -allNodes 0\n                -autoSizeNodes 1\n                -consistentNameSize 1\n                -createNodeCommand \"nodeEdCreateNodeCommand\" \n                -connectNodeOnCreation 0\n                -connectOnDrop 0\n                -copyConnectionsOnPaste 0\n                -connectionStyle \"bezier\" \n                -defaultPinnedState 0\n                -additiveGraphingMode 0\n                -settingsChangedCallback \"nodeEdSyncControls\" \n"
		+ "                -traversalDepthLimit -1\n                -keyPressCommand \"nodeEdKeyPressCommand\" \n                -nodeTitleMode \"name\" \n                -gridSnap 0\n                -gridVisibility 1\n                -crosshairOnEdgeDragging 0\n                -popupMenuScript \"nodeEdBuildPanelMenus\" \n                -showNamespace 1\n                -showShapes 1\n                -showSGShapes 0\n                -showTransforms 1\n                -useAssets 1\n                -syncedSelection 1\n                -extendToShapes 1\n                -editorMode \"default\" \n                -hasWatchpoint 0\n                $editorName;\n\t\t\tif (!$useSceneConfig) {\n\t\t\t\tpanel -e -l $label $panelName;\n\t\t\t}\n\t\t}\n\t}\n\n\n\t$panelName = `sceneUIReplacement -getNextScriptedPanel \"createNodePanel\" (localizedPanelLabel(\"Create Node\")) `;\n\tif (\"\" != $panelName) {\n\t\t$label = `panel -q -label $panelName`;\n\t\tscriptedPanel -edit -l (localizedPanelLabel(\"Create Node\")) -mbv $menusOkayInPanels  $panelName;\n\t\tif (!$useSceneConfig) {\n\t\t\tpanel -e -l $label $panelName;\n"
		+ "\t\t}\n\t}\n\n\n\t$panelName = `sceneUIReplacement -getNextScriptedPanel \"polyTexturePlacementPanel\" (localizedPanelLabel(\"UV Editor\")) `;\n\tif (\"\" != $panelName) {\n\t\t$label = `panel -q -label $panelName`;\n\t\tscriptedPanel -edit -l (localizedPanelLabel(\"UV Editor\")) -mbv $menusOkayInPanels  $panelName;\n\t\tif (!$useSceneConfig) {\n\t\t\tpanel -e -l $label $panelName;\n\t\t}\n\t}\n\n\n\t$panelName = `sceneUIReplacement -getNextScriptedPanel \"renderWindowPanel\" (localizedPanelLabel(\"Render View\")) `;\n\tif (\"\" != $panelName) {\n\t\t$label = `panel -q -label $panelName`;\n\t\tscriptedPanel -edit -l (localizedPanelLabel(\"Render View\")) -mbv $menusOkayInPanels  $panelName;\n\t\tif (!$useSceneConfig) {\n\t\t\tpanel -e -l $label $panelName;\n\t\t}\n\t}\n\n\n\t$panelName = `sceneUIReplacement -getNextPanel \"shapePanel\" (localizedPanelLabel(\"Shape Editor\")) `;\n\tif (\"\" != $panelName) {\n\t\t$label = `panel -q -label $panelName`;\n\t\tshapePanel -edit -l (localizedPanelLabel(\"Shape Editor\")) -mbv $menusOkayInPanels  $panelName;\n\t\tif (!$useSceneConfig) {\n\t\t\tpanel -e -l $label $panelName;\n"
		+ "\t\t}\n\t}\n\n\n\t$panelName = `sceneUIReplacement -getNextPanel \"posePanel\" (localizedPanelLabel(\"Pose Editor\")) `;\n\tif (\"\" != $panelName) {\n\t\t$label = `panel -q -label $panelName`;\n\t\tposePanel -edit -l (localizedPanelLabel(\"Pose Editor\")) -mbv $menusOkayInPanels  $panelName;\n\t\tif (!$useSceneConfig) {\n\t\t\tpanel -e -l $label $panelName;\n\t\t}\n\t}\n\n\n\t$panelName = `sceneUIReplacement -getNextScriptedPanel \"dynRelEdPanel\" (localizedPanelLabel(\"Dynamic Relationships\")) `;\n\tif (\"\" != $panelName) {\n\t\t$label = `panel -q -label $panelName`;\n\t\tscriptedPanel -edit -l (localizedPanelLabel(\"Dynamic Relationships\")) -mbv $menusOkayInPanels  $panelName;\n\t\tif (!$useSceneConfig) {\n\t\t\tpanel -e -l $label $panelName;\n\t\t}\n\t}\n\n\n\t$panelName = `sceneUIReplacement -getNextScriptedPanel \"relationshipPanel\" (localizedPanelLabel(\"Relationship Editor\")) `;\n\tif (\"\" != $panelName) {\n\t\t$label = `panel -q -label $panelName`;\n\t\tscriptedPanel -edit -l (localizedPanelLabel(\"Relationship Editor\")) -mbv $menusOkayInPanels  $panelName;\n\t\tif (!$useSceneConfig) {\n"
		+ "\t\t\tpanel -e -l $label $panelName;\n\t\t}\n\t}\n\n\n\t$panelName = `sceneUIReplacement -getNextScriptedPanel \"referenceEditorPanel\" (localizedPanelLabel(\"Reference Editor\")) `;\n\tif (\"\" != $panelName) {\n\t\t$label = `panel -q -label $panelName`;\n\t\tscriptedPanel -edit -l (localizedPanelLabel(\"Reference Editor\")) -mbv $menusOkayInPanels  $panelName;\n\t\tif (!$useSceneConfig) {\n\t\t\tpanel -e -l $label $panelName;\n\t\t}\n\t}\n\n\n\t$panelName = `sceneUIReplacement -getNextScriptedPanel \"componentEditorPanel\" (localizedPanelLabel(\"Component Editor\")) `;\n\tif (\"\" != $panelName) {\n\t\t$label = `panel -q -label $panelName`;\n\t\tscriptedPanel -edit -l (localizedPanelLabel(\"Component Editor\")) -mbv $menusOkayInPanels  $panelName;\n\t\tif (!$useSceneConfig) {\n\t\t\tpanel -e -l $label $panelName;\n\t\t}\n\t}\n\n\n\t$panelName = `sceneUIReplacement -getNextScriptedPanel \"dynPaintScriptedPanelType\" (localizedPanelLabel(\"Paint Effects\")) `;\n\tif (\"\" != $panelName) {\n\t\t$label = `panel -q -label $panelName`;\n\t\tscriptedPanel -edit -l (localizedPanelLabel(\"Paint Effects\")) -mbv $menusOkayInPanels  $panelName;\n"
		+ "\t\tif (!$useSceneConfig) {\n\t\t\tpanel -e -l $label $panelName;\n\t\t}\n\t}\n\n\n\t$panelName = `sceneUIReplacement -getNextScriptedPanel \"scriptEditorPanel\" (localizedPanelLabel(\"Script Editor\")) `;\n\tif (\"\" != $panelName) {\n\t\t$label = `panel -q -label $panelName`;\n\t\tscriptedPanel -edit -l (localizedPanelLabel(\"Script Editor\")) -mbv $menusOkayInPanels  $panelName;\n\t\tif (!$useSceneConfig) {\n\t\t\tpanel -e -l $label $panelName;\n\t\t}\n\t}\n\n\n\t$panelName = `sceneUIReplacement -getNextScriptedPanel \"profilerPanel\" (localizedPanelLabel(\"Profiler Tool\")) `;\n\tif (\"\" != $panelName) {\n\t\t$label = `panel -q -label $panelName`;\n\t\tscriptedPanel -edit -l (localizedPanelLabel(\"Profiler Tool\")) -mbv $menusOkayInPanels  $panelName;\n\t\tif (!$useSceneConfig) {\n\t\t\tpanel -e -l $label $panelName;\n\t\t}\n\t}\n\n\n\t$panelName = `sceneUIReplacement -getNextScriptedPanel \"contentBrowserPanel\" (localizedPanelLabel(\"Content Browser\")) `;\n\tif (\"\" != $panelName) {\n\t\t$label = `panel -q -label $panelName`;\n\t\tscriptedPanel -edit -l (localizedPanelLabel(\"Content Browser\")) -mbv $menusOkayInPanels  $panelName;\n"
		+ "\t\tif (!$useSceneConfig) {\n\t\t\tpanel -e -l $label $panelName;\n\t\t}\n\t}\n\n\n\tif ($useSceneConfig) {\n        string $configName = `getPanel -cwl (localizedPanelLabel(\"Current Layout\"))`;\n        if (\"\" != $configName) {\n\t\t\tpanelConfiguration -edit -label (localizedPanelLabel(\"Current Layout\")) \n\t\t\t\t-userCreated false\n\t\t\t\t-defaultImage \"\"\n\t\t\t\t-image \"\"\n\t\t\t\t-sc false\n\t\t\t\t-configString \"global string $gMainPane; paneLayout -e -cn \\\"single\\\" -ps 1 100 100 $gMainPane;\"\n\t\t\t\t-removeAllPanels\n\t\t\t\t-ap false\n\t\t\t\t\t(localizedPanelLabel(\"Persp View\")) \n\t\t\t\t\t\"modelPanel\"\n"
		+ "\t\t\t\t\t\"$panelName = `modelPanel -unParent -l (localizedPanelLabel(\\\"Persp View\\\")) -mbv $menusOkayInPanels `;\\n$editorName = $panelName;\\nmodelEditor -e \\n    -cam `findStartUpCamera persp` \\n    -useInteractiveMode 0\\n    -displayLights \\\"default\\\" \\n    -displayAppearance \\\"smoothShaded\\\" \\n    -activeOnly 0\\n    -ignorePanZoom 0\\n    -wireframeOnShaded 0\\n    -headsUpDisplay 1\\n    -holdOuts 1\\n    -selectionHiliteDisplay 1\\n    -useDefaultMaterial 0\\n    -bufferMode \\\"double\\\" \\n    -twoSidedLighting 0\\n    -backfaceCulling 0\\n    -xray 0\\n    -jointXray 0\\n    -activeComponentsXray 0\\n    -displayTextures 0\\n    -smoothWireframe 0\\n    -lineWidth 1\\n    -textureAnisotropic 0\\n    -textureHilight 1\\n    -textureSampling 2\\n    -textureDisplay \\\"modulate\\\" \\n    -textureMaxSize 32768\\n    -fogging 0\\n    -fogSource \\\"fragment\\\" \\n    -fogMode \\\"linear\\\" \\n    -fogStart 0\\n    -fogEnd 100\\n    -fogDensity 0.1\\n    -fogColor 0.5 0.5 0.5 1 \\n    -depthOfFieldPreview 1\\n    -maxConstantTransparency 1\\n    -rendererName \\\"vp2Renderer\\\" \\n    -objectFilterShowInHUD 1\\n    -isFiltered 0\\n    -colorResolution 256 256 \\n    -bumpResolution 512 512 \\n    -textureCompression 0\\n    -transparencyAlgorithm \\\"frontAndBackCull\\\" \\n    -transpInShadows 0\\n    -cullingOverride \\\"none\\\" \\n    -lowQualityLighting 0\\n    -maximumNumHardwareLights 1\\n    -occlusionCulling 0\\n    -shadingModel 0\\n    -useBaseRenderer 0\\n    -useReducedRenderer 0\\n    -smallObjectCulling 0\\n    -smallObjectThreshold -1 \\n    -interactiveDisableShadows 0\\n    -interactiveBackFaceCull 0\\n    -sortTransparent 1\\n    -controllers 1\\n    -nurbsCurves 1\\n    -nurbsSurfaces 1\\n    -polymeshes 1\\n    -subdivSurfaces 1\\n    -planes 1\\n    -lights 1\\n    -cameras 1\\n    -controlVertices 1\\n    -hulls 1\\n    -grid 1\\n    -imagePlane 1\\n    -joints 1\\n    -ikHandles 1\\n    -deformers 1\\n    -dynamics 1\\n    -particleInstancers 1\\n    -fluids 1\\n    -hairSystems 1\\n    -follicles 1\\n    -nCloths 1\\n    -nParticles 1\\n    -nRigids 1\\n    -dynamicConstraints 1\\n    -locators 1\\n    -manipulators 1\\n    -pluginShapes 1\\n    -dimensions 1\\n    -handles 1\\n    -pivots 1\\n    -textures 1\\n    -strokes 1\\n    -motionTrails 1\\n    -clipGhosts 1\\n    -greasePencils 1\\n    -shadows 0\\n    -captureSequenceNumber -1\\n    -width 1349\\n    -height 525\\n    -sceneRenderFilter 0\\n    $editorName;\\nmodelEditor -e -viewSelected 0 $editorName;\\nmodelEditor -e \\n    -pluginObjects \\\"gpuCacheDisplayFilter\\\" 1 \\n    $editorName\"\n"
		+ "\t\t\t\t\t\"modelPanel -edit -l (localizedPanelLabel(\\\"Persp View\\\")) -mbv $menusOkayInPanels  $panelName;\\n$editorName = $panelName;\\nmodelEditor -e \\n    -cam `findStartUpCamera persp` \\n    -useInteractiveMode 0\\n    -displayLights \\\"default\\\" \\n    -displayAppearance \\\"smoothShaded\\\" \\n    -activeOnly 0\\n    -ignorePanZoom 0\\n    -wireframeOnShaded 0\\n    -headsUpDisplay 1\\n    -holdOuts 1\\n    -selectionHiliteDisplay 1\\n    -useDefaultMaterial 0\\n    -bufferMode \\\"double\\\" \\n    -twoSidedLighting 0\\n    -backfaceCulling 0\\n    -xray 0\\n    -jointXray 0\\n    -activeComponentsXray 0\\n    -displayTextures 0\\n    -smoothWireframe 0\\n    -lineWidth 1\\n    -textureAnisotropic 0\\n    -textureHilight 1\\n    -textureSampling 2\\n    -textureDisplay \\\"modulate\\\" \\n    -textureMaxSize 32768\\n    -fogging 0\\n    -fogSource \\\"fragment\\\" \\n    -fogMode \\\"linear\\\" \\n    -fogStart 0\\n    -fogEnd 100\\n    -fogDensity 0.1\\n    -fogColor 0.5 0.5 0.5 1 \\n    -depthOfFieldPreview 1\\n    -maxConstantTransparency 1\\n    -rendererName \\\"vp2Renderer\\\" \\n    -objectFilterShowInHUD 1\\n    -isFiltered 0\\n    -colorResolution 256 256 \\n    -bumpResolution 512 512 \\n    -textureCompression 0\\n    -transparencyAlgorithm \\\"frontAndBackCull\\\" \\n    -transpInShadows 0\\n    -cullingOverride \\\"none\\\" \\n    -lowQualityLighting 0\\n    -maximumNumHardwareLights 1\\n    -occlusionCulling 0\\n    -shadingModel 0\\n    -useBaseRenderer 0\\n    -useReducedRenderer 0\\n    -smallObjectCulling 0\\n    -smallObjectThreshold -1 \\n    -interactiveDisableShadows 0\\n    -interactiveBackFaceCull 0\\n    -sortTransparent 1\\n    -controllers 1\\n    -nurbsCurves 1\\n    -nurbsSurfaces 1\\n    -polymeshes 1\\n    -subdivSurfaces 1\\n    -planes 1\\n    -lights 1\\n    -cameras 1\\n    -controlVertices 1\\n    -hulls 1\\n    -grid 1\\n    -imagePlane 1\\n    -joints 1\\n    -ikHandles 1\\n    -deformers 1\\n    -dynamics 1\\n    -particleInstancers 1\\n    -fluids 1\\n    -hairSystems 1\\n    -follicles 1\\n    -nCloths 1\\n    -nParticles 1\\n    -nRigids 1\\n    -dynamicConstraints 1\\n    -locators 1\\n    -manipulators 1\\n    -pluginShapes 1\\n    -dimensions 1\\n    -handles 1\\n    -pivots 1\\n    -textures 1\\n    -strokes 1\\n    -motionTrails 1\\n    -clipGhosts 1\\n    -greasePencils 1\\n    -shadows 0\\n    -captureSequenceNumber -1\\n    -width 1349\\n    -height 525\\n    -sceneRenderFilter 0\\n    $editorName;\\nmodelEditor -e -viewSelected 0 $editorName;\\nmodelEditor -e \\n    -pluginObjects \\\"gpuCacheDisplayFilter\\\" 1 \\n    $editorName\"\n"
		+ "\t\t\t\t$configName;\n\n            setNamedPanelLayout (localizedPanelLabel(\"Current Layout\"));\n        }\n\n        panelHistory -e -clear mainPanelHistory;\n        sceneUIReplacement -clear;\n\t}\n\n\ngrid -spacing 5 -size 12 -divisions 5 -displayAxes yes -displayGridLines yes -displayDivisionLines yes -displayPerspectiveLabels no -displayOrthographicLabels no -displayAxesBold yes -perspectiveLabelPosition axis -orthographicLabelPosition edge;\nviewManip -drawCompass 0 -compassAngle 0 -frontParameters \"\" -homeParameters \"\" -selectionLockParameters \"\";\n}\n");
	setAttr ".st" 3;
createNode script -n "sceneConfigurationScriptNode";
	rename -uid "249F0898-4C5E-D084-0F8D-5C94001B6280";
	setAttr ".b" -type "string" "playbackOptions -min 1 -max 120 -ast 1 -aet 200 ";
	setAttr ".st" 6;
select -ne :time1;
	setAttr ".o" 1;
	setAttr ".unw" 1;
select -ne :hardwareRenderingGlobals;
	setAttr ".otfna" -type "stringArray" 22 "NURBS Curves" "NURBS Surfaces" "Polygons" "Subdiv Surface" "Particles" "Particle Instance" "Fluids" "Strokes" "Image Planes" "UI" "Lights" "Cameras" "Locators" "Joints" "IK Handles" "Deformers" "Motion Trails" "Components" "Hair Systems" "Follicles" "Misc. UI" "Ornaments"  ;
	setAttr ".otfva" -type "Int32Array" 22 0 1 1 1 1 1
		 1 1 1 0 0 0 0 0 0 0 0 0
		 0 0 0 0 ;
	setAttr ".fprt" yes;
select -ne :renderPartition;
	setAttr -s 2 ".st";
select -ne :renderGlobalsList1;
select -ne :defaultShaderList1;
	setAttr -s 5 ".s";
select -ne :postProcessList1;
	setAttr -s 2 ".p";
select -ne :defaultRenderingList1;
select -ne :initialShadingGroup;
	setAttr -s 2 ".dsm";
	setAttr ".ro" yes;
select -ne :initialParticleSE;
	setAttr ".ro" yes;
select -ne :defaultRenderGlobals;
	addAttr -ci true -h true -sn "dss" -ln "defaultSurfaceShader" -dt "string";
	setAttr ".ren" -type "string" "arnold";
	setAttr ".dss" -type "string" "lambert1";
select -ne :defaultResolution;
	setAttr ".pa" 1;
select -ne :defaultColorMgtGlobals;
	setAttr ".cfe" yes;
	setAttr ".cfp" -type "string" "<MAYA_RESOURCES>/OCIO-configs/Maya2022-default/config.ocio";
	setAttr ".wsn" -type "string" "ACEScg";
select -ne :hardwareRenderGlobals;
	setAttr ".ctrs" 256;
	setAttr ".btrs" 512;
select -ne :ikSystem;
	setAttr -s 4 ".sol";
connectAttr "polySplit4.out" "MediumMushroom.i";
relationship "link" ":lightLinker1" ":initialShadingGroup.message" ":defaultLightSet.message";
relationship "link" ":lightLinker1" ":initialParticleSE.message" ":defaultLightSet.message";
relationship "shadowLink" ":lightLinker1" ":initialShadingGroup.message" ":defaultLightSet.message";
relationship "shadowLink" ":lightLinker1" ":initialParticleSE.message" ":defaultLightSet.message";
connectAttr "layerManager.dli[0]" "defaultLayer.id";
connectAttr "renderLayerManager.rlmi[0]" "defaultRenderLayer.rlid";
connectAttr "polyCylinder1.out" "polySplit1.ip";
connectAttr "polySplit1.out" "polySplit2.ip";
connectAttr "polySplit2.out" "polyTweak1.ip";
connectAttr "polyTweak1.out" "polySplit3.ip";
connectAttr "polySplit3.out" "polyTweak2.ip";
connectAttr "polyTweak2.out" "polySplit4.ip";
connectAttr "defaultRenderLayer.msg" ":defaultRenderingList1.r" -na;
connectAttr "MediumMushroom.iog" ":initialShadingGroup.dsm" -na;
connectAttr "pCylinderShape2.iog" ":initialShadingGroup.dsm" -na;
// End of MediumMushroom.ma
