//Maya ASCII 2022 scene
//Name: Pillar.ma
//Last modified: Sat, Aug 28, 2021 12:48:58 AM
//Codeset: 1252
requires maya "2022";
requires "mtoa" "4.2.1";
currentUnit -l centimeter -a degree -t film;
fileInfo "application" "maya";
fileInfo "product" "Maya 2022";
fileInfo "version" "2022";
fileInfo "cutIdentifier" "202102181415-29bfc1879c";
fileInfo "osv" "Windows 10 Home v2009 (Build: 19043)";
fileInfo "UUID" "442F46F6-4239-D8CE-ACCE-01B2C2B7336C";
createNode transform -s -n "persp";
	rename -uid "8A0C62E7-40B7-72DE-1974-CA986A8D5942";
	setAttr ".v" no;
	setAttr ".t" -type "double3" 30.264852259697001 1.2155282656360864 -20.952487384396356 ;
	setAttr ".r" -type "double3" 3.2616472704259993 122.19999999998213 0 ;
createNode camera -s -n "perspShape" -p "persp";
	rename -uid "1DEE4F99-48FE-6DCA-D0F7-798DEB15F80C";
	setAttr -k off ".v" no;
	setAttr ".fl" 34.999999999999993;
	setAttr ".coi" 37.847426671097345;
	setAttr ".imn" -type "string" "persp";
	setAttr ".den" -type "string" "persp_depth";
	setAttr ".man" -type "string" "persp_mask";
	setAttr ".hc" -type "string" "viewSet -p %camera";
	setAttr ".ai_translator" -type "string" "perspective";
createNode transform -s -n "top";
	rename -uid "4CC1B8E1-46DA-407B-8BA0-8FA42996A95B";
	setAttr ".v" no;
	setAttr ".t" -type "double3" 0 1000.1 0 ;
	setAttr ".r" -type "double3" -90 0 0 ;
createNode camera -s -n "topShape" -p "top";
	rename -uid "F696ECB9-4365-210F-7E77-44BC88C13F13";
	setAttr -k off ".v" no;
	setAttr ".rnd" no;
	setAttr ".coi" 1000.1;
	setAttr ".ow" 30;
	setAttr ".imn" -type "string" "top";
	setAttr ".den" -type "string" "top_depth";
	setAttr ".man" -type "string" "top_mask";
	setAttr ".hc" -type "string" "viewSet -t %camera";
	setAttr ".o" yes;
	setAttr ".ai_translator" -type "string" "orthographic";
createNode transform -s -n "front";
	rename -uid "48528CAF-4297-88FB-6B89-80BDC21925A7";
	setAttr ".v" no;
	setAttr ".t" -type "double3" 0 0 1000.1 ;
createNode camera -s -n "frontShape" -p "front";
	rename -uid "45BE8CE9-4699-37C1-C6FB-9F827B694509";
	setAttr -k off ".v" no;
	setAttr ".rnd" no;
	setAttr ".coi" 1000.1;
	setAttr ".ow" 30;
	setAttr ".imn" -type "string" "front";
	setAttr ".den" -type "string" "front_depth";
	setAttr ".man" -type "string" "front_mask";
	setAttr ".hc" -type "string" "viewSet -f %camera";
	setAttr ".o" yes;
	setAttr ".ai_translator" -type "string" "orthographic";
createNode transform -s -n "side";
	rename -uid "D3DD8EC3-40F0-745E-16E7-8FBAE6738D06";
	setAttr ".v" no;
	setAttr ".t" -type "double3" 1000.1 0 0 ;
	setAttr ".r" -type "double3" 0 90 0 ;
createNode camera -s -n "sideShape" -p "side";
	rename -uid "D9BDF256-44F6-8D86-2874-8B85025E4CDE";
	setAttr -k off ".v" no;
	setAttr ".rnd" no;
	setAttr ".coi" 1000.1;
	setAttr ".ow" 30;
	setAttr ".imn" -type "string" "side";
	setAttr ".den" -type "string" "side_depth";
	setAttr ".man" -type "string" "side_mask";
	setAttr ".hc" -type "string" "viewSet -s %camera";
	setAttr ".o" yes;
	setAttr ".ai_translator" -type "string" "orthographic";
createNode transform -n "pCylinder1";
	rename -uid "F40DACBD-4A04-ED27-F459-1589289DAE8C";
	setAttr ".t" -type "double3" 0 5.2275756344418616 0 ;
	setAttr ".s" -type "double3" 1 5.2103512538904218 1 ;
createNode mesh -n "pCylinderShape1" -p "pCylinder1";
	rename -uid "E4691BD4-4B87-5E89-F893-DA9F6D02FDB5";
	setAttr -k off ".v";
	setAttr ".vir" yes;
	setAttr ".vif" yes;
	setAttr -s 10 ".gtag";
	setAttr ".gtag[0].gtagnm" -type "string" "bottom";
	setAttr ".gtag[0].gtagcmp" -type "componentList" 1 "f[20:39]";
	setAttr ".gtag[1].gtagnm" -type "string" "bottomRing";
	setAttr ".gtag[1].gtagcmp" -type "componentList" 1 "e[0:19]";
	setAttr ".gtag[2].gtagnm" -type "string" "cylBottomCap";
	setAttr ".gtag[2].gtagcmp" -type "componentList" 2 "vtx[0:19]" "vtx[40]";
	setAttr ".gtag[3].gtagnm" -type "string" "cylBottomRing";
	setAttr ".gtag[3].gtagcmp" -type "componentList" 1 "vtx[0:19]";
	setAttr ".gtag[4].gtagnm" -type "string" "cylSides";
	setAttr ".gtag[4].gtagcmp" -type "componentList" 1 "vtx[0:39]";
	setAttr ".gtag[5].gtagnm" -type "string" "cylTopCap";
	setAttr ".gtag[5].gtagcmp" -type "componentList" 2 "vtx[20:39]" "vtx[41]";
	setAttr ".gtag[6].gtagnm" -type "string" "cylTopRing";
	setAttr ".gtag[6].gtagcmp" -type "componentList" 1 "vtx[20:39]";
	setAttr ".gtag[7].gtagnm" -type "string" "sides";
	setAttr ".gtag[7].gtagcmp" -type "componentList" 1 "f[0:19]";
	setAttr ".gtag[8].gtagnm" -type "string" "top";
	setAttr ".gtag[8].gtagcmp" -type "componentList" 1 "f[40:59]";
	setAttr ".gtag[9].gtagnm" -type "string" "topRing";
	setAttr ".gtag[9].gtagcmp" -type "componentList" 1 "e[20:39]";
	setAttr ".pv" -type "double2" 0.49999998509883881 0.49999996274709702 ;
	setAttr ".uvst[0].uvsn" -type "string" "map1";
	setAttr -s 231 ".uvst[0].uvsp[0:230]" -type "float2" 0.64860266 0.10796607
		 0.62640899 0.064408496 0.59184152 0.029841021 0.54828393 0.0076473355 0.5 -7.4505806e-08
		 0.45171607 0.0076473504 0.40815851 0.029841051 0.37359107 0.064408526 0.3513974 0.1079661
		 0.34374997 0.15625 0.3513974 0.2045339 0.37359107 0.24809146 0.40815854 0.28265893
		 0.4517161 0.3048526 0.5 0.3125 0.54828387 0.3048526 0.59184146 0.28265893 0.62640893
		 0.24809146 0.6486026 0.2045339 0.65625 0.15625 0.375 0.3125 0.38749999 0.3125 0.39999998
		 0.3125 0.41249996 0.3125 0.42499995 0.3125 0.43749994 0.3125 0.44999993 0.3125 0.46249992
		 0.3125 0.4749999 0.3125 0.48749989 0.3125 0.49999988 0.3125 0.51249987 0.3125 0.52499986
		 0.3125 0.53749985 0.3125 0.54999983 0.3125 0.56249982 0.3125 0.57499981 0.3125 0.5874998
		 0.3125 0.59999979 0.3125 0.61249977 0.3125 0.62499976 0.3125 0.375 0.68843985 0.38749999
		 0.68843985 0.39999998 0.68843985 0.41249996 0.68843985 0.42499995 0.68843985 0.43749994
		 0.68843985 0.44999993 0.68843985 0.46249992 0.68843985 0.4749999 0.68843985 0.48749989
		 0.68843985 0.49999988 0.68843985 0.51249987 0.68843985 0.52499986 0.68843985 0.53749985
		 0.68843985 0.54999983 0.68843985 0.56249982 0.68843985 0.57499981 0.68843985 0.5874998
		 0.68843985 0.59999979 0.68843985 0.61249977 0.68843985 0.62499976 0.68843985 0.64860266
		 0.79546607 0.62640899 0.75190848 0.59184152 0.71734101 0.54828393 0.69514734 0.5
		 0.68749994 0.45171607 0.69514734 0.40815851 0.71734107 0.37359107 0.75190854 0.3513974
		 0.79546607 0.34374997 0.84375 0.3513974 0.89203393 0.37359107 0.93559146 0.40815854
		 0.97015893 0.4517161 0.9923526 0.5 1 0.54828387 0.9923526 0.59184146 0.97015893 0.62640893
		 0.93559146 0.6486026 0.89203393 0.65625 0.84375 0.5 0.15000001 0.5 0.83749998 0.62499976
		 0.49978834 0.375 0.49978834 0.38749999 0.49978834 0.39999998 0.49978834 0.41249996
		 0.49978834 0.42499995 0.49978834 0.43749994 0.49978834 0.44999993 0.49978834 0.46249992
		 0.49978834 0.4749999 0.49978834 0.48749989 0.49978834 0.49999988 0.49978834 0.51249987
		 0.49978834 0.52499986 0.49978834 0.53749985 0.49978834 0.54999983 0.49978834 0.56249982
		 0.49978834 0.57499981 0.49978834 0.5874998 0.49978834 0.59999979 0.49978834 0.61249977
		 0.49978834 0.62499976 0.602314 0.375 0.602314 0.61249977 0.602314 0.59999979 0.602314
		 0.5874998 0.602314 0.57499981 0.602314 0.56249982 0.602314 0.54999983 0.602314 0.53749985
		 0.602314 0.52499986 0.602314 0.51249987 0.602314 0.49999988 0.602314 0.48749989 0.602314
		 0.4749999 0.602314 0.46249992 0.602314 0.44999993 0.602314 0.43749994 0.602314 0.42499995
		 0.602314 0.41249996 0.602314 0.39999998 0.602314 0.38749999 0.602314 0.62499976 0.3858968
		 0.375 0.3858968 0.38749999 0.3858968 0.39999998 0.3858968 0.41249996 0.3858968 0.42499995
		 0.3858968 0.43749994 0.3858968 0.44999996 0.3858968 0.46249992 0.3858968 0.4749999
		 0.3858968 0.48749989 0.3858968 0.49999991 0.3858968 0.51249987 0.3858968 0.52499986
		 0.3858968 0.53749985 0.3858968 0.54999983 0.3858968 0.56249982 0.3858968 0.57499981
		 0.3858968 0.5874998 0.3858968 0.59999979 0.3858968 0.61249977 0.3858968 0.62499976
		 0.47077742 0.375 0.47077742 0.61249977 0.47077742 0.59999979 0.47077742 0.5874998
		 0.47077742 0.57499981 0.47077742 0.56249982 0.47077742 0.54999983 0.47077742 0.53749985
		 0.47077742 0.52499986 0.47077742 0.51249987 0.47077742 0.49999988 0.47077742 0.48749989
		 0.47077742 0.4749999 0.47077742 0.46249992 0.47077742 0.44999996 0.47077742 0.43749994
		 0.47077742 0.42499995 0.47077742 0.41249996 0.47077742 0.39999998 0.47077742 0.38749999
		 0.47077742 0.62499976 0.51988041 0.375 0.51988041 0.38749999 0.51988041 0.39999998
		 0.51988041 0.41249996 0.51988041 0.42499995 0.51988041 0.43749994 0.51988041 0.44999993
		 0.51988041 0.46249992 0.51988041 0.4749999 0.51988041 0.48749989 0.51988041 0.49999988
		 0.51988041 0.51249987 0.51988041 0.52499986 0.51988041 0.53749985 0.51988041 0.54999983
		 0.51988041 0.56249982 0.51988041 0.57499981 0.51988041 0.5874998 0.51988041 0.59999979
		 0.51988041 0.61249977 0.51988041 0.62499976 0.63101292 0.375 0.63101292 0.61249983
		 0.63101292 0.59999979 0.63101292 0.5874998 0.63101292 0.57499981 0.63101292 0.56249982
		 0.63101292 0.54999983 0.63101292 0.5374999 0.63101292 0.52499986 0.63101292 0.51249987
		 0.63101292 0.49999988 0.63101292 0.48749989 0.63101292 0.4749999 0.63101292 0.46249992
		 0.63101292 0.44999993 0.63101292 0.43749997 0.63101292 0.42499998 0.63101292 0.41249996
		 0.63101292 0.39999998 0.63101292 0.38749999 0.63101292 0.62499976 0.3548454 0.375
		 0.3548454 0.38749999 0.3548454 0.39999998 0.3548454 0.41249996 0.3548454 0.42499995
		 0.3548454 0.43749994 0.3548454 0.44999993 0.3548454 0.46249992 0.3548454 0.4749999
		 0.3548454 0.48749989 0.3548454 0.49999988 0.3548454 0.51249987 0.3548454 0.52499986
		 0.3548454 0.53749985 0.3548454 0.54999983 0.3548454 0.56249982 0.3548454 0.57499981
		 0.3548454 0.5874998 0.3548454 0.59999979 0.3548454 0.61249977 0.3548454;
	setAttr ".cuvs" -type "string" "map1";
	setAttr ".dcc" -type "string" "Ambient+Diffuse";
	setAttr ".covm[0]"  0 1 1;
	setAttr ".cdvm[0]"  0 1 1;
	setAttr -s 182 ".pt";
	setAttr ".pt[0:165]" -type "float3"  -0.14842395 0 0.048225835 -0.12625697 
		0 0.091731004 -0.091731057 0 0.12625691 -0.048225872 0 0.1484239 -1.8604048e-08 0 
		0.15606211 0.048225839 0 0.14842388 0.091730997 0 0.12625688 0.12625688 0 0.091730982 
		0.14842387 0 0.048225813 0.15606208 0 -2.790607e-08 0.14842387 0 -0.048225868 0.12625687 
		0 -0.091731027 0.091730982 0 -0.12625691 0.04822582 0 -0.1484239 -1.3953036e-08 0 
		-0.15606211 -0.048225842 0 -0.14842388 -0.091730997 0 -0.1262569 -0.12625688 0 -0.091731019 
		-0.14842387 0 -0.048225857 -0.15606208 0 -2.790607e-08 -0.14842395 0 0.048225835 
		-0.12625697 0 0.091731004 -0.091731057 0 0.12625691 -0.048225872 0 0.1484239 -1.8604048e-08 
		0 0.15606211 0.048225839 0 0.14842388 0.091730997 0 0.12625688 0.12625688 0 0.091730982 
		0.14842387 0 0.048225813 0.15606208 0 -2.790607e-08 0.14842387 0 -0.048225868 0.12625687 
		0 -0.091731027 0.091730982 0 -0.12625691 0.04822582 0 -0.1484239 -1.3953036e-08 0 
		-0.15606211 -0.048225842 0 -0.14842388 -0.091730997 0 -0.1262569 -0.12625688 0 -0.091731019 
		-0.14842387 0 -0.048225857 -0.15606208 0 -2.790607e-08 -1.8604048e-08 0 -2.790607e-08 
		-1.8604048e-08 0 -2.790607e-08 -0.7739327 -1.6479873e-16 0.2514658 -0.65834635 -1.6479873e-16 
		0.47831646 -0.47831672 -1.6479873e-16 0.65834618 -0.25146598 -1.6479873e-16 0.77393228 
		-9.7007778e-08 -1.6479873e-16 0.8137604 0.2514658 -1.6479873e-16 0.77393222 0.4783164 
		-1.6479873e-16 0.65834618 0.65834612 -1.6479873e-16 0.47831628 0.7739321 -1.6479873e-16 
		0.25146571 0.81376034 -1.6479873e-16 -1.4551169e-07 0.7739321 -1.6479873e-16 -0.25146595 
		0.65834612 -1.6479873e-16 -0.47831658 0.47831628 -1.6479873e-16 -0.65834618 0.25146577 
		-1.6479873e-16 -0.77393228 -7.2755846e-08 -1.6479873e-16 -0.8137604 -0.25146586 -1.6479873e-16 
		-0.77393222 -0.4783164 -1.6479873e-16 -0.65834618 -0.65834612 -1.6479873e-16 -0.47831652 
		-0.7739321 -1.6479873e-16 -0.25146589 -0.81376034 -1.6479873e-16 -1.4551169e-07 -0.10478718 
		0.031297456 0.034047388 -0.11017968 0.031297456 -1.9701659e-08 -0.1047871 0.031297456 
		-0.03404741 -0.089137226 0.031297456 -0.064762004 -0.064761996 0.031297456 -0.089137256 
		-0.034047399 0.031297456 -0.10478711 -9.8508295e-09 0.031297456 -0.1101797 0.034047384 
		0.031297456 -0.10478713 0.064761989 0.031297456 -0.089137264 0.089137256 0.031297456 
		-0.064762011 0.1047871 0.031297456 -0.034047417 0.11017968 0.031297456 -1.9701659e-08 
		0.1047871 0.031297456 0.034047373 0.089137226 0.031297456 0.064761981 0.064761996 
		0.031297456 0.089137226 0.034047391 0.031297456 0.10478711 -1.3134439e-08 0.031297456 
		0.1101797 -0.034047417 0.031297456 0.10478711 -0.064762026 0.031297456 0.089137264 
		-0.089137286 0.031297456 0.064762004 -0.10478719 -0.031297456 0.034047388 -0.089137286 
		-0.031297456 0.064762004 -0.064762026 -0.031297456 0.089137264 -0.034047417 -0.031297456 
		0.10478713 -1.3134439e-08 -0.031297456 0.1101797 0.034047391 -0.031297456 0.10478711 
		0.064761996 -0.031297456 0.089137226 0.089137241 -0.031297456 0.064761981 0.10478711 
		-0.031297456 0.034047373 0.11017968 -0.031297456 -1.9701659e-08 0.10478711 -0.031297456 
		-0.034047417 0.089137256 -0.031297456 -0.064762011 0.064761989 -0.031297456 -0.089137264 
		0.034047384 -0.031297456 -0.10478713 -9.8508295e-09 -0.031297456 -0.1101797 -0.034047402 
		-0.031297456 -0.10478711 -0.064761996 -0.031297456 -0.089137256 -0.089137226 -0.031297456 
		-0.064762011 -0.10478711 -0.031297456 -0.03404741 -0.11017968 -0.031297456 -1.9701659e-08 
		-0.53348744 -0.0022294829 0.17334044 -0.56094146 -0.0022294829 -1.0030414e-07 -0.53348714 
		-0.0022294829 -0.17334054 -0.45381123 -0.0022294829 -0.3297132 -0.32971317 -0.0022294829 
		-0.45381126 -0.1733405 -0.0022294829 -0.5334872 -5.0152071e-08 -0.0022294829 -0.56094158 
		0.17334038 -0.0022294829 -0.5334872 0.32971311 -0.0022294829 -0.45381135 0.45381123 
		-0.0022294829 -0.32971326 0.53348714 -0.0022294829 -0.1733406 0.56094146 -0.0022294829 
		-1.0030414e-07 0.53348714 -0.0022294829 0.17334037 0.45381123 -0.0022294829 0.32971311 
		0.32971317 -0.0022294829 0.4538112 0.17334044 -0.0022294829 0.5334872 -6.6869433e-08 
		-0.0022294829 0.56094158 -0.17334062 -0.0022294829 0.53348726 -0.32971337 -0.0022294829 
		0.45381132 -0.45381156 -0.0022294829 0.3297132 -0.53348744 0.0022294847 0.17334044 
		-0.45381156 0.0022294847 0.3297132 -0.32971337 0.0022294847 0.45381126 -0.17334062 
		0.0022294847 0.5334872 -6.6869433e-08 0.0022294847 0.56094158 0.17334044 0.0022294847 
		0.5334872 0.32971317 0.0022294847 0.4538112 0.45381123 0.0022294847 0.32971311 0.53348708 
		0.0022294847 0.17334037 0.56094146 0.0022294847 -1.0030414e-07 0.53348708 0.0022294847 
		-0.1733406 0.45381117 0.0022294847 -0.32971326 0.32971311 0.0022294847 -0.45381132 
		0.17334038 0.0022294847 -0.5334872 -5.0152071e-08 0.0022294847 -0.56094158 -0.17334048 
		0.0022294847 -0.53348714 -0.32971317 0.0022294847 -0.45381126 -0.45381123 0.0022294847 
		-0.3297132 -0.53348708 0.0022294847 -0.17334054 -0.56094146 0.0022294847 -1.0030414e-07 
		0.023886338 0.15770602 -0.0077611329 0.025115587 0.15770602 4.4910071e-09 0.023886349 
		0.15770602 0.0077611217 0.020318881 0.15770602 0.014762532 0.014762536 0.15770602 
		0.020318873 0.007761118 0.15770602 0.023886357 2.2455036e-09 0.15770602 0.025115557 
		-0.0077611264 0.15770602 0.023886342 -0.014762539 0.15770602 0.020318873 -0.02031887 
		0.15770602 0.014762526 -0.023886345 0.15770602 0.007761118 -0.025115587 0.15770602 
		4.4910071e-09 -0.023886345 0.15770602 -0.0077611282 -0.020318871 0.15770602 -0.014762534 
		-0.014762536 0.15770602 -0.020318871 -0.0077611199 0.15770602 -0.023886357 2.9940099e-09 
		0.15770602 -0.025115557 0.0077611441 0.15770602 -0.023886357 0.014762515 0.15770602 
		-0.020318873 0.020318935 0.15770602 -0.014762519 0.02388633 -0.15770602 -0.0077611329 
		0.020318935 -0.15770602 -0.014762519 0.014762515 -0.15770602 -0.020318873 0.0077611124 
		-0.15770602 -0.023886342;
	setAttr ".pt[166:181]" 2.9940099e-09 -0.15770602 -0.025115557 -0.0077611292 
		-0.15770602 -0.023886357 -0.014762536 -0.15770602 -0.020318881 -0.020318871 -0.15770602 
		-0.014762539 -0.023886345 -0.15770602 -0.0077611282 -0.025115587 -0.15770602 4.4910071e-09 
		-0.023886345 -0.15770602 0.007761118 -0.02031887 -0.15770602 0.014762526 -0.014762539 
		-0.15770602 0.020318873 -0.0077611264 -0.15770602 0.023886345 2.2455036e-09 -0.15770602 
		0.025115557 0.007761118 -0.15770602 0.023886357 0.014762536 -0.15770602 0.020318873 
		0.020318881 -0.15770602 0.014762526 0.023886345 -0.15770602 0.0077611217 0.025115587 
		-0.15770602 4.4910071e-09;
	setAttr -s 182 ".vt";
	setAttr ".vt[0:165]"  0.95105714 -1 -0.30901718 0.80901754 -1 -0.5877856
		 0.5877856 -1 -0.80901748 0.30901715 -1 -0.95105702 0 -1 -1.000000476837 -0.30901715 -1 -0.95105696
		 -0.58778548 -1 -0.8090173 -0.80901724 -1 -0.58778542 -0.95105678 -1 -0.30901706 -1.000000238419 -1 0
		 -0.95105678 -1 0.30901706 -0.80901718 -1 0.58778536 -0.58778536 -1 0.80901712 -0.30901706 -1 0.95105666
		 -2.9802322e-08 -1 1.000000119209 0.30901697 -1 0.9510566 0.58778524 -1 0.80901706
		 0.809017 -1 0.5877853 0.95105654 -1 0.309017 1 -1 0 0.95105714 1 -0.30901718 0.80901754 1 -0.5877856
		 0.5877856 1 -0.80901748 0.30901715 1 -0.95105702 0 1 -1.000000476837 -0.30901715 1 -0.95105696
		 -0.58778548 1 -0.8090173 -0.80901724 1 -0.58778542 -0.95105678 1 -0.30901706 -1.000000238419 1 0
		 -0.95105678 1 0.30901706 -0.80901718 1 0.58778536 -0.58778536 1 0.80901712 -0.30901706 1 0.95105666
		 -2.9802322e-08 1 1.000000119209 0.30901697 1 0.9510566 0.58778524 1 0.80901706 0.809017 1 0.5877853
		 0.95105654 1 0.309017 1 1 0 0 -1 0 0 1 0 0.95105714 -0.003625989 -0.30901718 0.80901754 -0.003625989 -0.5877856
		 0.5877856 -0.003625989 -0.80901748 0.30901715 -0.003625989 -0.95105702 0 -0.003625989 -1.000000476837
		 -0.30901715 -0.003625989 -0.95105696 -0.58778548 -0.003625989 -0.8090173 -0.80901724 -0.003625989 -0.58778542
		 -0.95105678 -0.003625989 -0.30901706 -1.000000238419 -0.003625989 0 -0.95105678 -0.003625989 0.30901706
		 -0.80901718 -0.003625989 0.58778536 -0.58778536 -0.003625989 0.80901712 -0.30901706 -0.003625989 0.95105666
		 -2.9802322e-08 -0.003625989 1.000000119209 0.30901697 -0.003625989 0.9510566 0.58778524 -0.003625989 0.80901706
		 0.809017 -0.003625989 0.5877853 0.95105654 -0.003625989 0.309017 1 -0.003625989 0
		 0.9510572 0.54181057 -0.30901718 1 0.54181057 0 0.95105654 0.54181057 0.309017 0.809017 0.54181057 0.5877853
		 0.58778524 0.54181057 0.80901706 0.30901697 0.54181057 0.9510566 -2.9802322e-08 0.54181057 1.000000119209
		 -0.30901706 0.54181057 0.95105666 -0.58778536 0.54181057 0.80901712 -0.80901718 0.54181057 0.58778536
		 -0.95105678 0.54181057 0.30901706 -1.000000238419 0.54181057 0 -0.95105678 0.54181057 -0.30901706
		 -0.80901724 0.54181057 -0.58778542 -0.58778548 0.54181057 -0.8090173 -0.30901715 0.54181057 -0.95105696
		 0 0.54181057 -1.000000476837 0.30901715 0.54181057 -0.95105696 0.5877856 0.54181057 -0.80901748
		 0.80901754 0.54181057 -0.5877856 0.95105714 -0.60952902 -0.30901718 0.80901754 -0.60952902 -0.5877856
		 0.5877856 -0.60952902 -0.80901754 0.30901715 -0.60952902 -0.95105708 0 -0.60952902 -1.000000476837
		 -0.30901715 -0.60952902 -0.95105696 -0.58778548 -0.60952902 -0.8090173 -0.8090173 -0.60952902 -0.58778542
		 -0.95105684 -0.60952902 -0.30901706 -1.000000238419 -0.60952902 0 -0.95105684 -0.60952902 0.30901706
		 -0.80901718 -0.60952902 0.58778536 -0.58778536 -0.60952902 0.80901718 -0.30901706 -0.60952902 0.95105666
		 -2.9802322e-08 -0.60952902 1.000000119209 0.309017 -0.60952902 0.9510566 0.58778524 -0.60952902 0.80901706
		 0.809017 -0.60952902 0.58778536 0.9510566 -0.60952902 0.309017 1 -0.60952902 0 0.95105714 -0.15796404 -0.30901718
		 1 -0.15796404 0 0.9510566 -0.15796404 0.309017 0.809017 -0.15796404 0.5877853 0.58778524 -0.15796404 0.80901706
		 0.309017 -0.15796404 0.9510566 -2.9802322e-08 -0.15796404 1.000000119209 -0.30901706 -0.15796404 0.95105666
		 -0.58778536 -0.15796404 0.80901718 -0.80901718 -0.15796404 0.58778536 -0.95105684 -0.15796404 0.30901706
		 -1.000000238419 -0.15796404 0 -0.95105684 -0.15796404 -0.30901706 -0.80901724 -0.15796404 -0.58778542
		 -0.58778548 -0.15796404 -0.8090173 -0.30901715 -0.15796404 -0.95105696 0 -0.15796404 -1.000000476837
		 0.30901715 -0.15796404 -0.95105708 0.5877856 -0.15796404 -0.80901748 0.80901754 -0.15796404 -0.5877856
		 0.95105714 0.10326376 -0.30901718 0.80901754 0.10326376 -0.5877856 0.5877856 0.10326376 -0.80901742
		 0.30901715 0.10326376 -0.95105696 0 0.10326376 -1.000000476837 -0.30901715 0.10326376 -0.95105696
		 -0.58778548 0.10326376 -0.8090173 -0.80901718 0.10326376 -0.58778542 -0.95105678 0.10326376 -0.30901706
		 -1.000000238419 0.10326376 0 -0.95105678 0.10326376 0.30901706 -0.80901712 0.10326376 0.58778536
		 -0.58778536 0.10326376 0.80901712 -0.30901706 0.10326376 0.9510566 -2.9802322e-08 0.10326376 1.000000119209
		 0.30901697 0.10326376 0.95105654 0.58778524 0.10326376 0.80901706 0.809017 0.10326376 0.5877853
		 0.95105654 0.10326376 0.309017 1 0.10326376 0 0.9510572 0.69448888 -0.30901718 1 0.69448888 0
		 0.95105654 0.69448888 0.309017 0.809017 0.69448888 0.5877853 0.58778524 0.69448888 0.80901706
		 0.309017 0.69448888 0.9510566 -2.9802322e-08 0.69448888 1.000000119209 -0.30901706 0.69448888 0.95105672
		 -0.58778536 0.69448888 0.80901718 -0.80901718 0.69448888 0.58778536 -0.95105684 0.69448888 0.30901706
		 -1.000000238419 0.69448888 0 -0.95105684 0.69448888 -0.30901706 -0.8090173 0.69448888 -0.58778548
		 -0.58778548 0.69448888 -0.80901736 -0.30901718 0.69448888 -0.95105696 0 0.69448888 -1.000000476837
		 0.30901718 0.69448888 -0.95105696 0.5877856 0.69448888 -0.80901754 0.80901754 0.69448888 -0.5877856
		 0.95105714 -0.77472246 -0.30901718 0.80901754 -0.77472246 -0.5877856 0.5877856 -0.77472246 -0.80901754
		 0.30901715 -0.77472246 -0.95105708;
	setAttr ".vt[166:181]" 0 -0.77472246 -1.000000476837 -0.30901715 -0.77472246 -0.95105696
		 -0.58778548 -0.77472246 -0.8090173 -0.8090173 -0.77472246 -0.58778542 -0.95105684 -0.77472246 -0.30901706
		 -1.000000238419 -0.77472246 0 -0.95105684 -0.77472246 0.30901706 -0.80901718 -0.77472246 0.58778536
		 -0.58778536 -0.77472246 0.80901718 -0.30901706 -0.77472246 0.95105666 -2.9802322e-08 -0.77472246 1.000000119209
		 0.309017 -0.77472246 0.9510566 0.58778524 -0.77472246 0.80901706 0.809017 -0.77472246 0.58778536
		 0.9510566 -0.77472246 0.309017 1 -0.77472246 0;
	setAttr -s 380 ".ed";
	setAttr ".ed[0:165]"  0 1 0 1 2 0 2 3 0 3 4 0 4 5 0 5 6 0 6 7 0 7 8 0 8 9 0
		 9 10 0 10 11 0 11 12 0 12 13 0 13 14 0 14 15 0 15 16 0 16 17 0 17 18 0 18 19 0 19 0 0
		 20 21 0 21 22 0 22 23 0 23 24 0 24 25 0 25 26 0 26 27 0 27 28 0 28 29 0 29 30 0 30 31 0
		 31 32 0 32 33 0 33 34 0 34 35 0 35 36 0 36 37 0 37 38 0 38 39 0 39 20 0 0 162 1 1 163 1
		 2 164 1 3 165 1 4 166 1 5 167 1 6 168 1 7 169 1 8 170 1 9 171 1 10 172 1 11 173 1
		 12 174 1 13 175 1 14 176 1 15 177 1 16 178 1 17 179 1 18 180 1 19 181 1 40 0 1 40 1 1
		 40 2 1 40 3 1 40 4 1 40 5 1 40 6 1 40 7 1 40 8 1 40 9 1 40 10 1 40 11 1 40 12 1 40 13 1
		 40 14 1 40 15 1 40 16 1 40 17 1 40 18 1 40 19 1 20 41 1 21 41 1 22 41 1 23 41 1 24 41 1
		 25 41 1 26 41 1 27 41 1 28 41 1 29 41 1 30 41 1 31 41 1 32 41 1 33 41 1 34 41 1 35 41 1
		 36 41 1 37 41 1 38 41 1 39 41 1 42 122 1 43 123 1 44 124 1 45 125 1 46 126 1 47 127 1
		 48 128 1 49 129 1 50 130 1 51 131 1 52 132 1 53 133 1 54 134 1 55 135 1 56 136 1
		 57 137 1 58 138 1 59 139 1 60 140 1 61 141 1 42 43 1 43 44 1 44 45 1 45 46 1 46 47 1
		 47 48 1 48 49 1 49 50 1 50 51 1 51 52 1 52 53 1 53 54 1 54 55 1 55 56 1 56 57 1 57 58 1
		 58 59 1 59 60 1 60 61 1 61 42 1 62 142 1 63 143 1 64 144 1 65 145 1 66 146 1 67 147 1
		 68 148 1 69 149 1 70 150 1 71 151 1 72 152 1 73 153 1 74 154 1 75 155 1 76 156 1
		 77 157 1 78 158 1 79 159 1 80 160 1 81 161 1 62 63 1 63 64 1 64 65 1 65 66 1 66 67 1
		 67 68 1;
	setAttr ".ed[166:331]" 68 69 1 69 70 1 70 71 1 71 72 1 72 73 1 73 74 1 74 75 1
		 75 76 1 76 77 1 77 78 1 78 79 1 79 80 1 80 81 1 81 62 1 82 102 1 83 121 1 84 120 1
		 85 119 1 86 118 1 87 117 1 88 116 1 89 115 1 90 114 1 91 113 1 92 112 1 93 111 1
		 94 110 1 95 109 1 96 108 1 97 107 1 98 106 1 99 105 1 100 104 1 101 103 1 82 83 1
		 83 84 1 84 85 1 85 86 1 86 87 1 87 88 1 88 89 1 89 90 1 90 91 1 91 92 1 92 93 1 93 94 1
		 94 95 1 95 96 1 96 97 1 97 98 1 98 99 1 99 100 1 100 101 1 101 82 1 102 42 1 103 61 1
		 104 60 1 105 59 1 106 58 1 107 57 1 108 56 1 109 55 1 110 54 1 111 53 1 112 52 1
		 113 51 1 114 50 1 115 49 1 116 48 1 117 47 1 118 46 1 119 45 1 120 44 1 121 43 1
		 102 103 1 103 104 1 104 105 1 105 106 1 106 107 1 107 108 1 108 109 1 109 110 1 110 111 1
		 111 112 1 112 113 1 113 114 1 114 115 1 115 116 1 116 117 1 117 118 1 118 119 1 119 120 1
		 120 121 1 121 102 1 122 62 1 123 81 1 124 80 1 125 79 1 126 78 1 127 77 1 128 76 1
		 129 75 1 130 74 1 131 73 1 132 72 1 133 71 1 134 70 1 135 69 1 136 68 1 137 67 1
		 138 66 1 139 65 1 140 64 1 141 63 1 122 123 1 123 124 1 124 125 1 125 126 1 126 127 1
		 127 128 1 128 129 1 129 130 1 130 131 1 131 132 1 132 133 1 133 134 1 134 135 1 135 136 1
		 136 137 1 137 138 1 138 139 1 139 140 1 140 141 1 141 122 1 142 20 1 143 39 1 144 38 1
		 145 37 1 146 36 1 147 35 1 148 34 1 149 33 1 150 32 1 151 31 1 152 30 1 153 29 1
		 154 28 1 155 27 1 156 26 1 157 25 1 158 24 1 159 23 1 160 22 1 161 21 1 142 143 1
		 143 144 1 144 145 1 145 146 1 146 147 1 147 148 1 148 149 1 149 150 1 150 151 1 151 152 1
		 152 153 1 153 154 1;
	setAttr ".ed[332:379]" 154 155 1 155 156 1 156 157 1 157 158 1 158 159 1 159 160 1
		 160 161 1 161 142 1 162 82 1 163 83 1 164 84 1 165 85 1 166 86 1 167 87 1 168 88 1
		 169 89 1 170 90 1 171 91 1 172 92 1 173 93 1 174 94 1 175 95 1 176 96 1 177 97 1
		 178 98 1 179 99 1 180 100 1 181 101 1 162 163 1 163 164 1 164 165 1 165 166 1 166 167 1
		 167 168 1 168 169 1 169 170 1 170 171 1 171 172 1 172 173 1 173 174 1 174 175 1 175 176 1
		 176 177 1 177 178 1 178 179 1 179 180 1 180 181 1 181 162 1;
	setAttr -s 200 -ch 760 ".fc[0:199]" -type "polyFaces" 
		f 4 280 261 179 -261
		mu 0 4 169 170 125 106
		f 4 281 262 178 -262
		mu 0 4 170 171 124 125
		f 4 282 263 177 -263
		mu 0 4 171 172 123 124
		f 4 283 264 176 -264
		mu 0 4 172 173 122 123
		f 4 284 265 175 -265
		mu 0 4 173 174 121 122
		f 4 285 266 174 -266
		mu 0 4 174 175 120 121
		f 4 286 267 173 -267
		mu 0 4 175 176 119 120
		f 4 287 268 172 -268
		mu 0 4 176 177 118 119
		f 4 288 269 171 -269
		mu 0 4 177 178 117 118
		f 4 289 270 170 -270
		mu 0 4 178 179 116 117
		f 4 290 271 169 -271
		mu 0 4 179 180 115 116
		f 4 291 272 168 -272
		mu 0 4 180 181 114 115
		f 4 292 273 167 -273
		mu 0 4 181 182 113 114
		f 4 293 274 166 -274
		mu 0 4 182 183 112 113
		f 4 294 275 165 -275
		mu 0 4 183 184 111 112
		f 4 295 276 164 -276
		mu 0 4 184 185 110 111
		f 4 296 277 163 -277
		mu 0 4 185 186 109 110
		f 4 297 278 162 -278
		mu 0 4 186 187 108 109
		f 4 298 279 161 -279
		mu 0 4 187 188 107 108
		f 4 299 260 160 -280
		mu 0 4 188 168 105 107
		f 3 -1 -61 61
		mu 0 3 1 0 82
		f 3 -2 -62 62
		mu 0 3 2 1 82
		f 3 -3 -63 63
		mu 0 3 3 2 82
		f 3 -4 -64 64
		mu 0 3 4 3 82
		f 3 -5 -65 65
		mu 0 3 5 4 82
		f 3 -6 -66 66
		mu 0 3 6 5 82
		f 3 -7 -67 67
		mu 0 3 7 6 82
		f 3 -8 -68 68
		mu 0 3 8 7 82
		f 3 -9 -69 69
		mu 0 3 9 8 82
		f 3 -10 -70 70
		mu 0 3 10 9 82
		f 3 -11 -71 71
		mu 0 3 11 10 82
		f 3 -12 -72 72
		mu 0 3 12 11 82
		f 3 -13 -73 73
		mu 0 3 13 12 82
		f 3 -14 -74 74
		mu 0 3 14 13 82
		f 3 -15 -75 75
		mu 0 3 15 14 82
		f 3 -16 -76 76
		mu 0 3 16 15 82
		f 3 -17 -77 77
		mu 0 3 17 16 82
		f 3 -18 -78 78
		mu 0 3 18 17 82
		f 3 -19 -79 79
		mu 0 3 19 18 82
		f 3 -20 -80 60
		mu 0 3 0 19 82
		f 3 20 81 -81
		mu 0 3 80 79 83
		f 3 21 82 -82
		mu 0 3 79 78 83
		f 3 22 83 -83
		mu 0 3 78 77 83
		f 3 23 84 -84
		mu 0 3 77 76 83
		f 3 24 85 -85
		mu 0 3 76 75 83
		f 3 25 86 -86
		mu 0 3 75 74 83
		f 3 26 87 -87
		mu 0 3 74 73 83
		f 3 27 88 -88
		mu 0 3 73 72 83
		f 3 28 89 -89
		mu 0 3 72 71 83
		f 3 29 90 -90
		mu 0 3 71 70 83
		f 3 30 91 -91
		mu 0 3 70 69 83
		f 3 31 92 -92
		mu 0 3 69 68 83
		f 3 32 93 -93
		mu 0 3 68 67 83
		f 3 33 94 -94
		mu 0 3 67 66 83
		f 3 34 95 -95
		mu 0 3 66 65 83
		f 3 35 96 -96
		mu 0 3 65 64 83
		f 3 36 97 -97
		mu 0 3 64 63 83
		f 3 37 98 -98
		mu 0 3 63 62 83
		f 3 38 99 -99
		mu 0 3 62 81 83
		f 3 39 80 -100
		mu 0 3 81 80 83
		f 4 200 181 259 -181
		mu 0 4 127 128 167 148
		f 4 201 182 258 -182
		mu 0 4 128 129 166 167
		f 4 202 183 257 -183
		mu 0 4 129 130 165 166
		f 4 203 184 256 -184
		mu 0 4 130 131 164 165
		f 4 204 185 255 -185
		mu 0 4 131 132 163 164
		f 4 205 186 254 -186
		mu 0 4 132 133 162 163
		f 4 206 187 253 -187
		mu 0 4 133 134 161 162
		f 4 207 188 252 -188
		mu 0 4 134 135 160 161
		f 4 208 189 251 -189
		mu 0 4 135 136 159 160
		f 4 209 190 250 -190
		mu 0 4 136 137 158 159
		f 4 210 191 249 -191
		mu 0 4 137 138 157 158
		f 4 211 192 248 -192
		mu 0 4 138 139 156 157
		f 4 212 193 247 -193
		mu 0 4 139 140 155 156
		f 4 213 194 246 -194
		mu 0 4 140 141 154 155
		f 4 214 195 245 -195
		mu 0 4 141 142 153 154
		f 4 215 196 244 -196
		mu 0 4 142 143 152 153
		f 4 216 197 243 -197
		mu 0 4 143 144 151 152
		f 4 217 198 242 -198
		mu 0 4 144 145 150 151
		f 4 218 199 241 -199
		mu 0 4 145 146 149 150
		f 4 219 180 240 -200
		mu 0 4 146 126 147 149
		f 4 -161 140 320 -142
		mu 0 4 107 105 189 191
		f 4 -162 141 321 -143
		mu 0 4 108 107 191 192
		f 4 -163 142 322 -144
		mu 0 4 109 108 192 193
		f 4 -164 143 323 -145
		mu 0 4 110 109 193 194
		f 4 -165 144 324 -146
		mu 0 4 111 110 194 195
		f 4 -166 145 325 -147
		mu 0 4 112 111 195 196
		f 4 -167 146 326 -148
		mu 0 4 113 112 196 197
		f 4 -168 147 327 -149
		mu 0 4 114 113 197 198
		f 4 -169 148 328 -150
		mu 0 4 115 114 198 199
		f 4 -170 149 329 -151
		mu 0 4 116 115 199 200
		f 4 -171 150 330 -152
		mu 0 4 117 116 200 201
		f 4 -172 151 331 -153
		mu 0 4 118 117 201 202
		f 4 -173 152 332 -154
		mu 0 4 119 118 202 203
		f 4 -174 153 333 -155
		mu 0 4 120 119 203 204
		f 4 -175 154 334 -156
		mu 0 4 121 120 204 205
		f 4 -176 155 335 -157
		mu 0 4 122 121 205 206
		f 4 -177 156 336 -158
		mu 0 4 123 122 206 207
		f 4 -178 157 337 -159
		mu 0 4 124 123 207 208
		f 4 -179 158 338 -160
		mu 0 4 125 124 208 209
		f 4 -180 159 339 -141
		mu 0 4 106 125 209 190
		f 4 360 341 -201 -341
		mu 0 4 211 212 128 127
		f 4 361 342 -202 -342
		mu 0 4 212 213 129 128
		f 4 362 343 -203 -343
		mu 0 4 213 214 130 129
		f 4 363 344 -204 -344
		mu 0 4 214 215 131 130
		f 4 364 345 -205 -345
		mu 0 4 215 216 132 131
		f 4 365 346 -206 -346
		mu 0 4 216 217 133 132
		f 4 366 347 -207 -347
		mu 0 4 217 218 134 133
		f 4 367 348 -208 -348
		mu 0 4 218 219 135 134
		f 4 368 349 -209 -349
		mu 0 4 219 220 136 135
		f 4 369 350 -210 -350
		mu 0 4 220 221 137 136
		f 4 370 351 -211 -351
		mu 0 4 221 222 138 137
		f 4 371 352 -212 -352
		mu 0 4 222 223 139 138
		f 4 372 353 -213 -353
		mu 0 4 223 224 140 139
		f 4 373 354 -214 -354
		mu 0 4 224 225 141 140
		f 4 374 355 -215 -355
		mu 0 4 225 226 142 141
		f 4 375 356 -216 -356
		mu 0 4 226 227 143 142
		f 4 376 357 -217 -357
		mu 0 4 227 228 144 143
		f 4 377 358 -218 -358
		mu 0 4 228 229 145 144
		f 4 378 359 -219 -359
		mu 0 4 229 230 146 145
		f 4 379 340 -220 -360
		mu 0 4 230 210 126 146
		f 4 -241 220 -140 -222
		mu 0 4 149 147 84 104
		f 4 -242 221 -139 -223
		mu 0 4 150 149 104 103
		f 4 -243 222 -138 -224
		mu 0 4 151 150 103 102
		f 4 -244 223 -137 -225
		mu 0 4 152 151 102 101
		f 4 -245 224 -136 -226
		mu 0 4 153 152 101 100
		f 4 -246 225 -135 -227
		mu 0 4 154 153 100 99
		f 4 -247 226 -134 -228
		mu 0 4 155 154 99 98
		f 4 -248 227 -133 -229
		mu 0 4 156 155 98 97
		f 4 -249 228 -132 -230
		mu 0 4 157 156 97 96
		f 4 -250 229 -131 -231
		mu 0 4 158 157 96 95
		f 4 -251 230 -130 -232
		mu 0 4 159 158 95 94
		f 4 -252 231 -129 -233
		mu 0 4 160 159 94 93
		f 4 -253 232 -128 -234
		mu 0 4 161 160 93 92
		f 4 -254 233 -127 -235
		mu 0 4 162 161 92 91
		f 4 -255 234 -126 -236
		mu 0 4 163 162 91 90
		f 4 -256 235 -125 -237
		mu 0 4 164 163 90 89
		f 4 -257 236 -124 -238
		mu 0 4 165 164 89 88
		f 4 -258 237 -123 -239
		mu 0 4 166 165 88 87
		f 4 -259 238 -122 -240
		mu 0 4 167 166 87 86
		f 4 -260 239 -121 -221
		mu 0 4 148 167 86 85
		f 4 120 101 -281 -101
		mu 0 4 85 86 170 169
		f 4 121 102 -282 -102
		mu 0 4 86 87 171 170
		f 4 122 103 -283 -103
		mu 0 4 87 88 172 171
		f 4 123 104 -284 -104
		mu 0 4 88 89 173 172
		f 4 124 105 -285 -105
		mu 0 4 89 90 174 173
		f 4 125 106 -286 -106
		mu 0 4 90 91 175 174
		f 4 126 107 -287 -107
		mu 0 4 91 92 176 175
		f 4 127 108 -288 -108
		mu 0 4 92 93 177 176
		f 4 128 109 -289 -109
		mu 0 4 93 94 178 177
		f 4 129 110 -290 -110
		mu 0 4 94 95 179 178
		f 4 130 111 -291 -111
		mu 0 4 95 96 180 179
		f 4 131 112 -292 -112
		mu 0 4 96 97 181 180
		f 4 132 113 -293 -113
		mu 0 4 97 98 182 181
		f 4 133 114 -294 -114
		mu 0 4 98 99 183 182
		f 4 134 115 -295 -115
		mu 0 4 99 100 184 183
		f 4 135 116 -296 -116
		mu 0 4 100 101 185 184
		f 4 136 117 -297 -117
		mu 0 4 101 102 186 185
		f 4 137 118 -298 -118
		mu 0 4 102 103 187 186
		f 4 138 119 -299 -119
		mu 0 4 103 104 188 187
		f 4 139 100 -300 -120
		mu 0 4 104 84 168 188
		f 4 -321 300 -40 -302
		mu 0 4 191 189 61 60
		f 4 -322 301 -39 -303
		mu 0 4 192 191 60 59
		f 4 -323 302 -38 -304
		mu 0 4 193 192 59 58
		f 4 -324 303 -37 -305
		mu 0 4 194 193 58 57
		f 4 -325 304 -36 -306
		mu 0 4 195 194 57 56
		f 4 -326 305 -35 -307
		mu 0 4 196 195 56 55
		f 4 -327 306 -34 -308
		mu 0 4 197 196 55 54
		f 4 -328 307 -33 -309
		mu 0 4 198 197 54 53
		f 4 -329 308 -32 -310
		mu 0 4 199 198 53 52
		f 4 -330 309 -31 -311
		mu 0 4 200 199 52 51
		f 4 -331 310 -30 -312
		mu 0 4 201 200 51 50
		f 4 -332 311 -29 -313
		mu 0 4 202 201 50 49
		f 4 -333 312 -28 -314
		mu 0 4 203 202 49 48
		f 4 -334 313 -27 -315
		mu 0 4 204 203 48 47
		f 4 -335 314 -26 -316
		mu 0 4 205 204 47 46
		f 4 -336 315 -25 -317
		mu 0 4 206 205 46 45
		f 4 -337 316 -24 -318
		mu 0 4 207 206 45 44
		f 4 -338 317 -23 -319
		mu 0 4 208 207 44 43
		f 4 -339 318 -22 -320
		mu 0 4 209 208 43 42
		f 4 -340 319 -21 -301
		mu 0 4 190 209 42 41
		f 4 0 41 -361 -41
		mu 0 4 20 21 212 211
		f 4 1 42 -362 -42
		mu 0 4 21 22 213 212
		f 4 2 43 -363 -43
		mu 0 4 22 23 214 213
		f 4 3 44 -364 -44
		mu 0 4 23 24 215 214
		f 4 4 45 -365 -45
		mu 0 4 24 25 216 215
		f 4 5 46 -366 -46
		mu 0 4 25 26 217 216
		f 4 6 47 -367 -47
		mu 0 4 26 27 218 217
		f 4 7 48 -368 -48
		mu 0 4 27 28 219 218
		f 4 8 49 -369 -49
		mu 0 4 28 29 220 219
		f 4 9 50 -370 -50
		mu 0 4 29 30 221 220
		f 4 10 51 -371 -51
		mu 0 4 30 31 222 221
		f 4 11 52 -372 -52
		mu 0 4 31 32 223 222
		f 4 12 53 -373 -53
		mu 0 4 32 33 224 223
		f 4 13 54 -374 -54
		mu 0 4 33 34 225 224
		f 4 14 55 -375 -55
		mu 0 4 34 35 226 225
		f 4 15 56 -376 -56
		mu 0 4 35 36 227 226
		f 4 16 57 -377 -57
		mu 0 4 36 37 228 227
		f 4 17 58 -378 -58
		mu 0 4 37 38 229 228
		f 4 18 59 -379 -59
		mu 0 4 38 39 230 229
		f 4 19 40 -380 -60
		mu 0 4 39 40 210 230;
	setAttr ".cd" -type "dataPolyComponent" Index_Data Edge 0 ;
	setAttr ".cvd" -type "dataPolyComponent" Index_Data Vertex 0 ;
	setAttr ".pd[0]" -type "dataPolyComponent" Index_Data UV 0 ;
	setAttr ".hfd" -type "dataPolyComponent" Index_Data Face 0 ;
	setAttr ".ai_translator" -type "string" "polymesh";
createNode lightLinker -s -n "lightLinker1";
	rename -uid "884CF666-471C-5BCA-44D6-13ABAD6FC8B1";
	setAttr -s 2 ".lnk";
	setAttr -s 2 ".slnk";
createNode shapeEditorManager -n "shapeEditorManager";
	rename -uid "C805C755-4A74-F026-F0DE-A3A6724703EA";
createNode poseInterpolatorManager -n "poseInterpolatorManager";
	rename -uid "E6A56B90-405E-1378-91C6-7888DF564D4F";
createNode displayLayerManager -n "layerManager";
	rename -uid "96870CB0-4B6E-D2F1-5DA1-469AA8EDFD9C";
createNode displayLayer -n "defaultLayer";
	rename -uid "2AB951B6-4B65-A6C1-F304-F99DFEB27B51";
createNode renderLayerManager -n "renderLayerManager";
	rename -uid "D3ADD4CC-4832-F74B-FB3A-95871BF93171";
createNode renderLayer -n "defaultRenderLayer";
	rename -uid "8F3FDDA3-483F-FBC2-12D6-7A9EE227A9A1";
	setAttr ".g" yes;
createNode script -n "uiConfigurationScriptNode";
	rename -uid "96F2898A-4399-3E81-27EB-1B973AFC71C2";
	setAttr ".b" -type "string" (
		"// Maya Mel UI Configuration File.\n//\n//  This script is machine generated.  Edit at your own risk.\n//\n//\n\nglobal string $gMainPane;\nif (`paneLayout -exists $gMainPane`) {\n\n\tglobal int $gUseScenePanelConfig;\n\tint    $useSceneConfig = $gUseScenePanelConfig;\n\tint    $nodeEditorPanelVisible = stringArrayContains(\"nodeEditorPanel1\", `getPanel -vis`);\n\tint    $nodeEditorWorkspaceControlOpen = (`workspaceControl -exists nodeEditorPanel1Window` && `workspaceControl -q -visible nodeEditorPanel1Window`);\n\tint    $menusOkayInPanels = `optionVar -q allowMenusInPanels`;\n\tint    $nVisPanes = `paneLayout -q -nvp $gMainPane`;\n\tint    $nPanes = 0;\n\tstring $editorName;\n\tstring $panelName;\n\tstring $itemFilterName;\n\tstring $panelConfig;\n\n\t//\n\t//  get current state of the UI\n\t//\n\tsceneUIReplacement -update $gMainPane;\n\n\t$panelName = `sceneUIReplacement -getNextPanel \"modelPanel\" (localizedPanelLabel(\"Top View\")) `;\n\tif (\"\" != $panelName) {\n\t\t$label = `panel -q -label $panelName`;\n\t\tmodelPanel -edit -l (localizedPanelLabel(\"Top View\")) -mbv $menusOkayInPanels  $panelName;\n"
		+ "\t\t$editorName = $panelName;\n        modelEditor -e \n            -camera \"top\" \n            -useInteractiveMode 0\n            -displayLights \"default\" \n            -displayAppearance \"smoothShaded\" \n            -activeOnly 0\n            -ignorePanZoom 0\n            -wireframeOnShaded 0\n            -headsUpDisplay 1\n            -holdOuts 1\n            -selectionHiliteDisplay 1\n            -useDefaultMaterial 0\n            -bufferMode \"double\" \n            -twoSidedLighting 0\n            -backfaceCulling 0\n            -xray 0\n            -jointXray 0\n            -activeComponentsXray 0\n            -displayTextures 0\n            -smoothWireframe 0\n            -lineWidth 1\n            -textureAnisotropic 0\n            -textureHilight 1\n            -textureSampling 2\n            -textureDisplay \"modulate\" \n            -textureMaxSize 32768\n            -fogging 0\n            -fogSource \"fragment\" \n            -fogMode \"linear\" \n            -fogStart 0\n            -fogEnd 100\n            -fogDensity 0.1\n            -fogColor 0.5 0.5 0.5 1 \n"
		+ "            -depthOfFieldPreview 1\n            -maxConstantTransparency 1\n            -rendererName \"vp2Renderer\" \n            -objectFilterShowInHUD 1\n            -isFiltered 0\n            -colorResolution 256 256 \n            -bumpResolution 512 512 \n            -textureCompression 0\n            -transparencyAlgorithm \"frontAndBackCull\" \n            -transpInShadows 0\n            -cullingOverride \"none\" \n            -lowQualityLighting 0\n            -maximumNumHardwareLights 1\n            -occlusionCulling 0\n            -shadingModel 0\n            -useBaseRenderer 0\n            -useReducedRenderer 0\n            -smallObjectCulling 0\n            -smallObjectThreshold -1 \n            -interactiveDisableShadows 0\n            -interactiveBackFaceCull 0\n            -sortTransparent 1\n            -controllers 1\n            -nurbsCurves 1\n            -nurbsSurfaces 1\n            -polymeshes 1\n            -subdivSurfaces 1\n            -planes 1\n            -lights 1\n            -cameras 1\n            -controlVertices 1\n"
		+ "            -hulls 1\n            -grid 1\n            -imagePlane 1\n            -joints 1\n            -ikHandles 1\n            -deformers 1\n            -dynamics 1\n            -particleInstancers 1\n            -fluids 1\n            -hairSystems 1\n            -follicles 1\n            -nCloths 1\n            -nParticles 1\n            -nRigids 1\n            -dynamicConstraints 1\n            -locators 1\n            -manipulators 1\n            -pluginShapes 1\n            -dimensions 1\n            -handles 1\n            -pivots 1\n            -textures 1\n            -strokes 1\n            -motionTrails 1\n            -clipGhosts 1\n            -greasePencils 1\n            -shadows 0\n            -captureSequenceNumber -1\n            -width 1\n            -height 1\n            -sceneRenderFilter 0\n            $editorName;\n        modelEditor -e -viewSelected 0 $editorName;\n        modelEditor -e \n            -pluginObjects \"gpuCacheDisplayFilter\" 1 \n            $editorName;\n\t\tif (!$useSceneConfig) {\n\t\t\tpanel -e -l $label $panelName;\n"
		+ "\t\t}\n\t}\n\n\n\t$panelName = `sceneUIReplacement -getNextPanel \"modelPanel\" (localizedPanelLabel(\"Side View\")) `;\n\tif (\"\" != $panelName) {\n\t\t$label = `panel -q -label $panelName`;\n\t\tmodelPanel -edit -l (localizedPanelLabel(\"Side View\")) -mbv $menusOkayInPanels  $panelName;\n\t\t$editorName = $panelName;\n        modelEditor -e \n            -camera \"side\" \n            -useInteractiveMode 0\n            -displayLights \"default\" \n            -displayAppearance \"smoothShaded\" \n            -activeOnly 0\n            -ignorePanZoom 0\n            -wireframeOnShaded 0\n            -headsUpDisplay 1\n            -holdOuts 1\n            -selectionHiliteDisplay 1\n            -useDefaultMaterial 0\n            -bufferMode \"double\" \n            -twoSidedLighting 0\n            -backfaceCulling 0\n            -xray 0\n            -jointXray 0\n            -activeComponentsXray 0\n            -displayTextures 0\n            -smoothWireframe 0\n            -lineWidth 1\n            -textureAnisotropic 0\n            -textureHilight 1\n            -textureSampling 2\n"
		+ "            -textureDisplay \"modulate\" \n            -textureMaxSize 32768\n            -fogging 0\n            -fogSource \"fragment\" \n            -fogMode \"linear\" \n            -fogStart 0\n            -fogEnd 100\n            -fogDensity 0.1\n            -fogColor 0.5 0.5 0.5 1 \n            -depthOfFieldPreview 1\n            -maxConstantTransparency 1\n            -rendererName \"vp2Renderer\" \n            -objectFilterShowInHUD 1\n            -isFiltered 0\n            -colorResolution 256 256 \n            -bumpResolution 512 512 \n            -textureCompression 0\n            -transparencyAlgorithm \"frontAndBackCull\" \n            -transpInShadows 0\n            -cullingOverride \"none\" \n            -lowQualityLighting 0\n            -maximumNumHardwareLights 1\n            -occlusionCulling 0\n            -shadingModel 0\n            -useBaseRenderer 0\n            -useReducedRenderer 0\n            -smallObjectCulling 0\n            -smallObjectThreshold -1 \n            -interactiveDisableShadows 0\n            -interactiveBackFaceCull 0\n"
		+ "            -sortTransparent 1\n            -controllers 1\n            -nurbsCurves 1\n            -nurbsSurfaces 1\n            -polymeshes 1\n            -subdivSurfaces 1\n            -planes 1\n            -lights 1\n            -cameras 1\n            -controlVertices 1\n            -hulls 1\n            -grid 1\n            -imagePlane 1\n            -joints 1\n            -ikHandles 1\n            -deformers 1\n            -dynamics 1\n            -particleInstancers 1\n            -fluids 1\n            -hairSystems 1\n            -follicles 1\n            -nCloths 1\n            -nParticles 1\n            -nRigids 1\n            -dynamicConstraints 1\n            -locators 1\n            -manipulators 1\n            -pluginShapes 1\n            -dimensions 1\n            -handles 1\n            -pivots 1\n            -textures 1\n            -strokes 1\n            -motionTrails 1\n            -clipGhosts 1\n            -greasePencils 1\n            -shadows 0\n            -captureSequenceNumber -1\n            -width 1\n            -height 1\n"
		+ "            -sceneRenderFilter 0\n            $editorName;\n        modelEditor -e -viewSelected 0 $editorName;\n        modelEditor -e \n            -pluginObjects \"gpuCacheDisplayFilter\" 1 \n            $editorName;\n\t\tif (!$useSceneConfig) {\n\t\t\tpanel -e -l $label $panelName;\n\t\t}\n\t}\n\n\n\t$panelName = `sceneUIReplacement -getNextPanel \"modelPanel\" (localizedPanelLabel(\"Front View\")) `;\n\tif (\"\" != $panelName) {\n\t\t$label = `panel -q -label $panelName`;\n\t\tmodelPanel -edit -l (localizedPanelLabel(\"Front View\")) -mbv $menusOkayInPanels  $panelName;\n\t\t$editorName = $panelName;\n        modelEditor -e \n            -camera \"front\" \n            -useInteractiveMode 0\n            -displayLights \"default\" \n            -displayAppearance \"smoothShaded\" \n            -activeOnly 0\n            -ignorePanZoom 0\n            -wireframeOnShaded 0\n            -headsUpDisplay 1\n            -holdOuts 1\n            -selectionHiliteDisplay 1\n            -useDefaultMaterial 0\n            -bufferMode \"double\" \n            -twoSidedLighting 0\n            -backfaceCulling 0\n"
		+ "            -xray 0\n            -jointXray 0\n            -activeComponentsXray 0\n            -displayTextures 0\n            -smoothWireframe 0\n            -lineWidth 1\n            -textureAnisotropic 0\n            -textureHilight 1\n            -textureSampling 2\n            -textureDisplay \"modulate\" \n            -textureMaxSize 32768\n            -fogging 0\n            -fogSource \"fragment\" \n            -fogMode \"linear\" \n            -fogStart 0\n            -fogEnd 100\n            -fogDensity 0.1\n            -fogColor 0.5 0.5 0.5 1 \n            -depthOfFieldPreview 1\n            -maxConstantTransparency 1\n            -rendererName \"vp2Renderer\" \n            -objectFilterShowInHUD 1\n            -isFiltered 0\n            -colorResolution 256 256 \n            -bumpResolution 512 512 \n            -textureCompression 0\n            -transparencyAlgorithm \"frontAndBackCull\" \n            -transpInShadows 0\n            -cullingOverride \"none\" \n            -lowQualityLighting 0\n            -maximumNumHardwareLights 1\n            -occlusionCulling 0\n"
		+ "            -shadingModel 0\n            -useBaseRenderer 0\n            -useReducedRenderer 0\n            -smallObjectCulling 0\n            -smallObjectThreshold -1 \n            -interactiveDisableShadows 0\n            -interactiveBackFaceCull 0\n            -sortTransparent 1\n            -controllers 1\n            -nurbsCurves 1\n            -nurbsSurfaces 1\n            -polymeshes 1\n            -subdivSurfaces 1\n            -planes 1\n            -lights 1\n            -cameras 1\n            -controlVertices 1\n            -hulls 1\n            -grid 1\n            -imagePlane 1\n            -joints 1\n            -ikHandles 1\n            -deformers 1\n            -dynamics 1\n            -particleInstancers 1\n            -fluids 1\n            -hairSystems 1\n            -follicles 1\n            -nCloths 1\n            -nParticles 1\n            -nRigids 1\n            -dynamicConstraints 1\n            -locators 1\n            -manipulators 1\n            -pluginShapes 1\n            -dimensions 1\n            -handles 1\n            -pivots 1\n"
		+ "            -textures 1\n            -strokes 1\n            -motionTrails 1\n            -clipGhosts 1\n            -greasePencils 1\n            -shadows 0\n            -captureSequenceNumber -1\n            -width 1\n            -height 1\n            -sceneRenderFilter 0\n            $editorName;\n        modelEditor -e -viewSelected 0 $editorName;\n        modelEditor -e \n            -pluginObjects \"gpuCacheDisplayFilter\" 1 \n            $editorName;\n\t\tif (!$useSceneConfig) {\n\t\t\tpanel -e -l $label $panelName;\n\t\t}\n\t}\n\n\n\t$panelName = `sceneUIReplacement -getNextPanel \"modelPanel\" (localizedPanelLabel(\"Persp View\")) `;\n\tif (\"\" != $panelName) {\n\t\t$label = `panel -q -label $panelName`;\n\t\tmodelPanel -edit -l (localizedPanelLabel(\"Persp View\")) -mbv $menusOkayInPanels  $panelName;\n\t\t$editorName = $panelName;\n        modelEditor -e \n            -camera \"persp\" \n            -useInteractiveMode 0\n            -displayLights \"default\" \n            -displayAppearance \"smoothShaded\" \n            -activeOnly 0\n            -ignorePanZoom 0\n"
		+ "            -wireframeOnShaded 0\n            -headsUpDisplay 1\n            -holdOuts 1\n            -selectionHiliteDisplay 1\n            -useDefaultMaterial 0\n            -bufferMode \"double\" \n            -twoSidedLighting 0\n            -backfaceCulling 0\n            -xray 0\n            -jointXray 0\n            -activeComponentsXray 0\n            -displayTextures 0\n            -smoothWireframe 0\n            -lineWidth 1\n            -textureAnisotropic 0\n            -textureHilight 1\n            -textureSampling 2\n            -textureDisplay \"modulate\" \n            -textureMaxSize 32768\n            -fogging 0\n            -fogSource \"fragment\" \n            -fogMode \"linear\" \n            -fogStart 0\n            -fogEnd 100\n            -fogDensity 0.1\n            -fogColor 0.5 0.5 0.5 1 \n            -depthOfFieldPreview 1\n            -maxConstantTransparency 1\n            -rendererName \"vp2Renderer\" \n            -objectFilterShowInHUD 1\n            -isFiltered 0\n            -colorResolution 256 256 \n            -bumpResolution 512 512 \n"
		+ "            -textureCompression 0\n            -transparencyAlgorithm \"frontAndBackCull\" \n            -transpInShadows 0\n            -cullingOverride \"none\" \n            -lowQualityLighting 0\n            -maximumNumHardwareLights 1\n            -occlusionCulling 0\n            -shadingModel 0\n            -useBaseRenderer 0\n            -useReducedRenderer 0\n            -smallObjectCulling 0\n            -smallObjectThreshold -1 \n            -interactiveDisableShadows 0\n            -interactiveBackFaceCull 0\n            -sortTransparent 1\n            -controllers 1\n            -nurbsCurves 1\n            -nurbsSurfaces 1\n            -polymeshes 1\n            -subdivSurfaces 1\n            -planes 1\n            -lights 1\n            -cameras 1\n            -controlVertices 1\n            -hulls 1\n            -grid 1\n            -imagePlane 1\n            -joints 1\n            -ikHandles 1\n            -deformers 1\n            -dynamics 1\n            -particleInstancers 1\n            -fluids 1\n            -hairSystems 1\n            -follicles 1\n"
		+ "            -nCloths 1\n            -nParticles 1\n            -nRigids 1\n            -dynamicConstraints 1\n            -locators 1\n            -manipulators 1\n            -pluginShapes 1\n            -dimensions 1\n            -handles 1\n            -pivots 1\n            -textures 1\n            -strokes 1\n            -motionTrails 1\n            -clipGhosts 1\n            -greasePencils 1\n            -shadows 0\n            -captureSequenceNumber -1\n            -width 1419\n            -height 525\n            -sceneRenderFilter 0\n            $editorName;\n        modelEditor -e -viewSelected 0 $editorName;\n        modelEditor -e \n            -pluginObjects \"gpuCacheDisplayFilter\" 1 \n            $editorName;\n\t\tif (!$useSceneConfig) {\n\t\t\tpanel -e -l $label $panelName;\n\t\t}\n\t}\n\n\n\t$panelName = `sceneUIReplacement -getNextPanel \"outlinerPanel\" (localizedPanelLabel(\"ToggledOutliner\")) `;\n\tif (\"\" != $panelName) {\n\t\t$label = `panel -q -label $panelName`;\n\t\toutlinerPanel -edit -l (localizedPanelLabel(\"ToggledOutliner\")) -mbv $menusOkayInPanels  $panelName;\n"
		+ "\t\t$editorName = $panelName;\n        outlinerEditor -e \n            -showShapes 0\n            -showAssignedMaterials 0\n            -showTimeEditor 1\n            -showReferenceNodes 1\n            -showReferenceMembers 1\n            -showAttributes 0\n            -showConnected 0\n            -showAnimCurvesOnly 0\n            -showMuteInfo 0\n            -organizeByLayer 1\n            -organizeByClip 1\n            -showAnimLayerWeight 1\n            -autoExpandLayers 1\n            -autoExpand 0\n            -showDagOnly 1\n            -showAssets 1\n            -showContainedOnly 1\n            -showPublishedAsConnected 0\n            -showParentContainers 0\n            -showContainerContents 1\n            -ignoreDagHierarchy 0\n            -expandConnections 0\n            -showUpstreamCurves 1\n            -showUnitlessCurves 1\n            -showCompounds 1\n            -showLeafs 1\n            -showNumericAttrsOnly 0\n            -highlightActive 1\n            -autoSelectNewObjects 0\n            -doNotSelectNewObjects 0\n            -dropIsParent 1\n"
		+ "            -transmitFilters 0\n            -setFilter \"defaultSetFilter\" \n            -showSetMembers 1\n            -allowMultiSelection 1\n            -alwaysToggleSelect 0\n            -directSelect 0\n            -isSet 0\n            -isSetMember 0\n            -displayMode \"DAG\" \n            -expandObjects 0\n            -setsIgnoreFilters 1\n            -containersIgnoreFilters 0\n            -editAttrName 0\n            -showAttrValues 0\n            -highlightSecondary 0\n            -showUVAttrsOnly 0\n            -showTextureNodesOnly 0\n            -attrAlphaOrder \"default\" \n            -animLayerFilterOptions \"allAffecting\" \n            -sortOrder \"none\" \n            -longNames 0\n            -niceNames 1\n            -showNamespace 1\n            -showPinIcons 0\n            -mapMotionTrails 0\n            -ignoreHiddenAttribute 0\n            -ignoreOutlinerColor 0\n            -renderFilterVisible 0\n            -renderFilterIndex 0\n            -selectionOrder \"chronological\" \n            -expandAttribute 0\n            $editorName;\n"
		+ "\t\tif (!$useSceneConfig) {\n\t\t\tpanel -e -l $label $panelName;\n\t\t}\n\t}\n\n\n\t$panelName = `sceneUIReplacement -getNextPanel \"outlinerPanel\" (localizedPanelLabel(\"Outliner\")) `;\n\tif (\"\" != $panelName) {\n\t\t$label = `panel -q -label $panelName`;\n\t\toutlinerPanel -edit -l (localizedPanelLabel(\"Outliner\")) -mbv $menusOkayInPanels  $panelName;\n\t\t$editorName = $panelName;\n        outlinerEditor -e \n            -showShapes 0\n            -showAssignedMaterials 0\n            -showTimeEditor 1\n            -showReferenceNodes 0\n            -showReferenceMembers 0\n            -showAttributes 0\n            -showConnected 0\n            -showAnimCurvesOnly 0\n            -showMuteInfo 0\n            -organizeByLayer 1\n            -organizeByClip 1\n            -showAnimLayerWeight 1\n            -autoExpandLayers 1\n            -autoExpand 0\n            -showDagOnly 1\n            -showAssets 1\n            -showContainedOnly 1\n            -showPublishedAsConnected 0\n            -showParentContainers 0\n            -showContainerContents 1\n            -ignoreDagHierarchy 0\n"
		+ "            -expandConnections 0\n            -showUpstreamCurves 1\n            -showUnitlessCurves 1\n            -showCompounds 1\n            -showLeafs 1\n            -showNumericAttrsOnly 0\n            -highlightActive 1\n            -autoSelectNewObjects 0\n            -doNotSelectNewObjects 0\n            -dropIsParent 1\n            -transmitFilters 0\n            -setFilter \"defaultSetFilter\" \n            -showSetMembers 1\n            -allowMultiSelection 1\n            -alwaysToggleSelect 0\n            -directSelect 0\n            -displayMode \"DAG\" \n            -expandObjects 0\n            -setsIgnoreFilters 1\n            -containersIgnoreFilters 0\n            -editAttrName 0\n            -showAttrValues 0\n            -highlightSecondary 0\n            -showUVAttrsOnly 0\n            -showTextureNodesOnly 0\n            -attrAlphaOrder \"default\" \n            -animLayerFilterOptions \"allAffecting\" \n            -sortOrder \"none\" \n            -longNames 0\n            -niceNames 1\n            -showNamespace 1\n            -showPinIcons 0\n"
		+ "            -mapMotionTrails 0\n            -ignoreHiddenAttribute 0\n            -ignoreOutlinerColor 0\n            -renderFilterVisible 0\n            $editorName;\n\t\tif (!$useSceneConfig) {\n\t\t\tpanel -e -l $label $panelName;\n\t\t}\n\t}\n\n\n\t$panelName = `sceneUIReplacement -getNextScriptedPanel \"graphEditor\" (localizedPanelLabel(\"Graph Editor\")) `;\n\tif (\"\" != $panelName) {\n\t\t$label = `panel -q -label $panelName`;\n\t\tscriptedPanel -edit -l (localizedPanelLabel(\"Graph Editor\")) -mbv $menusOkayInPanels  $panelName;\n\n\t\t\t$editorName = ($panelName+\"OutlineEd\");\n            outlinerEditor -e \n                -showShapes 1\n                -showAssignedMaterials 0\n                -showTimeEditor 1\n                -showReferenceNodes 0\n                -showReferenceMembers 0\n                -showAttributes 1\n                -showConnected 1\n                -showAnimCurvesOnly 1\n                -showMuteInfo 0\n                -organizeByLayer 1\n                -organizeByClip 1\n                -showAnimLayerWeight 1\n                -autoExpandLayers 1\n"
		+ "                -autoExpand 1\n                -showDagOnly 0\n                -showAssets 1\n                -showContainedOnly 0\n                -showPublishedAsConnected 0\n                -showParentContainers 0\n                -showContainerContents 0\n                -ignoreDagHierarchy 0\n                -expandConnections 1\n                -showUpstreamCurves 1\n                -showUnitlessCurves 1\n                -showCompounds 0\n                -showLeafs 1\n                -showNumericAttrsOnly 1\n                -highlightActive 0\n                -autoSelectNewObjects 1\n                -doNotSelectNewObjects 0\n                -dropIsParent 1\n                -transmitFilters 1\n                -setFilter \"0\" \n                -showSetMembers 0\n                -allowMultiSelection 1\n                -alwaysToggleSelect 0\n                -directSelect 0\n                -displayMode \"DAG\" \n                -expandObjects 0\n                -setsIgnoreFilters 1\n                -containersIgnoreFilters 0\n                -editAttrName 0\n"
		+ "                -showAttrValues 0\n                -highlightSecondary 0\n                -showUVAttrsOnly 0\n                -showTextureNodesOnly 0\n                -attrAlphaOrder \"default\" \n                -animLayerFilterOptions \"allAffecting\" \n                -sortOrder \"none\" \n                -longNames 0\n                -niceNames 1\n                -showNamespace 1\n                -showPinIcons 1\n                -mapMotionTrails 1\n                -ignoreHiddenAttribute 0\n                -ignoreOutlinerColor 0\n                -renderFilterVisible 0\n                $editorName;\n\n\t\t\t$editorName = ($panelName+\"GraphEd\");\n            animCurveEditor -e \n                -displayValues 0\n                -snapTime \"integer\" \n                -snapValue \"none\" \n                -showPlayRangeShades \"on\" \n                -lockPlayRangeShades \"off\" \n                -smoothness \"fine\" \n                -resultSamples 1\n                -resultScreenSamples 0\n                -resultUpdate \"delayed\" \n                -showUpstreamCurves 1\n"
		+ "                -keyMinScale 1\n                -stackedCurvesMin -1\n                -stackedCurvesMax 1\n                -stackedCurvesSpace 0.2\n                -preSelectionHighlight 0\n                -constrainDrag 0\n                -valueLinesToggle 1\n                -highlightAffectedCurves 0\n                $editorName;\n\t\tif (!$useSceneConfig) {\n\t\t\tpanel -e -l $label $panelName;\n\t\t}\n\t}\n\n\n\t$panelName = `sceneUIReplacement -getNextScriptedPanel \"dopeSheetPanel\" (localizedPanelLabel(\"Dope Sheet\")) `;\n\tif (\"\" != $panelName) {\n\t\t$label = `panel -q -label $panelName`;\n\t\tscriptedPanel -edit -l (localizedPanelLabel(\"Dope Sheet\")) -mbv $menusOkayInPanels  $panelName;\n\n\t\t\t$editorName = ($panelName+\"OutlineEd\");\n            outlinerEditor -e \n                -showShapes 1\n                -showAssignedMaterials 0\n                -showTimeEditor 1\n                -showReferenceNodes 0\n                -showReferenceMembers 0\n                -showAttributes 1\n                -showConnected 1\n                -showAnimCurvesOnly 1\n"
		+ "                -showMuteInfo 0\n                -organizeByLayer 1\n                -organizeByClip 1\n                -showAnimLayerWeight 1\n                -autoExpandLayers 1\n                -autoExpand 0\n                -showDagOnly 0\n                -showAssets 1\n                -showContainedOnly 0\n                -showPublishedAsConnected 0\n                -showParentContainers 0\n                -showContainerContents 0\n                -ignoreDagHierarchy 0\n                -expandConnections 1\n                -showUpstreamCurves 1\n                -showUnitlessCurves 0\n                -showCompounds 1\n                -showLeafs 1\n                -showNumericAttrsOnly 1\n                -highlightActive 0\n                -autoSelectNewObjects 0\n                -doNotSelectNewObjects 1\n                -dropIsParent 1\n                -transmitFilters 0\n                -setFilter \"0\" \n                -showSetMembers 0\n                -allowMultiSelection 1\n                -alwaysToggleSelect 0\n                -directSelect 0\n"
		+ "                -displayMode \"DAG\" \n                -expandObjects 0\n                -setsIgnoreFilters 1\n                -containersIgnoreFilters 0\n                -editAttrName 0\n                -showAttrValues 0\n                -highlightSecondary 0\n                -showUVAttrsOnly 0\n                -showTextureNodesOnly 0\n                -attrAlphaOrder \"default\" \n                -animLayerFilterOptions \"allAffecting\" \n                -sortOrder \"none\" \n                -longNames 0\n                -niceNames 1\n                -showNamespace 1\n                -showPinIcons 0\n                -mapMotionTrails 1\n                -ignoreHiddenAttribute 0\n                -ignoreOutlinerColor 0\n                -renderFilterVisible 0\n                $editorName;\n\n\t\t\t$editorName = ($panelName+\"DopeSheetEd\");\n            dopeSheetEditor -e \n                -displayValues 0\n                -snapTime \"integer\" \n                -snapValue \"none\" \n                -outliner \"dopeSheetPanel1OutlineEd\" \n                -showSummary 1\n"
		+ "                -showScene 0\n                -hierarchyBelow 0\n                -showTicks 1\n                -selectionWindow 0 0 0 0 \n                $editorName;\n\t\tif (!$useSceneConfig) {\n\t\t\tpanel -e -l $label $panelName;\n\t\t}\n\t}\n\n\n\t$panelName = `sceneUIReplacement -getNextScriptedPanel \"timeEditorPanel\" (localizedPanelLabel(\"Time Editor\")) `;\n\tif (\"\" != $panelName) {\n\t\t$label = `panel -q -label $panelName`;\n\t\tscriptedPanel -edit -l (localizedPanelLabel(\"Time Editor\")) -mbv $menusOkayInPanels  $panelName;\n\t\tif (!$useSceneConfig) {\n\t\t\tpanel -e -l $label $panelName;\n\t\t}\n\t}\n\n\n\t$panelName = `sceneUIReplacement -getNextScriptedPanel \"clipEditorPanel\" (localizedPanelLabel(\"Trax Editor\")) `;\n\tif (\"\" != $panelName) {\n\t\t$label = `panel -q -label $panelName`;\n\t\tscriptedPanel -edit -l (localizedPanelLabel(\"Trax Editor\")) -mbv $menusOkayInPanels  $panelName;\n\n\t\t\t$editorName = clipEditorNameFromPanel($panelName);\n            clipEditor -e \n                -displayValues 0\n                -snapTime \"none\" \n                -snapValue \"none\" \n"
		+ "                -initialized 0\n                -manageSequencer 0 \n                $editorName;\n\t\tif (!$useSceneConfig) {\n\t\t\tpanel -e -l $label $panelName;\n\t\t}\n\t}\n\n\n\t$panelName = `sceneUIReplacement -getNextScriptedPanel \"sequenceEditorPanel\" (localizedPanelLabel(\"Camera Sequencer\")) `;\n\tif (\"\" != $panelName) {\n\t\t$label = `panel -q -label $panelName`;\n\t\tscriptedPanel -edit -l (localizedPanelLabel(\"Camera Sequencer\")) -mbv $menusOkayInPanels  $panelName;\n\n\t\t\t$editorName = sequenceEditorNameFromPanel($panelName);\n            clipEditor -e \n                -displayValues 0\n                -snapTime \"none\" \n                -snapValue \"none\" \n                -initialized 0\n                -manageSequencer 1 \n                $editorName;\n\t\tif (!$useSceneConfig) {\n\t\t\tpanel -e -l $label $panelName;\n\t\t}\n\t}\n\n\n\t$panelName = `sceneUIReplacement -getNextScriptedPanel \"hyperGraphPanel\" (localizedPanelLabel(\"Hypergraph Hierarchy\")) `;\n\tif (\"\" != $panelName) {\n\t\t$label = `panel -q -label $panelName`;\n\t\tscriptedPanel -edit -l (localizedPanelLabel(\"Hypergraph Hierarchy\")) -mbv $menusOkayInPanels  $panelName;\n"
		+ "\n\t\t\t$editorName = ($panelName+\"HyperGraphEd\");\n            hyperGraph -e \n                -graphLayoutStyle \"hierarchicalLayout\" \n                -orientation \"horiz\" \n                -mergeConnections 0\n                -zoom 1\n                -animateTransition 0\n                -showRelationships 1\n                -showShapes 0\n                -showDeformers 0\n                -showExpressions 0\n                -showConstraints 0\n                -showConnectionFromSelected 0\n                -showConnectionToSelected 0\n                -showConstraintLabels 0\n                -showUnderworld 0\n                -showInvisible 0\n                -transitionFrames 1\n                -opaqueContainers 0\n                -freeform 0\n                -imagePosition 0 0 \n                -imageScale 1\n                -imageEnabled 0\n                -graphType \"DAG\" \n                -heatMapDisplay 0\n                -updateSelection 1\n                -updateNodeAdded 1\n                -useDrawOverrideColor 0\n                -limitGraphTraversal -1\n"
		+ "                -range 0 0 \n                -iconSize \"smallIcons\" \n                -showCachedConnections 0\n                $editorName;\n\t\tif (!$useSceneConfig) {\n\t\t\tpanel -e -l $label $panelName;\n\t\t}\n\t}\n\n\n\t$panelName = `sceneUIReplacement -getNextScriptedPanel \"hyperShadePanel\" (localizedPanelLabel(\"Hypershade\")) `;\n\tif (\"\" != $panelName) {\n\t\t$label = `panel -q -label $panelName`;\n\t\tscriptedPanel -edit -l (localizedPanelLabel(\"Hypershade\")) -mbv $menusOkayInPanels  $panelName;\n\t\tif (!$useSceneConfig) {\n\t\t\tpanel -e -l $label $panelName;\n\t\t}\n\t}\n\n\n\t$panelName = `sceneUIReplacement -getNextScriptedPanel \"visorPanel\" (localizedPanelLabel(\"Visor\")) `;\n\tif (\"\" != $panelName) {\n\t\t$label = `panel -q -label $panelName`;\n\t\tscriptedPanel -edit -l (localizedPanelLabel(\"Visor\")) -mbv $menusOkayInPanels  $panelName;\n\t\tif (!$useSceneConfig) {\n\t\t\tpanel -e -l $label $panelName;\n\t\t}\n\t}\n\n\n\t$panelName = `sceneUIReplacement -getNextScriptedPanel \"nodeEditorPanel\" (localizedPanelLabel(\"Node Editor\")) `;\n\tif ($nodeEditorPanelVisible || $nodeEditorWorkspaceControlOpen) {\n"
		+ "\t\tif (\"\" == $panelName) {\n\t\t\tif ($useSceneConfig) {\n\t\t\t\t$panelName = `scriptedPanel -unParent  -type \"nodeEditorPanel\" -l (localizedPanelLabel(\"Node Editor\")) -mbv $menusOkayInPanels `;\n\n\t\t\t$editorName = ($panelName+\"NodeEditorEd\");\n            nodeEditor -e \n                -allAttributes 0\n                -allNodes 0\n                -autoSizeNodes 1\n                -consistentNameSize 1\n                -createNodeCommand \"nodeEdCreateNodeCommand\" \n                -connectNodeOnCreation 0\n                -connectOnDrop 0\n                -copyConnectionsOnPaste 0\n                -connectionStyle \"bezier\" \n                -defaultPinnedState 0\n                -additiveGraphingMode 0\n                -settingsChangedCallback \"nodeEdSyncControls\" \n                -traversalDepthLimit -1\n                -keyPressCommand \"nodeEdKeyPressCommand\" \n                -nodeTitleMode \"name\" \n                -gridSnap 0\n                -gridVisibility 1\n                -crosshairOnEdgeDragging 0\n                -popupMenuScript \"nodeEdBuildPanelMenus\" \n"
		+ "                -showNamespace 1\n                -showShapes 1\n                -showSGShapes 0\n                -showTransforms 1\n                -useAssets 1\n                -syncedSelection 1\n                -extendToShapes 1\n                -editorMode \"default\" \n                -hasWatchpoint 0\n                $editorName;\n\t\t\t}\n\t\t} else {\n\t\t\t$label = `panel -q -label $panelName`;\n\t\t\tscriptedPanel -edit -l (localizedPanelLabel(\"Node Editor\")) -mbv $menusOkayInPanels  $panelName;\n\n\t\t\t$editorName = ($panelName+\"NodeEditorEd\");\n            nodeEditor -e \n                -allAttributes 0\n                -allNodes 0\n                -autoSizeNodes 1\n                -consistentNameSize 1\n                -createNodeCommand \"nodeEdCreateNodeCommand\" \n                -connectNodeOnCreation 0\n                -connectOnDrop 0\n                -copyConnectionsOnPaste 0\n                -connectionStyle \"bezier\" \n                -defaultPinnedState 0\n                -additiveGraphingMode 0\n                -settingsChangedCallback \"nodeEdSyncControls\" \n"
		+ "                -traversalDepthLimit -1\n                -keyPressCommand \"nodeEdKeyPressCommand\" \n                -nodeTitleMode \"name\" \n                -gridSnap 0\n                -gridVisibility 1\n                -crosshairOnEdgeDragging 0\n                -popupMenuScript \"nodeEdBuildPanelMenus\" \n                -showNamespace 1\n                -showShapes 1\n                -showSGShapes 0\n                -showTransforms 1\n                -useAssets 1\n                -syncedSelection 1\n                -extendToShapes 1\n                -editorMode \"default\" \n                -hasWatchpoint 0\n                $editorName;\n\t\t\tif (!$useSceneConfig) {\n\t\t\t\tpanel -e -l $label $panelName;\n\t\t\t}\n\t\t}\n\t}\n\n\n\t$panelName = `sceneUIReplacement -getNextScriptedPanel \"createNodePanel\" (localizedPanelLabel(\"Create Node\")) `;\n\tif (\"\" != $panelName) {\n\t\t$label = `panel -q -label $panelName`;\n\t\tscriptedPanel -edit -l (localizedPanelLabel(\"Create Node\")) -mbv $menusOkayInPanels  $panelName;\n\t\tif (!$useSceneConfig) {\n\t\t\tpanel -e -l $label $panelName;\n"
		+ "\t\t}\n\t}\n\n\n\t$panelName = `sceneUIReplacement -getNextScriptedPanel \"polyTexturePlacementPanel\" (localizedPanelLabel(\"UV Editor\")) `;\n\tif (\"\" != $panelName) {\n\t\t$label = `panel -q -label $panelName`;\n\t\tscriptedPanel -edit -l (localizedPanelLabel(\"UV Editor\")) -mbv $menusOkayInPanels  $panelName;\n\t\tif (!$useSceneConfig) {\n\t\t\tpanel -e -l $label $panelName;\n\t\t}\n\t}\n\n\n\t$panelName = `sceneUIReplacement -getNextScriptedPanel \"renderWindowPanel\" (localizedPanelLabel(\"Render View\")) `;\n\tif (\"\" != $panelName) {\n\t\t$label = `panel -q -label $panelName`;\n\t\tscriptedPanel -edit -l (localizedPanelLabel(\"Render View\")) -mbv $menusOkayInPanels  $panelName;\n\t\tif (!$useSceneConfig) {\n\t\t\tpanel -e -l $label $panelName;\n\t\t}\n\t}\n\n\n\t$panelName = `sceneUIReplacement -getNextPanel \"shapePanel\" (localizedPanelLabel(\"Shape Editor\")) `;\n\tif (\"\" != $panelName) {\n\t\t$label = `panel -q -label $panelName`;\n\t\tshapePanel -edit -l (localizedPanelLabel(\"Shape Editor\")) -mbv $menusOkayInPanels  $panelName;\n\t\tif (!$useSceneConfig) {\n\t\t\tpanel -e -l $label $panelName;\n"
		+ "\t\t}\n\t}\n\n\n\t$panelName = `sceneUIReplacement -getNextPanel \"posePanel\" (localizedPanelLabel(\"Pose Editor\")) `;\n\tif (\"\" != $panelName) {\n\t\t$label = `panel -q -label $panelName`;\n\t\tposePanel -edit -l (localizedPanelLabel(\"Pose Editor\")) -mbv $menusOkayInPanels  $panelName;\n\t\tif (!$useSceneConfig) {\n\t\t\tpanel -e -l $label $panelName;\n\t\t}\n\t}\n\n\n\t$panelName = `sceneUIReplacement -getNextScriptedPanel \"dynRelEdPanel\" (localizedPanelLabel(\"Dynamic Relationships\")) `;\n\tif (\"\" != $panelName) {\n\t\t$label = `panel -q -label $panelName`;\n\t\tscriptedPanel -edit -l (localizedPanelLabel(\"Dynamic Relationships\")) -mbv $menusOkayInPanels  $panelName;\n\t\tif (!$useSceneConfig) {\n\t\t\tpanel -e -l $label $panelName;\n\t\t}\n\t}\n\n\n\t$panelName = `sceneUIReplacement -getNextScriptedPanel \"relationshipPanel\" (localizedPanelLabel(\"Relationship Editor\")) `;\n\tif (\"\" != $panelName) {\n\t\t$label = `panel -q -label $panelName`;\n\t\tscriptedPanel -edit -l (localizedPanelLabel(\"Relationship Editor\")) -mbv $menusOkayInPanels  $panelName;\n\t\tif (!$useSceneConfig) {\n"
		+ "\t\t\tpanel -e -l $label $panelName;\n\t\t}\n\t}\n\n\n\t$panelName = `sceneUIReplacement -getNextScriptedPanel \"referenceEditorPanel\" (localizedPanelLabel(\"Reference Editor\")) `;\n\tif (\"\" != $panelName) {\n\t\t$label = `panel -q -label $panelName`;\n\t\tscriptedPanel -edit -l (localizedPanelLabel(\"Reference Editor\")) -mbv $menusOkayInPanels  $panelName;\n\t\tif (!$useSceneConfig) {\n\t\t\tpanel -e -l $label $panelName;\n\t\t}\n\t}\n\n\n\t$panelName = `sceneUIReplacement -getNextScriptedPanel \"componentEditorPanel\" (localizedPanelLabel(\"Component Editor\")) `;\n\tif (\"\" != $panelName) {\n\t\t$label = `panel -q -label $panelName`;\n\t\tscriptedPanel -edit -l (localizedPanelLabel(\"Component Editor\")) -mbv $menusOkayInPanels  $panelName;\n\t\tif (!$useSceneConfig) {\n\t\t\tpanel -e -l $label $panelName;\n\t\t}\n\t}\n\n\n\t$panelName = `sceneUIReplacement -getNextScriptedPanel \"dynPaintScriptedPanelType\" (localizedPanelLabel(\"Paint Effects\")) `;\n\tif (\"\" != $panelName) {\n\t\t$label = `panel -q -label $panelName`;\n\t\tscriptedPanel -edit -l (localizedPanelLabel(\"Paint Effects\")) -mbv $menusOkayInPanels  $panelName;\n"
		+ "\t\tif (!$useSceneConfig) {\n\t\t\tpanel -e -l $label $panelName;\n\t\t}\n\t}\n\n\n\t$panelName = `sceneUIReplacement -getNextScriptedPanel \"scriptEditorPanel\" (localizedPanelLabel(\"Script Editor\")) `;\n\tif (\"\" != $panelName) {\n\t\t$label = `panel -q -label $panelName`;\n\t\tscriptedPanel -edit -l (localizedPanelLabel(\"Script Editor\")) -mbv $menusOkayInPanels  $panelName;\n\t\tif (!$useSceneConfig) {\n\t\t\tpanel -e -l $label $panelName;\n\t\t}\n\t}\n\n\n\t$panelName = `sceneUIReplacement -getNextScriptedPanel \"profilerPanel\" (localizedPanelLabel(\"Profiler Tool\")) `;\n\tif (\"\" != $panelName) {\n\t\t$label = `panel -q -label $panelName`;\n\t\tscriptedPanel -edit -l (localizedPanelLabel(\"Profiler Tool\")) -mbv $menusOkayInPanels  $panelName;\n\t\tif (!$useSceneConfig) {\n\t\t\tpanel -e -l $label $panelName;\n\t\t}\n\t}\n\n\n\t$panelName = `sceneUIReplacement -getNextScriptedPanel \"contentBrowserPanel\" (localizedPanelLabel(\"Content Browser\")) `;\n\tif (\"\" != $panelName) {\n\t\t$label = `panel -q -label $panelName`;\n\t\tscriptedPanel -edit -l (localizedPanelLabel(\"Content Browser\")) -mbv $menusOkayInPanels  $panelName;\n"
		+ "\t\tif (!$useSceneConfig) {\n\t\t\tpanel -e -l $label $panelName;\n\t\t}\n\t}\n\n\n\tif ($useSceneConfig) {\n        string $configName = `getPanel -cwl (localizedPanelLabel(\"Current Layout\"))`;\n        if (\"\" != $configName) {\n\t\t\tpanelConfiguration -edit -label (localizedPanelLabel(\"Current Layout\")) \n\t\t\t\t-userCreated false\n\t\t\t\t-defaultImage \"\"\n\t\t\t\t-image \"\"\n\t\t\t\t-sc false\n\t\t\t\t-configString \"global string $gMainPane; paneLayout -e -cn \\\"single\\\" -ps 1 100 100 $gMainPane;\"\n\t\t\t\t-removeAllPanels\n\t\t\t\t-ap false\n\t\t\t\t\t(localizedPanelLabel(\"Persp View\")) \n\t\t\t\t\t\"modelPanel\"\n"
		+ "\t\t\t\t\t\"$panelName = `modelPanel -unParent -l (localizedPanelLabel(\\\"Persp View\\\")) -mbv $menusOkayInPanels `;\\n$editorName = $panelName;\\nmodelEditor -e \\n    -cam `findStartUpCamera persp` \\n    -useInteractiveMode 0\\n    -displayLights \\\"default\\\" \\n    -displayAppearance \\\"smoothShaded\\\" \\n    -activeOnly 0\\n    -ignorePanZoom 0\\n    -wireframeOnShaded 0\\n    -headsUpDisplay 1\\n    -holdOuts 1\\n    -selectionHiliteDisplay 1\\n    -useDefaultMaterial 0\\n    -bufferMode \\\"double\\\" \\n    -twoSidedLighting 0\\n    -backfaceCulling 0\\n    -xray 0\\n    -jointXray 0\\n    -activeComponentsXray 0\\n    -displayTextures 0\\n    -smoothWireframe 0\\n    -lineWidth 1\\n    -textureAnisotropic 0\\n    -textureHilight 1\\n    -textureSampling 2\\n    -textureDisplay \\\"modulate\\\" \\n    -textureMaxSize 32768\\n    -fogging 0\\n    -fogSource \\\"fragment\\\" \\n    -fogMode \\\"linear\\\" \\n    -fogStart 0\\n    -fogEnd 100\\n    -fogDensity 0.1\\n    -fogColor 0.5 0.5 0.5 1 \\n    -depthOfFieldPreview 1\\n    -maxConstantTransparency 1\\n    -rendererName \\\"vp2Renderer\\\" \\n    -objectFilterShowInHUD 1\\n    -isFiltered 0\\n    -colorResolution 256 256 \\n    -bumpResolution 512 512 \\n    -textureCompression 0\\n    -transparencyAlgorithm \\\"frontAndBackCull\\\" \\n    -transpInShadows 0\\n    -cullingOverride \\\"none\\\" \\n    -lowQualityLighting 0\\n    -maximumNumHardwareLights 1\\n    -occlusionCulling 0\\n    -shadingModel 0\\n    -useBaseRenderer 0\\n    -useReducedRenderer 0\\n    -smallObjectCulling 0\\n    -smallObjectThreshold -1 \\n    -interactiveDisableShadows 0\\n    -interactiveBackFaceCull 0\\n    -sortTransparent 1\\n    -controllers 1\\n    -nurbsCurves 1\\n    -nurbsSurfaces 1\\n    -polymeshes 1\\n    -subdivSurfaces 1\\n    -planes 1\\n    -lights 1\\n    -cameras 1\\n    -controlVertices 1\\n    -hulls 1\\n    -grid 1\\n    -imagePlane 1\\n    -joints 1\\n    -ikHandles 1\\n    -deformers 1\\n    -dynamics 1\\n    -particleInstancers 1\\n    -fluids 1\\n    -hairSystems 1\\n    -follicles 1\\n    -nCloths 1\\n    -nParticles 1\\n    -nRigids 1\\n    -dynamicConstraints 1\\n    -locators 1\\n    -manipulators 1\\n    -pluginShapes 1\\n    -dimensions 1\\n    -handles 1\\n    -pivots 1\\n    -textures 1\\n    -strokes 1\\n    -motionTrails 1\\n    -clipGhosts 1\\n    -greasePencils 1\\n    -shadows 0\\n    -captureSequenceNumber -1\\n    -width 1419\\n    -height 525\\n    -sceneRenderFilter 0\\n    $editorName;\\nmodelEditor -e -viewSelected 0 $editorName;\\nmodelEditor -e \\n    -pluginObjects \\\"gpuCacheDisplayFilter\\\" 1 \\n    $editorName\"\n"
		+ "\t\t\t\t\t\"modelPanel -edit -l (localizedPanelLabel(\\\"Persp View\\\")) -mbv $menusOkayInPanels  $panelName;\\n$editorName = $panelName;\\nmodelEditor -e \\n    -cam `findStartUpCamera persp` \\n    -useInteractiveMode 0\\n    -displayLights \\\"default\\\" \\n    -displayAppearance \\\"smoothShaded\\\" \\n    -activeOnly 0\\n    -ignorePanZoom 0\\n    -wireframeOnShaded 0\\n    -headsUpDisplay 1\\n    -holdOuts 1\\n    -selectionHiliteDisplay 1\\n    -useDefaultMaterial 0\\n    -bufferMode \\\"double\\\" \\n    -twoSidedLighting 0\\n    -backfaceCulling 0\\n    -xray 0\\n    -jointXray 0\\n    -activeComponentsXray 0\\n    -displayTextures 0\\n    -smoothWireframe 0\\n    -lineWidth 1\\n    -textureAnisotropic 0\\n    -textureHilight 1\\n    -textureSampling 2\\n    -textureDisplay \\\"modulate\\\" \\n    -textureMaxSize 32768\\n    -fogging 0\\n    -fogSource \\\"fragment\\\" \\n    -fogMode \\\"linear\\\" \\n    -fogStart 0\\n    -fogEnd 100\\n    -fogDensity 0.1\\n    -fogColor 0.5 0.5 0.5 1 \\n    -depthOfFieldPreview 1\\n    -maxConstantTransparency 1\\n    -rendererName \\\"vp2Renderer\\\" \\n    -objectFilterShowInHUD 1\\n    -isFiltered 0\\n    -colorResolution 256 256 \\n    -bumpResolution 512 512 \\n    -textureCompression 0\\n    -transparencyAlgorithm \\\"frontAndBackCull\\\" \\n    -transpInShadows 0\\n    -cullingOverride \\\"none\\\" \\n    -lowQualityLighting 0\\n    -maximumNumHardwareLights 1\\n    -occlusionCulling 0\\n    -shadingModel 0\\n    -useBaseRenderer 0\\n    -useReducedRenderer 0\\n    -smallObjectCulling 0\\n    -smallObjectThreshold -1 \\n    -interactiveDisableShadows 0\\n    -interactiveBackFaceCull 0\\n    -sortTransparent 1\\n    -controllers 1\\n    -nurbsCurves 1\\n    -nurbsSurfaces 1\\n    -polymeshes 1\\n    -subdivSurfaces 1\\n    -planes 1\\n    -lights 1\\n    -cameras 1\\n    -controlVertices 1\\n    -hulls 1\\n    -grid 1\\n    -imagePlane 1\\n    -joints 1\\n    -ikHandles 1\\n    -deformers 1\\n    -dynamics 1\\n    -particleInstancers 1\\n    -fluids 1\\n    -hairSystems 1\\n    -follicles 1\\n    -nCloths 1\\n    -nParticles 1\\n    -nRigids 1\\n    -dynamicConstraints 1\\n    -locators 1\\n    -manipulators 1\\n    -pluginShapes 1\\n    -dimensions 1\\n    -handles 1\\n    -pivots 1\\n    -textures 1\\n    -strokes 1\\n    -motionTrails 1\\n    -clipGhosts 1\\n    -greasePencils 1\\n    -shadows 0\\n    -captureSequenceNumber -1\\n    -width 1419\\n    -height 525\\n    -sceneRenderFilter 0\\n    $editorName;\\nmodelEditor -e -viewSelected 0 $editorName;\\nmodelEditor -e \\n    -pluginObjects \\\"gpuCacheDisplayFilter\\\" 1 \\n    $editorName\"\n"
		+ "\t\t\t\t$configName;\n\n            setNamedPanelLayout (localizedPanelLabel(\"Current Layout\"));\n        }\n\n        panelHistory -e -clear mainPanelHistory;\n        sceneUIReplacement -clear;\n\t}\n\n\ngrid -spacing 5 -size 12 -divisions 5 -displayAxes yes -displayGridLines yes -displayDivisionLines yes -displayPerspectiveLabels no -displayOrthographicLabels no -displayAxesBold yes -perspectiveLabelPosition axis -orthographicLabelPosition edge;\nviewManip -drawCompass 0 -compassAngle 0 -frontParameters \"\" -homeParameters \"\" -selectionLockParameters \"\";\n}\n");
	setAttr ".st" 3;
createNode script -n "sceneConfigurationScriptNode";
	rename -uid "8130A817-488A-BDD7-DC82-60B2F883356E";
	setAttr ".b" -type "string" "playbackOptions -min 1 -max 120 -ast 1 -aet 200 ";
	setAttr ".st" 6;
select -ne :time1;
	setAttr ".o" 1;
	setAttr ".unw" 1;
select -ne :hardwareRenderingGlobals;
	setAttr ".otfna" -type "stringArray" 22 "NURBS Curves" "NURBS Surfaces" "Polygons" "Subdiv Surface" "Particles" "Particle Instance" "Fluids" "Strokes" "Image Planes" "UI" "Lights" "Cameras" "Locators" "Joints" "IK Handles" "Deformers" "Motion Trails" "Components" "Hair Systems" "Follicles" "Misc. UI" "Ornaments"  ;
	setAttr ".otfva" -type "Int32Array" 22 0 1 1 1 1 1
		 1 1 1 0 0 0 0 0 0 0 0 0
		 0 0 0 0 ;
	setAttr ".fprt" yes;
select -ne :renderPartition;
	setAttr -s 2 ".st";
select -ne :renderGlobalsList1;
select -ne :defaultShaderList1;
	setAttr -s 5 ".s";
select -ne :postProcessList1;
	setAttr -s 2 ".p";
select -ne :defaultRenderingList1;
select -ne :initialShadingGroup;
	setAttr ".ro" yes;
select -ne :initialParticleSE;
	setAttr ".ro" yes;
select -ne :defaultRenderGlobals;
	addAttr -ci true -h true -sn "dss" -ln "defaultSurfaceShader" -dt "string";
	setAttr ".ren" -type "string" "arnold";
	setAttr ".dss" -type "string" "lambert1";
select -ne :defaultResolution;
	setAttr ".pa" 1;
select -ne :defaultColorMgtGlobals;
	setAttr ".cfe" yes;
	setAttr ".cfp" -type "string" "<MAYA_RESOURCES>/OCIO-configs/Maya2022-default/config.ocio";
	setAttr ".wsn" -type "string" "ACEScg";
select -ne :hardwareRenderGlobals;
	setAttr ".ctrs" 256;
	setAttr ".btrs" 512;
relationship "link" ":lightLinker1" ":initialShadingGroup.message" ":defaultLightSet.message";
relationship "link" ":lightLinker1" ":initialParticleSE.message" ":defaultLightSet.message";
relationship "shadowLink" ":lightLinker1" ":initialShadingGroup.message" ":defaultLightSet.message";
relationship "shadowLink" ":lightLinker1" ":initialParticleSE.message" ":defaultLightSet.message";
connectAttr "layerManager.dli[0]" "defaultLayer.id";
connectAttr "renderLayerManager.rlmi[0]" "defaultRenderLayer.rlid";
connectAttr "defaultRenderLayer.msg" ":defaultRenderingList1.r" -na;
connectAttr "pCylinderShape1.iog" ":initialShadingGroup.dsm" -na;
// End of Pillar.ma
